%!PS-Adobe-3.0 EPSF-3.0
%%Creator: (MATLAB, The Mathworks, Inc. Version 9.1.0.441655 \(R2016b\). Operating System: Linux)
%%Title: /home/lci/sgpp_segbot_ws/src/segbot_sgpp/segbot_navigation/matlabScripts/visualizationTools/final_plots/a_classification.eps
%%CreationDate: 2017-12-21T17:36:26
%%Pages: (atend)
%%BoundingBox: 0 0 420 170
%%LanguageLevel: 3
%%EndComments
%%BeginProlog
%%BeginResource: procset (Apache XML Graphics Std ProcSet) 1.2 0
%%Version: 1.2 0
%%Copyright: (Copyright 2001-2003,2010 The Apache Software Foundation. License terms: http://www.apache.org/licenses/LICENSE-2.0)
/bd{bind def}bind def
/ld{load def}bd
/GR/grestore ld
/M/moveto ld
/LJ/setlinejoin ld
/C/curveto ld
/f/fill ld
/LW/setlinewidth ld
/GC/setgray ld
/t/show ld
/N/newpath ld
/CT/concat ld
/cp/closepath ld
/S/stroke ld
/L/lineto ld
/CC/setcmykcolor ld
/A/ashow ld
/GS/gsave ld
/RC/setrgbcolor ld
/RM/rmoveto ld
/ML/setmiterlimit ld
/re {4 2 roll M
1 index 0 rlineto
0 exch rlineto
neg 0 rlineto
cp } bd
/_ctm matrix def
/_tm matrix def
/BT { _ctm currentmatrix pop matrix _tm copy pop 0 0 moveto } bd
/ET { _ctm setmatrix } bd
/iTm { _ctm setmatrix _tm concat } bd
/Tm { _tm astore pop iTm 0 0 moveto } bd
/ux 0.0 def
/uy 0.0 def
/F {
  /Tp exch def
  /Tf exch def
  Tf findfont Tp scalefont setfont
  /cf Tf def  /cs Tp def
} bd
/ULS {currentpoint /uy exch def /ux exch def} bd
/ULE {
  /Tcx currentpoint pop def
  gsave
  newpath
  cf findfont cs scalefont dup
  /FontMatrix get 0 get /Ts exch def /FontInfo get dup
  /UnderlinePosition get Ts mul /To exch def
  /UnderlineThickness get Ts mul /Tt exch def
  ux uy To add moveto  Tcx uy To add lineto
  Tt setlinewidth stroke
  grestore
} bd
/OLE {
  /Tcx currentpoint pop def
  gsave
  newpath
  cf findfont cs scalefont dup
  /FontMatrix get 0 get /Ts exch def /FontInfo get dup
  /UnderlinePosition get Ts mul /To exch def
  /UnderlineThickness get Ts mul /Tt exch def
  ux uy To add cs add moveto Tcx uy To add cs add lineto
  Tt setlinewidth stroke
  grestore
} bd
/SOE {
  /Tcx currentpoint pop def
  gsave
  newpath
  cf findfont cs scalefont dup
  /FontMatrix get 0 get /Ts exch def /FontInfo get dup
  /UnderlinePosition get Ts mul /To exch def
  /UnderlineThickness get Ts mul /Tt exch def
  ux uy To add cs 10 mul 26 idiv add moveto Tcx uy To add cs 10 mul 26 idiv add lineto
  Tt setlinewidth stroke
  grestore
} bd
/QT {
/Y22 exch store
/X22 exch store
/Y21 exch store
/X21 exch store
currentpoint
/Y21 load 2 mul add 3 div exch
/X21 load 2 mul add 3 div exch
/X21 load 2 mul /X22 load add 3 div
/Y21 load 2 mul /Y22 load add 3 div
/X22 load /Y22 load curveto
} bd
/SSPD {
dup length /d exch dict def
{
/v exch def
/k exch def
currentpagedevice k known {
/cpdv currentpagedevice k get def
v cpdv ne {
/upd false def
/nullv v type /nulltype eq def
/nullcpdv cpdv type /nulltype eq def
nullv nullcpdv or
{
/upd true def
} {
/sametype v type cpdv type eq def
sametype {
v type /arraytype eq {
/vlen v length def
/cpdvlen cpdv length def
vlen cpdvlen eq {
0 1 vlen 1 sub {
/i exch def
/obj v i get def
/cpdobj cpdv i get def
obj cpdobj ne {
/upd true def
exit
} if
} for
} {
/upd true def
} ifelse
} {
v type /dicttype eq {
v {
/dv exch def
/dk exch def
/cpddv cpdv dk get def
dv cpddv ne {
/upd true def
exit
} if
} forall
} {
/upd true def
} ifelse
} ifelse
} if
} ifelse
upd true eq {
d k v put
} if
} if
} if
} forall
d length 0 gt {
d setpagedevice
} if
} bd
/RE { % /NewFontName [NewEncodingArray] /FontName RE -
  findfont dup length dict begin
  {
    1 index /FID ne
    {def} {pop pop} ifelse
  } forall
  /Encoding exch def
  /FontName 1 index def
  currentdict definefont pop
  end
} bind def
%%EndResource
%%BeginResource: procset (Apache XML Graphics EPS ProcSet) 1.0 0
%%Version: 1.0 0
%%Copyright: (Copyright 2002-2003 The Apache Software Foundation. License terms: http://www.apache.org/licenses/LICENSE-2.0)
/BeginEPSF { %def
/b4_Inc_state save def         % Save state for cleanup
/dict_count countdictstack def % Count objects on dict stack
/op_count count 1 sub def      % Count objects on operand stack
userdict begin                 % Push userdict on dict stack
/showpage { } def              % Redefine showpage, { } = null proc
0 setgray 0 setlinecap         % Prepare graphics state
1 setlinewidth 0 setlinejoin
10 setmiterlimit [ ] 0 setdash newpath
/languagelevel where           % If level not equal to 1 then
{pop languagelevel             % set strokeadjust and
1 ne                           % overprint to their defaults.
{false setstrokeadjust false setoverprint
} if
} if
} bd
/EndEPSF { %def
count op_count sub {pop} repeat            % Clean up stacks
countdictstack dict_count sub {end} repeat
b4_Inc_state restore
} bd
%%EndResource
%FOPBeginFontDict
%%IncludeResource: font Courier-Bold
%%IncludeResource: font Helvetica
%%IncludeResource: font Courier-BoldOblique
%%IncludeResource: font Courier-Oblique
%%IncludeResource: font Times-Roman
%%IncludeResource: font Helvetica-BoldOblique
%%IncludeResource: font Helvetica-Bold
%%IncludeResource: font Helvetica-Oblique
%%IncludeResource: font Times-BoldItalic
%%IncludeResource: font Courier
%%IncludeResource: font Times-Italic
%%IncludeResource: font Times-Bold
%%IncludeResource: font Symbol
%%IncludeResource: font ZapfDingbats
%FOPEndFontDict
%%BeginResource: encoding WinAnsiEncoding
/WinAnsiEncoding [
/.notdef /.notdef /.notdef /.notdef /.notdef
/.notdef /.notdef /.notdef /.notdef /.notdef
/.notdef /.notdef /.notdef /.notdef /.notdef
/.notdef /.notdef /.notdef /.notdef /.notdef
/.notdef /.notdef /.notdef /.notdef /.notdef
/.notdef /.notdef /.notdef /.notdef /.notdef
/.notdef /.notdef /space /exclam /quotedbl
/numbersign /dollar /percent /ampersand /quotesingle
/parenleft /parenright /asterisk /plus /comma
/hyphen /period /slash /zero /one
/two /three /four /five /six
/seven /eight /nine /colon /semicolon
/less /equal /greater /question /at
/A /B /C /D /E
/F /G /H /I /J
/K /L /M /N /O
/P /Q /R /S /T
/U /V /W /X /Y
/Z /bracketleft /backslash /bracketright /asciicircum
/underscore /quoteleft /a /b /c
/d /e /f /g /h
/i /j /k /l /m
/n /o /p /q /r
/s /t /u /v /w
/x /y /z /braceleft /bar
/braceright /asciitilde /bullet /Euro /bullet
/quotesinglbase /florin /quotedblbase /ellipsis /dagger
/daggerdbl /circumflex /perthousand /Scaron /guilsinglleft
/OE /bullet /Zcaron /bullet /bullet
/quoteleft /quoteright /quotedblleft /quotedblright /bullet
/endash /emdash /asciitilde /trademark /scaron
/guilsinglright /oe /bullet /zcaron /Ydieresis
/space /exclamdown /cent /sterling /currency
/yen /brokenbar /section /dieresis /copyright
/ordfeminine /guillemotleft /logicalnot /sfthyphen /registered
/macron /degree /plusminus /twosuperior /threesuperior
/acute /mu /paragraph /middot /cedilla
/onesuperior /ordmasculine /guillemotright /onequarter /onehalf
/threequarters /questiondown /Agrave /Aacute /Acircumflex
/Atilde /Adieresis /Aring /AE /Ccedilla
/Egrave /Eacute /Ecircumflex /Edieresis /Igrave
/Iacute /Icircumflex /Idieresis /Eth /Ntilde
/Ograve /Oacute /Ocircumflex /Otilde /Odieresis
/multiply /Oslash /Ugrave /Uacute /Ucircumflex
/Udieresis /Yacute /Thorn /germandbls /agrave
/aacute /acircumflex /atilde /adieresis /aring
/ae /ccedilla /egrave /eacute /ecircumflex
/edieresis /igrave /iacute /icircumflex /idieresis
/eth /ntilde /ograve /oacute /ocircumflex
/otilde /odieresis /divide /oslash /ugrave
/uacute /ucircumflex /udieresis /yacute /thorn
/ydieresis
] def
%%EndResource
%FOPBeginFontReencode
/Courier-Bold findfont
dup length dict begin
  {1 index /FID ne {def} {pop pop} ifelse} forall
  /Encoding WinAnsiEncoding def
  currentdict
end
/Courier-Bold exch definefont pop
/Helvetica findfont
dup length dict begin
  {1 index /FID ne {def} {pop pop} ifelse} forall
  /Encoding WinAnsiEncoding def
  currentdict
end
/Helvetica exch definefont pop
/Courier-BoldOblique findfont
dup length dict begin
  {1 index /FID ne {def} {pop pop} ifelse} forall
  /Encoding WinAnsiEncoding def
  currentdict
end
/Courier-BoldOblique exch definefont pop
/Courier-Oblique findfont
dup length dict begin
  {1 index /FID ne {def} {pop pop} ifelse} forall
  /Encoding WinAnsiEncoding def
  currentdict
end
/Courier-Oblique exch definefont pop
/Times-Roman findfont
dup length dict begin
  {1 index /FID ne {def} {pop pop} ifelse} forall
  /Encoding WinAnsiEncoding def
  currentdict
end
/Times-Roman exch definefont pop
/Helvetica-BoldOblique findfont
dup length dict begin
  {1 index /FID ne {def} {pop pop} ifelse} forall
  /Encoding WinAnsiEncoding def
  currentdict
end
/Helvetica-BoldOblique exch definefont pop
/Helvetica-Bold findfont
dup length dict begin
  {1 index /FID ne {def} {pop pop} ifelse} forall
  /Encoding WinAnsiEncoding def
  currentdict
end
/Helvetica-Bold exch definefont pop
/Helvetica-Oblique findfont
dup length dict begin
  {1 index /FID ne {def} {pop pop} ifelse} forall
  /Encoding WinAnsiEncoding def
  currentdict
end
/Helvetica-Oblique exch definefont pop
/Times-BoldItalic findfont
dup length dict begin
  {1 index /FID ne {def} {pop pop} ifelse} forall
  /Encoding WinAnsiEncoding def
  currentdict
end
/Times-BoldItalic exch definefont pop
/Courier findfont
dup length dict begin
  {1 index /FID ne {def} {pop pop} ifelse} forall
  /Encoding WinAnsiEncoding def
  currentdict
end
/Courier exch definefont pop
/Times-Italic findfont
dup length dict begin
  {1 index /FID ne {def} {pop pop} ifelse} forall
  /Encoding WinAnsiEncoding def
  currentdict
end
/Times-Italic exch definefont pop
/Times-Bold findfont
dup length dict begin
  {1 index /FID ne {def} {pop pop} ifelse} forall
  /Encoding WinAnsiEncoding def
  currentdict
end
/Times-Bold exch definefont pop
%FOPEndFontReencode
%%EndProlog
%%Page: 1 1
%%PageBoundingBox: 0 0 420 170
%%BeginPageSetup
[1 0 0 -1 0 170] CT
%%EndPageSetup
GS
[0.75 0 0 0.75 0 0.5] CT
1 GC
N
0 0 560 226 re
f
GR
GS
[0.75 0 0 0.75 0 0.5] CT
1 GC
N
0 0 560 226 re
f
GR
GS
[0.75 0 0 0.75 0 0.5] CT
1 GC
N
77 184 M
260 184 L
260 17 L
77 17 L
cp
f
GR
GS
[0.75 0 0 0.75 0 0.5] CT
0.149 GC
2 setlinecap
1 LJ
0.667 LW
N
77 184 M
260 184 L
S
GR
GS
[0.75 0 0 0.75 0 0.5] CT
0.149 GC
2 setlinecap
1 LJ
0.667 LW
N
96.086 184 M
96.086 182.17 L
S
GR
GS
[0.75 0 0 0.75 0 0.5] CT
0.149 GC
2 setlinecap
1 LJ
0.667 LW
N
138.276 184 M
138.276 182.17 L
S
GR
GS
[0.75 0 0 0.75 0 0.5] CT
0.149 GC
2 setlinecap
1 LJ
0.667 LW
N
180.467 184 M
180.467 182.17 L
S
GR
GS
[0.75 0 0 0.75 0 0.5] CT
0.149 GC
2 setlinecap
1 LJ
0.667 LW
N
222.657 184 M
222.657 182.17 L
S
GR
GS
[0.75 0 0 0.75 72.06422 142.50001] CT
0.149 GC
/Helvetica 13.333 F
GS
[1 0 0 1 0 0] CT
-10.5 13 moveto 
1 -1 scale
(1.8) t 
GR
GR
GS
[0.75 0 0 0.75 103.70715 142.50001] CT
0.149 GC
/Helvetica 13.333 F
GS
[1 0 0 1 0 0] CT
-10.5 13 moveto 
1 -1 scale
(1.9) t 
GR
GR
GS
[0.75 0 0 0.75 135.35009 142.50001] CT
0.149 GC
/Helvetica 13.333 F
GS
[1 0 0 1 0 0] CT
-4.5 13 moveto 
1 -1 scale
(2) t 
GR
GR
GS
[0.75 0 0 0.75 166.99298 142.50001] CT
0.149 GC
/Helvetica 13.333 F
GS
[1 0 0 1 0 0] CT
-10.5 13 moveto 
1 -1 scale
(2.1) t 
GR
GR
GS
[0.75 0 0 0.75 123.75 167] CT
0.149 GC
N
2.422 0.172 M
1.734 0.172 1.328 -0.328 QT
0.922 -0.828 0.758 -1.531 QT
0.594 -2.234 0.594 -2.922 QT
0.594 -2.938 L
0.594 -3.688 0.742 -4.492 QT
0.891 -5.297 1.156 -6.102 QT
1.422 -6.906 1.75 -7.531 QT
1.969 -7.969 2.313 -8.508 QT
2.656 -9.047 3.086 -9.523 QT
3.516 -10 4.008 -10.289 QT
4.5 -10.578 5.016 -10.578 QT
5.031 -10.578 L
5.563 -10.578 5.93 -10.273 QT
6.297 -9.969 6.492 -9.5 QT
6.688 -9.031 6.773 -8.5 QT
6.859 -7.969 6.859 -7.484 QT
6.859 -6.344 6.547 -5.164 QT
6.234 -3.984 5.703 -2.875 QT
5.5 -2.469 5.133 -1.898 QT
4.766 -1.328 4.359 -0.883 QT
3.953 -0.438 3.445 -0.133 QT
2.938 0.172 2.438 0.172 QT
2.422 0.172 L
cp
2.453 -0.234 M
2.938 -0.234 3.398 -0.766 QT
3.859 -1.297 4.203 -2.055 QT
4.547 -2.813 4.805 -3.602 QT
5.063 -4.391 5.188 -4.953 QT
2.125 -4.953 L
1.891 -4 1.766 -3.32 QT
1.641 -2.641 1.641 -1.984 QT
1.641 -0.234 2.453 -0.234 QT
cp
2.25 -5.484 M
5.328 -5.484 L
5.484 -6.141 5.578 -6.586 QT
5.672 -7.031 5.742 -7.516 QT
5.813 -8 5.813 -8.438 QT
5.813 -10.188 5.016 -10.188 QT
4.063 -10.188 3.367 -8.656 QT
2.672 -7.125 2.25 -5.484 QT
cp
f
GR
GS
[0.75 0 0 0.75 0 0.5] CT
0.149 GC
2 setlinecap
1 LJ
0.667 LW
N
77 184 M
77 17 L
S
GR
GS
[0.75 0 0 0.75 0 0.5] CT
0.149 GC
2 setlinecap
1 LJ
0.667 LW
N
77 170.042 M
78.83 170.042 L
S
GR
GS
[0.75 0 0 0.75 0 0.5] CT
0.149 GC
2 setlinecap
1 LJ
0.667 LW
N
77 135.146 M
78.83 135.146 L
S
GR
GS
[0.75 0 0 0.75 0 0.5] CT
0.149 GC
2 setlinecap
1 LJ
0.667 LW
N
77 100.251 M
78.83 100.251 L
S
GR
GS
[0.75 0 0 0.75 0 0.5] CT
0.149 GC
2 setlinecap
1 LJ
0.667 LW
N
77 65.355 M
78.83 65.355 L
S
GR
GS
[0.75 0 0 0.75 0 0.5] CT
0.149 GC
2 setlinecap
1 LJ
0.667 LW
N
77 30.46 M
78.83 30.46 L
S
GR
GS
[0.75 0 0 0.75 53.75 128.03135] CT
0.149 GC
/Helvetica 13.333 F
GS
[1 0 0 1 0 0] CT
-13 4.5 moveto 
1 -1 scale
(-1) t 
GR
GR
GS
[0.75 0 0 0.75 53.75 101.8597] CT
0.149 GC
/Helvetica 13.333 F
GS
[1 0 0 1 0 0] CT
-26 4.5 moveto 
1 -1 scale
(-0.5) t 
GR
GR
GS
[0.75 0 0 0.75 53.75 75.68806] CT
0.149 GC
/Helvetica 13.333 F
GS
[1 0 0 1 0 0] CT
-9 4.5 moveto 
1 -1 scale
(0) t 
GR
GR
GS
[0.75 0 0 0.75 53.75 49.51641] CT
0.149 GC
/Helvetica 13.333 F
GS
[1 0 0 1 0 0] CT
-21 4.5 moveto 
1 -1 scale
(0.5) t 
GR
GR
GS
[0.75 0 0 0.75 53.75 23.34477] CT
0.149 GC
/Helvetica 13.333 F
GS
[1 0 0 1 0 0] CT
-9 4.5 moveto 
1 -1 scale
(1) t 
GR
GR
GS
[0 -0.75 0.75 0 28.5 104] CT
0.149 GC
/Helvetica 14.667 F
GS
[1 0 0 1 0 0] CT
0 0 moveto 
1 -1 scale
(Optimal ) t 
GR
GR
GS
[0 -0.75 0.75 0 28.5 55.25] CT
0.149 GC
N
1.813 0.172 M
0.969 0.172 0.594 -0.453 QT
0.219 -1.078 0.219 -1.984 QT
0.219 -2.578 0.32 -3.141 QT
0.422 -3.703 0.641 -4.289 QT
0.859 -4.875 1.133 -5.383 QT
1.406 -5.891 1.766 -6.375 QT
1.828 -6.469 1.938 -6.469 QT
2.031 -6.469 2.086 -6.406 QT
2.141 -6.344 2.141 -6.266 QT
2.141 -6.188 2.109 -6.125 QT
0.734 -4.234 0.734 -2.656 QT
0.734 -1.969 1.055 -1.469 QT
1.375 -0.969 2.016 -0.969 QT
2.578 -0.969 3.063 -1.305 QT
3.547 -1.641 3.891 -2.141 QT
3.891 -2.406 3.984 -2.961 QT
4.078 -3.516 4.273 -3.953 QT
4.469 -4.391 4.734 -4.391 QT
5.078 -4.391 5.078 -3.984 QT
5.078 -3.75 4.984 -3.398 QT
4.891 -3.047 4.766 -2.742 QT
4.641 -2.438 4.469 -2.047 QT
4.641 -0.969 5.531 -0.969 QT
6.063 -0.969 6.586 -1.273 QT
7.109 -1.578 7.508 -2.063 QT
7.906 -2.547 8.141 -3.109 QT
8.375 -3.672 8.375 -4.188 QT
8.375 -4.641 8.234 -4.891 QT
8.094 -5.141 7.859 -5.422 QT
7.625 -5.703 7.625 -5.859 QT
7.625 -6.156 7.867 -6.398 QT
8.109 -6.641 8.406 -6.641 QT
8.766 -6.641 8.922 -6.313 QT
9.078 -5.984 9.078 -5.547 QT
9.078 -4.859 8.805 -3.813 QT
8.531 -2.766 8.172 -2.078 QT
7.688 -1.125 6.961 -0.477 QT
6.234 0.172 5.328 0.172 QT
4.75 0.172 4.391 -0.18 QT
4.031 -0.531 3.938 -1.125 QT
3.516 -0.531 2.984 -0.18 QT
2.453 0.172 1.813 0.172 QT
cp
f
GR
GS
[0.75 0 0 0.75 100.5638 44.92613] CT
N
2.222 0 M
2.222 1.227 1.227 2.222 0 2.222 C
-1.227 2.222 -2.222 1.227 -2.222 0 C
-2.222 -1.227 -1.227 -2.222 0 -2.222 C
1.227 -2.222 2.222 -1.227 2.222 0 C
cp
f
GR
GS
[0.75 0 0 0.75 114.73124 67.0659] CT
N
/f-1759579234{2.222 0 M
2.222 1.227 1.227 2.222 0 2.222 C
-1.227 2.222 -2.222 1.227 -2.222 0 C
-2.222 -1.227 -1.227 -2.222 0 -2.222 C
1.227 -2.222 2.222 -1.227 2.222 0 C
cp}def
f-1759579234
f
GR
GS
[0.75 0 0 0.75 121.8906 75.07322] CT
N
f-1759579234
f
GR
GS
[0.75 0 0 0.75 158.34945 115.09414] CT
N
f-1759579234
f
GR
GS
[0.75 0 0 0.75 70.06209 27.88001] CT
N
f-1759579234
f
GR
GS
[0.75 0 0 0.75 146.64566 79.60905] CT
N
f-1759579234
f
GR
GS
[0.75 0 0 0.75 150.59748 84.49679] CT
N
f-1759579234
f
GR
GS
[0.75 0 0 0.75 159.47807 117.03662] CT
N
f-1759579234
f
GR
GS
[0.75 0 0 0.75 158.34945 115.09414] CT
N
f-1759579234
f
GR
GS
[0.75 0 0 0.75 118.89586 75.3639] CT
N
f-1759579234
f
GR
GS
[0.75 0 0 0.75 117.38856 67.5466] CT
N
f-1759579234
f
GR
GS
[0.75 0 0 0.75 118.04152 71.42759] CT
N
f-1759579234
f
GR
GS
[0.75 0 0 0.75 117.54072 76.19641] CT
N
f-1759579234
f
GR
GS
[0.75 0 0 0.75 135.12975 79.54931] CT
N
f-1759579234
f
GR
GS
[0.75 0 0 0.75 116.06284 75.59205] CT
N
f-1759579234
f
GR
GS
[0.75 0 0 0.75 171.60139 103.46419] CT
N
f-1759579234
f
GR
GS
[0.75 0 0 0.75 129.57661 78.90592] CT
N
f-1759579234
f
GR
GS
[0.75 0 0 0.75 133.24218 76.25493] CT
N
f-1759579234
f
GR
GS
[0.75 0 0 0.75 103.25159 26.33273] CT
N
f-1759579234
f
GR
GS
[0.75 0 0 0.75 110.35482 71.28843] CT
N
f-1759579234
f
GR
GS
[0.75 0 0 0.75 117.1296 75.01893] CT
N
f-1759579234
f
GR
GS
[0.75 0 0 0.75 104.67938 69.6182] CT
N
f-1759579234
f
GR
GS
[0.75 0 0 0.75 139.62806 75.67101] CT
N
f-1759579234
f
GR
GS
[0.75 0 0 0.75 149.85212 84.74025] CT
N
f-1759579234
f
GR
GS
[0.75 0 0 0.75 128.27896 75.89895] CT
N
f-1759579234
f
GR
GS
[0.75 0 0 0.75 124.1441 75.65056] CT
N
f-1759579234
f
GR
GS
[0.75 0 0 0.75 121.49916 72.51044] CT
N
f-1759579234
f
GR
GS
[0.75 0 0 0.75 133.73474 74.2799] CT
N
f-1759579234
f
GR
GS
[0.75 0 0 0.75 109.20922 52.53609] CT
N
f-1759579234
f
GR
GS
[0.75 0 0 0.75 124.2979 69.33183] CT
N
f-1759579234
f
GR
GS
[0.75 0 0 0.75 93.96846 51.83666] CT
N
f-1759579234
f
GR
GS
[0.75 0 0 0.75 121.36713 64.12618] CT
N
f-1759579234
f
GR
GS
[0.75 0 0 0.75 135.34069 77.64526] CT
N
f-1759579234
f
GR
GS
[0.75 0 0 0.75 128.27896 75.89895] CT
N
f-1759579234
f
GR
GS
[0.75 0 0 0.75 128.287 79.55061] CT
N
f-1759579234
f
GR
GS
[0.75 0 0 0.75 99.67215 24.20618] CT
N
f-1759579234
f
GR
GS
[0.75 0 0 0.75 142.27413 76.48664] CT
N
f-1759579234
f
GR
GS
[0.75 0 0 0.75 148.02007 79.88392] CT
N
f-1759579234
f
GR
GS
[0.75 0 0 0.75 177.07076 123.2925] CT
N
f-1759579234
f
GR
GS
[0.75 0 0 0.75 121.8906 75.07322] CT
N
f-1759579234
f
GR
GS
[0.75 0 0 0.75 124.1441 75.65056] CT
N
f-1759579234
f
GR
GS
[0.75 0 0 0.75 98.87706 72.99798] CT
N
f-1759579234
f
GR
GS
[0.75 0 0 0.75 98.87706 72.99798] CT
N
f-1759579234
f
GR
GS
[0.75 0 0 0.75 160.72189 115.18361] CT
N
f-1759579234
f
GR
GS
[0.75 0 0 0.75 133.24218 76.25493] CT
N
f-1759579234
f
GR
GS
[0.75 0 0 0.75 151.31465 79.84863] CT
N
f-1759579234
f
GR
GS
[0.75 0 0 0.75 122.40304 75.67975] CT
N
f-1759579234
f
GR
GS
[0.75 0 0 0.75 127.70582 74.02135] CT
N
f-1759579234
f
GR
GS
[0.75 0 0 0.75 150.59748 84.49679] CT
N
f-1759579234
f
GR
GS
[0.75 0 0 0.75 175.4645 125.20335] CT
N
f-1759579234
f
GR
GS
[0.75 0 0 0.75 125.34229 73.84831] CT
N
f-1759579234
f
GR
GS
[0.75 0 0 0.75 116.06284 75.59205] CT
N
f-1759579234
f
GR
GS
[0.75 0 0 0.75 142.88658 73.44883] CT
N
f-1759579234
f
GR
GS
[0.75 0 0 0.75 110.26067 73.94119] CT
N
f-1759579234
f
GR
GS
[0.75 0 0 0.75 111.83259 30.49379] CT
N
f-1759579234
f
GR
GS
[0.75 0 0 0.75 130.95766 73.91876] CT
N
f-1759579234
f
GR
GS
[0.75 0 0 0.75 129.38228 77.41876] CT
N
f-1759579234
f
GR
GS
[0.75 0 0 0.75 178.93743 123.36954] CT
N
f-1759579234
f
GR
GS
[0.75 0 0 0.75 163.51168 97.66653] CT
N
f-1759579234
f
GR
GS
[0.75 0 0 0.75 128.46859 77.60242] CT
N
f-1759579234
f
GR
GS
[0.75 0 0 0.75 118.37471 73.71504] CT
N
f-1759579234
f
GR
GS
[0.75 0 0 0.75 136.89711 69.29521] CT
N
f-1759579234
f
GR
GS
[0.75 0 0 0.75 124.14848 78.48599] CT
N
f-1759579234
f
GR
GS
[0.75 0 0 0.75 114.90234 52.49469] CT
N
f-1759579234
f
GR
GS
[0.75 0 0 0.75 146.64566 79.60905] CT
N
f-1759579234
f
GR
GS
[0.75 0 0 0.75 142.88658 73.44883] CT
N
f-1759579234
f
GR
GS
[0.75 0 0 0.75 132.95327 74.75295] CT
N
f-1759579234
f
GR
GS
[0.75 0 0 0.75 104.7629 55.09638] CT
N
f-1759579234
f
GR
GS
[0.75 0 0 0.75 112.21953 61.68385] CT
N
f-1759579234
f
GR
GS
[0.75 0 0 0.75 143.42298 74.28918] CT
N
f-1759579234
f
GR
GS
[0.75 0 0 0.75 128.287 79.55061] CT
N
f-1759579234
f
GR
GS
[0.75 0 0 0.75 120.34987 75.77666] CT
N
f-1759579234
f
GR
GS
[0.75 0 0 0.75 129.57661 78.90592] CT
N
f-1759579234
f
GR
GS
[0.75 0 0 0.75 131.88286 74.16612] CT
N
f-1759579234
f
GR
GS
[0.75 0 0 0.75 117.38856 67.5466] CT
N
f-1759579234
f
GR
GS
[0.75 0 0 0.75 105.16648 58.74269] CT
N
f-1759579234
f
GR
GS
[0.75 0 0 0.75 137.77572 78.38841] CT
N
f-1759579234
f
GR
GS
[0.75 0 0 0.75 112.09502 77.38379] CT
N
f-1759579234
f
GR
GS
[0.75 0 0 0.75 104.7629 55.09638] CT
N
f-1759579234
f
GR
GS
[0.75 0 0 0.75 98.87706 72.99798] CT
N
f-1759579234
f
GR
GS
[0.75 0 0 0.75 98.87706 72.99798] CT
N
f-1759579234
f
GR
GS
[0.75 0 0 0.75 169.99785 119.61303] CT
N
f-1759579234
f
GR
GS
[0.75 0 0 0.75 93.98506 52.62077] CT
N
f-1759579234
f
GR
GS
[0.75 0 0 0.75 102.41456 72.01315] CT
N
f-1759579234
f
GR
GS
[0.75 0 0 0.75 95.69477 42.03176] CT
N
f-1759579234
f
GR
GS
[0.75 0 0 0.75 108.60568 73.30735] CT
N
f-1759579234
f
GR
GS
[0.75 0 0 0.75 102.41456 72.01315] CT
N
f-1759579234
f
GR
GS
[0.75 0 0 0.75 151.31465 79.84863] CT
N
f-1759579234
f
GR
GS
[0.75 0 0 0.75 124.81796 69.21578] CT
N
f-1759579234
f
GR
GS
[0.75 0 0 0.75 121.67352 62.3201] CT
N
f-1759579234
f
GR
GS
[0.75 0 0 0.75 110.26067 73.94119] CT
N
f-1759579234
f
GR
GS
[0.75 0 0 0.75 104.75203 71.27432] CT
N
f-1759579234
f
GR
GS
[0.75 0 0 0.75 93.98506 52.62077] CT
N
f-1759579234
f
GR
GS
[0.75 0 0 0.75 162.94035 85.37358] CT
N
f-1759579234
f
GR
GS
[0.75 0 0 0.75 142.75991 83.46814] CT
N
f-1759579234
f
GR
GS
[0.75 0 0 0.75 177.00889 123.67336] CT
N
f-1759579234
f
GR
GS
[0.75 0 0 0.75 166.87083 93.54779] CT
N
f-1759579234
f
GR
GS
[0.75 0 0 0.75 138.27469 77.09009] CT
N
f-1759579234
f
GR
GS
[0.75 0 0 0.75 110.35482 71.28843] CT
N
f-1759579234
f
GR
GS
[0.75 0 0 0.75 124.81796 69.21578] CT
N
f-1759579234
f
GR
GS
[0.75 0 0 0.75 108.60568 73.30735] CT
N
f-1759579234
f
GR
GS
[0.75 0 0 0.75 117.54072 76.19641] CT
N
f-1759579234
f
GR
GS
[0.75 0 0 0.75 112.43613 74.12102] CT
N
f-1759579234
f
GR
GS
[0.75 0 0 0.75 127.97734 74.34486] CT
N
f-1759579234
f
GR
GS
[0.75 0 0 0.75 118.26486 74.39802] CT
N
f-1759579234
f
GR
GS
[0.75 0 0 0.75 114.99827 72.97876] CT
N
f-1759579234
f
GR
GS
[0.75 0 0 0.75 132.59228 74.49774] CT
N
f-1759579234
f
GR
GS
[0.75 0 0 0.75 125.78008 68.70683] CT
N
f-1759579234
f
GR
GS
[0.75 0 0 0.75 139.40965 75.35533] CT
N
f-1759579234
f
GR
GS
[0.75 0 0 0.75 124.1441 75.65056] CT
N
f-1759579234
f
GR
GS
[0.75 0 0 0.75 102.59969 43.87609] CT
N
f-1759579234
f
GR
GS
[0.75 0 0 0.75 172.82681 123.4825] CT
N
f-1759579234
f
GR
GS
[0.75 0 0 0.75 121.49916 72.51044] CT
N
f-1759579234
f
GR
GS
[0.75 0 0 0.75 170.68861 104.2028] CT
N
f-1759579234
f
GR
GS
[0.75 0 0 0.75 124.1441 75.65056] CT
N
f-1759579234
f
GR
GS
[0.75 0 0 0.75 135.34069 77.64526] CT
N
f-1759579234
f
GR
GS
[0.75 0 0 0.75 118.04152 71.42759] CT
N
f-1759579234
f
GR
GS
[0.75 0 0 0.75 175.4645 125.20335] CT
N
f-1759579234
f
GR
GS
[0.75 0 0 0.75 102.59969 43.87609] CT
N
f-1759579234
f
GR
GS
[0.75 0 0 0.75 129.53855 76.08854] CT
N
f-1759579234
f
GR
GS
[0.75 0 0 0.75 137.0781 75.94269] CT
N
f-1759579234
f
GR
GS
[0.75 0 0 0.75 105.16648 58.74269] CT
N
f-1759579234
f
GR
GS
[0.75 0 0 0.75 127.70582 74.02135] CT
N
f-1759579234
f
GR
GS
[0.75 0 0 0.75 142.15954 77.08471] CT
N
f-1759579234
f
GR
GS
[0.75 0 0 0.75 159.47807 117.03662] CT
N
f-1759579234
f
GR
GS
[0.75 0 0 0.75 147.84504 73.60704] CT
N
f-1759579234
f
GR
GS
[0.75 0 0 0.75 116.8153 75.84652] CT
N
f-1759579234
f
GR
GS
[0.75 0 0 0.75 151.09141 79.42456] CT
N
f-1759579234
f
GR
GS
[0.75 0 0 0.75 102.41456 72.01315] CT
N
f-1759579234
f
GR
GS
[0.75 0 0 0.75 127.06121 77.40416] CT
N
f-1759579234
f
GR
GS
[0.75 0 0 0.75 170.39981 118.79338] CT
N
f-1759579234
f
GR
GS
[0.75 0 0 0.75 133.24218 76.25493] CT
N
f-1759579234
f
GR
GS
[0.75 0 0 0.75 122.14295 68.6049] CT
N
f-1759579234
f
GR
GS
[0.75 0 0 0.75 133.73474 74.2799] CT
N
f-1759579234
f
GR
GS
[0.75 0 0 0.75 112.21953 61.68385] CT
N
f-1759579234
f
GR
GS
[0.75 0 0 0.75 169.99785 119.61303] CT
N
f-1759579234
f
GR
GS
[0.75 0 0 0.75 166.42407 122.52412] CT
N
f-1759579234
f
GR
GS
[0.75 0 0 0.75 172.3316 94.76971] CT
N
f-1759579234
f
GR
GS
[0.75 0 0 0.75 118.21797 74.85382] CT
N
f-1759579234
f
GR
GS
[0.75 0 0 0.75 136.24258 82.07908] CT
N
f-1759579234
f
GR
GS
[0.75 0 0 0.75 122.12383 75.38131] CT
N
f-1759579234
f
GR
GS
[0.75 0 0 0.75 102.59969 43.87609] CT
N
f-1759579234
f
GR
GS
[0.75 0 0 0.75 118.89586 75.3639] CT
N
f-1759579234
f
GR
GS
[0.75 0 0 0.75 140.99138 72.27991] CT
N
f-1759579234
f
GR
GS
[0.75 0 0 0.75 109.90963 54.52085] CT
N
f-1759579234
f
GR
GS
[0.75 0 0 0.75 100.5638 44.92613] CT
N
f-1759579234
f
GR
GS
[0.75 0 0 0.75 132.59228 74.49774] CT
N
f-1759579234
f
GR
GS
[0.75 0 0 0.75 124.2979 69.33183] CT
N
f-1759579234
f
GR
GS
[0.75 0 0 0.75 112.25518 74.07558] CT
N
f-1759579234
f
GR
GS
[0.75 0 0 0.75 128.46859 77.60242] CT
N
f-1759579234
f
GR
GS
[0.75 0 0 0.75 127.70582 74.02135] CT
N
f-1759579234
f
GR
GS
[0.75 0 0 0.75 151.09141 79.42456] CT
N
f-1759579234
f
GR
GS
[0.75 0 0 0.75 129.38228 77.41876] CT
N
f-1759579234
f
GR
GS
[0.75 0 0 0.75 136.24258 82.07908] CT
N
f-1759579234
f
GR
GS
[0.75 0 0 0.75 139.40965 75.35533] CT
N
f-1759579234
f
GR
GS
[0.75 0 0 0.75 126.81356 74.38369] CT
N
f-1759579234
f
GR
GS
[0.75 0 0 0.75 158.06117 79.0282] CT
N
f-1759579234
f
GR
GS
[0.75 0 0 0.75 106.4667 73.25328] CT
N
f-1759579234
f
GR
GS
[0.75 0 0 0.75 124.94519 74.78894] CT
N
f-1759579234
f
GR
GS
[0.75 0 0 0.75 122.12383 75.38131] CT
N
f-1759579234
f
GR
GS
[0.75 0 0 0.75 130.95766 73.91876] CT
N
f-1759579234
f
GR
GS
[0.75 0 0 0.75 127.06121 77.40416] CT
N
f-1759579234
f
GR
GS
[0.75 0 0 0.75 114.73124 67.0659] CT
N
f-1759579234
f
GR
GS
[0.75 0 0 0.75 142.88658 73.44883] CT
N
f-1759579234
f
GR
GS
[0.75 0 0 0.75 117.33047 72.40651] CT
N
f-1759579234
f
GR
GS
[0.75 0 0 0.75 131.88286 74.16612] CT
N
f-1759579234
f
GR
GS
[0.75 0 0 0.75 137.49794 77.8831] CT
N
f-1759579234
f
GR
GS
[0.75 0 0 0.75 158.42911 84.00433] CT
N
f-1759579234
f
GR
GS
[0.75 0 0 0.75 134.66032 81.23475] CT
N
f-1759579234
f
GR
GS
[0.75 0 0 0.75 112.21953 61.68385] CT
N
f-1759579234
f
GR
GS
[0.75 0 0 0.75 98.87706 72.99798] CT
N
f-1759579234
f
GR
GS
[0.75 0 0 0.75 110.81083 69.29002] CT
N
f-1759579234
f
GR
GS
[0.75 0 0 0.75 128.287 79.55061] CT
N
f-1759579234
f
GR
GS
[0.75 0 0 0.75 117.1296 75.01893] CT
N
f-1759579234
f
GR
GS
[0.75 0 0 0.75 132.59228 74.49774] CT
N
f-1759579234
f
GR
GS
[0.75 0 0 0.75 112.09502 77.38379] CT
N
f-1759579234
f
GR
GS
[0.75 0 0 0.75 102.41456 72.01315] CT
N
f-1759579234
f
GR
GS
[0.75 0 0 0.75 122.12383 75.38131] CT
N
f-1759579234
f
GR
GS
[0.75 0 0 0.75 132.40197 81.50582] CT
N
f-1759579234
f
GR
GS
[0.75 0 0 0.75 178.93743 123.36954] CT
N
f-1759579234
f
GR
GS
[0.75 0 0 0.75 114.99827 72.97876] CT
N
f-1759579234
f
GR
GS
[0.75 0 0 0.75 158.16777 93.84755] CT
N
f-1759579234
f
GR
GS
[0.75 0 0 0.75 128.27896 75.89895] CT
N
f-1759579234
f
GR
GS
[0.75 0 0 0.75 112.09502 77.38379] CT
N
f-1759579234
f
GR
GS
[0.75 0 0 0.75 110.26067 73.94119] CT
N
f-1759579234
f
GR
GS
[0.75 0 0 0.75 123.30549 73.59122] CT
N
f-1759579234
f
GR
GS
[0.75 0 0 0.75 121.8906 75.07322] CT
N
f-1759579234
f
GR
GS
[0.75 0 0 0.75 109.90963 54.52085] CT
N
f-1759579234
f
GR
GS
[0.75 0 0 0.75 117.33047 72.40651] CT
N
f-1759579234
f
GR
GS
[0.75 0 0 0.75 124.1441 75.65056] CT
N
f-1759579234
f
GR
GS
[0.75 0 0 0.75 129.53855 76.08854] CT
N
f-1759579234
f
GR
GS
[0.75 0 0 0.75 158.16777 93.84755] CT
N
f-1759579234
f
GR
GS
[0.75 0 0 0.75 110.26067 73.94119] CT
N
f-1759579234
f
GR
GS
[0.75 0 0 0.75 151.31465 79.84863] CT
N
f-1759579234
f
GR
GS
[0.75 0 0 0.75 144.62703 72.94013] CT
N
f-1759579234
f
GR
GS
[0.75 0 0 0.75 121.67352 62.3201] CT
N
f-1759579234
f
GR
GS
[0.75 0 0 0.75 134.70192 75.13171] CT
N
f-1759579234
f
GR
GS
[0.75 0 0 0.75 119.4704 72.93775] CT
N
f-1759579234
f
GR
GS
[0.75 0 0 0.75 125.34229 73.84831] CT
N
f-1759579234
f
GR
GS
[0.75 0 0 0.75 151.09141 79.42456] CT
N
f-1759579234
f
GR
GS
[0.75 0 0 0.75 65.49053 28.71958] CT
N
f-1759579234
f
GR
GS
[0.75 0 0 0.75 133.73474 74.2799] CT
N
f-1759579234
f
GR
GS
[0.75 0 0 0.75 118.04152 71.42759] CT
N
f-1759579234
f
GR
GS
[0.75 0 0 0.75 114.73124 67.0659] CT
N
f-1759579234
f
GR
GS
[0.75 0 0 0.75 128.27896 75.89895] CT
N
f-1759579234
f
GR
GS
[0.75 0 0 0.75 128.287 79.55061] CT
N
f-1759579234
f
GR
GS
[0.75 0 0 0.75 101.96571 44.43597] CT
N
f-1759579234
f
GR
GS
[0.75 0 0 0.75 129.38228 77.41876] CT
N
f-1759579234
f
GR
GS
[0.75 0 0 0.75 137.77572 78.38841] CT
N
f-1759579234
f
GR
GS
[0.75 0 0 0.75 119.00246 58.90814] CT
N
f-1759579234
f
GR
GS
[0.75 0 0 0.75 135.12975 79.54931] CT
N
f-1759579234
f
GR
GS
[0.75 0 0 0.75 117.38856 67.5466] CT
N
f-1759579234
f
GR
GS
[0.75 0 0 0.75 160.72189 115.18361] CT
N
f-1759579234
f
GR
GS
[0.75 0 0 0.75 179.50257 124.93273] CT
N
f-1759579234
f
GR
GS
[0.75 0 0 0.75 148.02007 79.88392] CT
N
f-1759579234
f
GR
GS
[0.75 0 0 0.75 94.95053 60.96362] CT
N
f-1759579234
f
GR
GS
[0.75 0 0 0.75 144.62703 72.94013] CT
N
f-1759579234
f
GR
GS
[0.75 0 0 0.75 172.82681 123.4825] CT
N
f-1759579234
f
GR
GS
[0.75 0 0 0.75 101.85021 74.10252] CT
N
f-1759579234
f
GR
GS
[0.75 0 0 0.75 172.82681 123.4825] CT
N
f-1759579234
f
GR
GS
[0.75 0 0 0.75 178.93743 123.36954] CT
N
f-1759579234
f
GR
GS
[0.75 0 0 0.75 131.95169 69.1895] CT
N
f-1759579234
f
GR
GS
[0.75 0 0 0.75 121.67352 62.3201] CT
N
f-1759579234
f
GR
GS
[0.75 0 0 0.75 109.20922 52.53609] CT
N
f-1759579234
f
GR
GS
[0.75 0 0 0.75 160.31472 84.62227] CT
N
f-1759579234
f
GR
GS
[0.75 0 0 0.75 124.81796 69.21578] CT
N
f-1759579234
f
GR
GS
[0.75 0 0 0.75 109.90963 54.52085] CT
N
f-1759579234
f
GR
GS
[0.75 0 0 0.75 119.4704 72.93775] CT
N
f-1759579234
f
GR
GS
[0.75 0 0 0.75 132.40197 81.50582] CT
N
f-1759579234
f
GR
GS
[0.75 0 0 0.75 119.00246 58.90814] CT
N
f-1759579234
f
GR
GS
[0.75 0 0 0.75 170.39981 118.79338] CT
N
f-1759579234
f
GR
GS
[0.75 0 0 0.75 135.56449 75.24564] CT
N
f-1759579234
f
GR
GS
[0.75 0 0 0.75 108.60568 73.30735] CT
N
f-1759579234
f
GR
GS
[0.75 0 0 0.75 178.93743 123.36954] CT
N
f-1759579234
f
GR
GS
[0.75 0 0 0.75 88.13757 41.37828] CT
N
f-1759579234
f
GR
GS
[0.75 0 0 0.75 143.20608 78.42324] CT
N
f-1759579234
f
GR
GS
[0.75 0 0 0.75 118.26486 74.39802] CT
N
f-1759579234
f
GR
GS
[0.75 0 0 0.75 160.72189 115.18361] CT
N
f-1759579234
f
GR
GS
[0.75 0 0 0.75 125.78008 68.70683] CT
N
f-1759579234
f
GR
GS
[0.75 0 0 0.75 116.59011 77.78109] CT
N
f-1759579234
f
GR
GS
[0.75 0 0 0.75 116.06284 75.59205] CT
N
f-1759579234
f
GR
GS
[0.75 0 0 0.75 160.31472 84.62227] CT
N
f-1759579234
f
GR
GS
[0.75 0 0 0.75 125.34229 73.84831] CT
N
f-1759579234
f
GR
GS
[0.75 0 0 0.75 116.15527 75.02354] CT
N
f-1759579234
f
GR
GS
[0.75 0 0 0.75 114.41224 52.34362] CT
N
f-1759579234
f
GR
GS
[0.75 0 0 0.75 65.49053 28.71958] CT
N
f-1759579234
f
GR
GS
[0.75 0 0 0.75 104.67938 69.6182] CT
N
f-1759579234
f
GR
GS
[0.75 0 0 0.75 112.43613 74.12102] CT
N
f-1759579234
f
GR
GS
[0.75 0 0 0.75 128.27896 75.89895] CT
N
f-1759579234
f
GR
GS
[0.75 0 0 0.75 105.16648 58.74269] CT
N
f-1759579234
f
GR
GS
[0.75 0 0 0.75 118.89586 75.3639] CT
N
f-1759579234
f
GR
GS
[0.75 0 0 0.75 114.73124 67.0659] CT
N
f-1759579234
f
GR
GS
[0.75 0 0 0.75 159.23023 114.63883] CT
N
f-1759579234
f
GR
GS
[0.75 0 0 0.75 100.5638 44.92613] CT
N
f-1759579234
f
GR
GS
[0.75 0 0 0.75 127.06121 77.40416] CT
N
f-1759579234
f
GR
GS
[0.75 0 0 0.75 111.83259 30.49379] CT
N
f-1759579234
f
GR
GS
[0.75 0 0 0.75 110.81083 69.29002] CT
N
f-1759579234
f
GR
GS
[0.75 0 0 0.75 111.51788 70.21522] CT
N
f-1759579234
f
GR
GS
[0.75 0 0 0.75 171.60139 103.46419] CT
N
f-1759579234
f
GR
GS
[0.75 0 0 0.75 104.7629 55.09638] CT
N
f-1759579234
f
GR
GS
[0.75 0 0 0.75 101.96571 44.43597] CT
N
f-1759579234
f
GR
GS
[0.75 0 0 0.75 127.06121 77.40416] CT
N
f-1759579234
f
GR
GS
[0.75 0 0 0.75 93.98506 52.62077] CT
N
f-1759579234
f
GR
GS
[0.75 0 0 0.75 148.02007 79.88392] CT
N
f-1759579234
f
GR
GS
[0.75 0 0 0.75 118.08255 73.92076] CT
N
f-1759579234
f
GR
GS
[0.75 0 0 0.75 99.67215 24.20618] CT
N
f-1759579234
f
GR
GS
[0.75 0 0 0.75 103.13137 54.74862] CT
N
f-1759579234
f
GR
GS
[0.75 0 0 0.75 121.8906 75.07322] CT
N
f-1759579234
f
GR
GS
[0.75 0 0 0.75 180.61806 125.16304] CT
N
f-1759579234
f
GR
GS
[0.75 0 0 0.75 116.15527 75.02354] CT
N
f-1759579234
f
GR
GS
[0.75 0 0 0.75 125.73704 59.63245] CT
N
f-1759579234
f
GR
GS
[0.75 0 0 0.75 126.81356 74.38369] CT
N
f-1759579234
f
GR
GS
[0.75 0 0 0.75 128.46859 77.60242] CT
N
f-1759579234
f
GR
GS
[0.75 0 0 0.75 118.26486 74.39802] CT
N
f-1759579234
f
GR
GS
[0.75 0 0 0.75 158.16777 93.84755] CT
N
f-1759579234
f
GR
GS
[0.75 0 0 0.75 104.75203 71.27432] CT
N
f-1759579234
f
GR
GS
[0.75 0 0 0.75 114.73124 67.0659] CT
N
f-1759579234
f
GR
GS
[0.75 0 0 0.75 125.78008 68.70683] CT
N
f-1759579234
f
GR
GS
[0.75 0 0 0.75 118.04152 71.42759] CT
N
f-1759579234
f
GR
GS
[0.75 0 0 0.75 117.1296 75.01893] CT
N
f-1759579234
f
GR
GS
[0.75 0 0 0.75 108.60568 73.30735] CT
N
f-1759579234
f
GR
GS
[0.75 0 0 0.75 110.35482 71.28843] CT
N
f-1759579234
f
GR
GS
[0.75 0 0 0.75 65.49053 28.71958] CT
N
f-1759579234
f
GR
GS
[0.75 0 0 0.75 65.49053 28.71958] CT
N
f-1759579234
f
GR
GS
[0.75 0 0 0.75 117.38856 67.5466] CT
N
f-1759579234
f
GR
GS
[0.75 0 0 0.75 114.90234 52.49469] CT
N
f-1759579234
f
GR
GS
[0.75 0 0 0.75 88.13757 41.37828] CT
N
f-1759579234
f
GR
GS
[0.75 0 0 0.75 105.20126 69.03342] CT
N
f-1759579234
f
GR
GS
[0.75 0 0 0.75 109.90963 54.52085] CT
N
f-1759579234
f
GR
GS
[0.75 0 0 0.75 93.98506 52.62077] CT
N
f-1759579234
f
GR
GS
[0.75 0 0 0.75 126.10003 76.11248] CT
N
f-1759579234
f
GR
GS
[0.75 0 0 0.75 148.282 79.29441] CT
N
f-1759579234
f
GR
GS
[0.75 0 0 0.75 137.0781 75.94269] CT
N
f-1759579234
f
GR
GS
[0.75 0 0 0.75 117.33047 72.40651] CT
N
f-1759579234
f
GR
GS
[0.75 0 0 0.75 139.62806 75.67101] CT
N
f-1759579234
f
GR
GS
[0.75 0 0 0.75 134.66032 81.23475] CT
N
f-1759579234
f
GR
GS
[0.75 0 0 0.75 103.25159 26.33273] CT
N
f-1759579234
f
GR
GS
[0.75 0 0 0.75 137.0781 75.94269] CT
N
f-1759579234
f
GR
GS
[0.75 0 0 0.75 135.56449 75.24564] CT
N
f-1759579234
f
GR
GS
[0.75 0 0 0.75 166.42407 122.52412] CT
N
f-1759579234
f
GR
GS
[0.75 0 0 0.75 65.49053 23.34477] CT
1 0 0 RC
N
f-1759579234
f
GR
GS
[0.75 0 0 0.75 65.49053 23.34477] CT
1 0 0 RC
N
f-1759579234
f
GR
GS
[0.75 0 0 0.75 65.49053 23.34477] CT
1 0 0 RC
N
f-1759579234
f
GR
GS
[0.75 0 0 0.75 65.49053 23.34477] CT
1 0 0 RC
N
f-1759579234
f
GR
GS
[0.75 0 0 0.75 70.06209 23.34477] CT
1 0 0 RC
N
f-1759579234
f
GR
GS
[0.75 0 0 0.75 88.13757 23.34477] CT
1 0 0 RC
N
f-1759579234
f
GR
GS
[0.75 0 0 0.75 88.13757 23.34477] CT
1 0 0 RC
N
f-1759579234
f
GR
GS
[0.75 0 0 0.75 93.96846 23.34477] CT
1 0 0 RC
N
f-1759579234
f
GR
GS
[0.75 0 0 0.75 93.98506 23.34477] CT
1 0 0 RC
N
f-1759579234
f
GR
GS
[0.75 0 0 0.75 93.98506 23.34477] CT
1 0 0 RC
N
f-1759579234
f
GR
GS
[0.75 0 0 0.75 93.98506 23.34477] CT
1 0 0 RC
N
f-1759579234
f
GR
GS
[0.75 0 0 0.75 93.98506 23.34477] CT
1 0 0 RC
N
f-1759579234
f
GR
GS
[0.75 0 0 0.75 94.95053 23.34477] CT
1 0 0 RC
N
f-1759579234
f
GR
GS
[0.75 0 0 0.75 95.69477 23.34477] CT
1 0 0 RC
N
f-1759579234
f
GR
GS
[0.75 0 0 0.75 98.87706 23.34477] CT
1 0 0 RC
N
f-1759579234
f
GR
GS
[0.75 0 0 0.75 98.87706 23.34477] CT
1 0 0 RC
N
f-1759579234
f
GR
GS
[0.75 0 0 0.75 98.87706 23.34477] CT
1 0 0 RC
N
f-1759579234
f
GR
GS
[0.75 0 0 0.75 98.87706 23.34477] CT
1 0 0 RC
N
f-1759579234
f
GR
GS
[0.75 0 0 0.75 98.87706 23.34477] CT
1 0 0 RC
N
f-1759579234
f
GR
GS
[0.75 0 0 0.75 99.67215 23.34477] CT
1 0 0 RC
N
f-1759579234
f
GR
GS
[0.75 0 0 0.75 99.67215 23.34477] CT
1 0 0 RC
N
f-1759579234
f
GR
GS
[0.75 0 0 0.75 100.5638 23.34477] CT
1 0 0 RC
N
f-1759579234
f
GR
GS
[0.75 0 0 0.75 100.5638 23.34477] CT
1 0 0 RC
N
f-1759579234
f
GR
GS
[0.75 0 0 0.75 100.5638 23.34477] CT
1 0 0 RC
N
f-1759579234
f
GR
GS
[0.75 0 0 0.75 101.85021 23.34477] CT
1 0 0 RC
N
f-1759579234
f
GR
GS
[0.75 0 0 0.75 101.96571 23.34477] CT
1 0 0 RC
N
f-1759579234
f
GR
GS
[0.75 0 0 0.75 101.96571 23.34477] CT
1 0 0 RC
N
f-1759579234
f
GR
GS
[0.75 0 0 0.75 102.41456 23.34477] CT
1 0 0 RC
N
f-1759579234
f
GR
GS
[0.75 0 0 0.75 102.41456 23.34477] CT
1 0 0 RC
N
f-1759579234
f
GR
GS
[0.75 0 0 0.75 102.41456 23.34477] CT
1 0 0 RC
N
f-1759579234
f
GR
GS
[0.75 0 0 0.75 102.41456 23.34477] CT
1 0 0 RC
N
f-1759579234
f
GR
GS
[0.75 0 0 0.75 102.59969 23.34477] CT
1 0 0 RC
N
f-1759579234
f
GR
GS
[0.75 0 0 0.75 102.59969 23.34477] CT
1 0 0 RC
N
f-1759579234
f
GR
GS
[0.75 0 0 0.75 102.59969 23.34477] CT
1 0 0 RC
N
f-1759579234
f
GR
GS
[0.75 0 0 0.75 103.13137 23.34477] CT
1 0 0 RC
N
f-1759579234
f
GR
GS
[0.75 0 0 0.75 103.25159 23.34477] CT
1 0 0 RC
N
f-1759579234
f
GR
GS
[0.75 0 0 0.75 103.25159 23.34477] CT
1 0 0 RC
N
f-1759579234
f
GR
GS
[0.75 0 0 0.75 104.67938 23.34477] CT
1 0 0 RC
N
f-1759579234
f
GR
GS
[0.75 0 0 0.75 104.67938 23.34477] CT
1 0 0 RC
N
f-1759579234
f
GR
GS
[0.75 0 0 0.75 104.75203 23.34477] CT
1 0 0 RC
N
f-1759579234
f
GR
GS
[0.75 0 0 0.75 104.75203 23.34477] CT
1 0 0 RC
N
f-1759579234
f
GR
GS
[0.75 0 0 0.75 104.7629 23.34477] CT
1 0 0 RC
N
f-1759579234
f
GR
GS
[0.75 0 0 0.75 104.7629 23.34477] CT
1 0 0 RC
N
f-1759579234
f
GR
GS
[0.75 0 0 0.75 104.7629 23.34477] CT
1 0 0 RC
N
f-1759579234
f
GR
GS
[0.75 0 0 0.75 105.16648 23.34477] CT
1 0 0 RC
N
f-1759579234
f
GR
GS
[0.75 0 0 0.75 105.16648 23.34477] CT
1 0 0 RC
N
f-1759579234
f
GR
GS
[0.75 0 0 0.75 105.16648 23.34477] CT
1 0 0 RC
N
f-1759579234
f
GR
GS
[0.75 0 0 0.75 105.20126 23.34477] CT
1 0 0 RC
N
f-1759579234
f
GR
GS
[0.75 0 0 0.75 106.4667 23.34477] CT
1 0 0 RC
N
f-1759579234
f
GR
GS
[0.75 0 0 0.75 108.60568 23.34477] CT
1 0 0 RC
N
f-1759579234
f
GR
GS
[0.75 0 0 0.75 108.60568 23.34477] CT
1 0 0 RC
N
f-1759579234
f
GR
GS
[0.75 0 0 0.75 108.60568 23.34477] CT
1 0 0 RC
N
f-1759579234
f
GR
GS
[0.75 0 0 0.75 108.60568 23.34477] CT
1 0 0 RC
N
f-1759579234
f
GR
GS
[0.75 0 0 0.75 109.20922 23.34477] CT
1 0 0 RC
N
f-1759579234
f
GR
GS
[0.75 0 0 0.75 109.20922 23.34477] CT
1 0 0 RC
N
f-1759579234
f
GR
GS
[0.75 0 0 0.75 109.90963 23.34477] CT
1 0 0 RC
N
f-1759579234
f
GR
GS
[0.75 0 0 0.75 109.90963 23.34477] CT
1 0 0 RC
N
f-1759579234
f
GR
GS
[0.75 0 0 0.75 109.90963 23.34477] CT
1 0 0 RC
N
f-1759579234
f
GR
GS
[0.75 0 0 0.75 109.90963 23.34477] CT
1 0 0 RC
N
f-1759579234
f
GR
GS
[0.75 0 0 0.75 110.26067 23.34477] CT
1 0 0 RC
N
f-1759579234
f
GR
GS
[0.75 0 0 0.75 110.26067 23.34477] CT
1 0 0 RC
N
f-1759579234
f
GR
GS
[0.75 0 0 0.75 110.26067 23.34477] CT
1 0 0 RC
N
f-1759579234
f
GR
GS
[0.75 0 0 0.75 110.26067 23.34477] CT
1 0 0 RC
N
f-1759579234
f
GR
GS
[0.75 0 0 0.75 110.35482 23.34477] CT
1 0 0 RC
N
f-1759579234
f
GR
GS
[0.75 0 0 0.75 110.35482 23.34477] CT
1 0 0 RC
N
f-1759579234
f
GR
GS
[0.75 0 0 0.75 110.35482 23.34477] CT
1 0 0 RC
N
f-1759579234
f
GR
GS
[0.75 0 0 0.75 110.81083 23.34477] CT
1 0 0 RC
N
f-1759579234
f
GR
GS
[0.75 0 0 0.75 110.81083 23.34477] CT
1 0 0 RC
N
f-1759579234
f
GR
GS
[0.75 0 0 0.75 111.51788 23.34477] CT
1 0 0 RC
N
f-1759579234
f
GR
GS
[0.75 0 0 0.75 111.83259 23.34477] CT
1 0 0 RC
N
f-1759579234
f
GR
GS
[0.75 0 0 0.75 111.83259 23.34477] CT
1 0 0 RC
N
f-1759579234
f
GR
GS
[0.75 0 0 0.75 112.09502 128.03135] CT
1 0 0 RC
N
f-1759579234
f
GR
GS
[0.75 0 0 0.75 112.09502 128.03135] CT
1 0 0 RC
N
f-1759579234
f
GR
GS
[0.75 0 0 0.75 112.09502 128.03135] CT
1 0 0 RC
N
f-1759579234
f
GR
GS
[0.75 0 0 0.75 112.21953 23.34477] CT
1 0 0 RC
N
f-1759579234
f
GR
GS
[0.75 0 0 0.75 112.21953 23.34477] CT
1 0 0 RC
N
f-1759579234
f
GR
GS
[0.75 0 0 0.75 112.21953 23.34477] CT
1 0 0 RC
N
f-1759579234
f
GR
GS
[0.75 0 0 0.75 112.25518 23.34477] CT
1 0 0 RC
N
f-1759579234
f
GR
GS
[0.75 0 0 0.75 112.43613 23.34477] CT
1 0 0 RC
N
f-1759579234
f
GR
GS
[0.75 0 0 0.75 112.43613 23.34477] CT
1 0 0 RC
N
f-1759579234
f
GR
GS
[0.75 0 0 0.75 114.41224 23.34477] CT
1 0 0 RC
N
f-1759579234
f
GR
GS
[0.75 0 0 0.75 114.73124 23.34477] CT
1 0 0 RC
N
f-1759579234
f
GR
GS
[0.75 0 0 0.75 114.73124 23.34477] CT
1 0 0 RC
N
f-1759579234
f
GR
GS
[0.75 0 0 0.75 114.73124 23.34477] CT
1 0 0 RC
N
f-1759579234
f
GR
GS
[0.75 0 0 0.75 114.73124 23.34477] CT
1 0 0 RC
N
f-1759579234
f
GR
GS
[0.75 0 0 0.75 114.73124 23.34477] CT
1 0 0 RC
N
f-1759579234
f
GR
GS
[0.75 0 0 0.75 114.90234 23.34477] CT
1 0 0 RC
N
f-1759579234
f
GR
GS
[0.75 0 0 0.75 114.90234 23.34477] CT
1 0 0 RC
N
f-1759579234
f
GR
GS
[0.75 0 0 0.75 114.99827 23.34477] CT
1 0 0 RC
N
f-1759579234
f
GR
GS
[0.75 0 0 0.75 114.99827 23.34477] CT
1 0 0 RC
N
f-1759579234
f
GR
GS
[0.75 0 0 0.75 116.06284 23.34477] CT
1 0 0 RC
N
f-1759579234
f
GR
GS
[0.75 0 0 0.75 116.06284 23.34477] CT
1 0 0 RC
N
f-1759579234
f
GR
GS
[0.75 0 0 0.75 116.06284 23.34477] CT
1 0 0 RC
N
f-1759579234
f
GR
GS
[0.75 0 0 0.75 116.15527 23.34477] CT
1 0 0 RC
N
f-1759579234
f
GR
GS
[0.75 0 0 0.75 116.15527 23.34477] CT
1 0 0 RC
N
f-1759579234
f
GR
GS
[0.75 0 0 0.75 116.59011 128.03135] CT
1 0 0 RC
N
f-1759579234
f
GR
GS
[0.75 0 0 0.75 116.8153 128.03135] CT
1 0 0 RC
N
f-1759579234
f
GR
GS
[0.75 0 0 0.75 117.1296 23.34477] CT
1 0 0 RC
N
f-1759579234
f
GR
GS
[0.75 0 0 0.75 117.1296 23.34477] CT
1 0 0 RC
N
f-1759579234
f
GR
GS
[0.75 0 0 0.75 117.1296 23.34477] CT
1 0 0 RC
N
f-1759579234
f
GR
GS
[0.75 0 0 0.75 117.33047 23.34477] CT
1 0 0 RC
N
f-1759579234
f
GR
GS
[0.75 0 0 0.75 117.33047 23.34477] CT
1 0 0 RC
N
f-1759579234
f
GR
GS
[0.75 0 0 0.75 117.33047 23.34477] CT
1 0 0 RC
N
f-1759579234
f
GR
GS
[0.75 0 0 0.75 117.38856 23.34477] CT
1 0 0 RC
N
f-1759579234
f
GR
GS
[0.75 0 0 0.75 117.38856 23.34477] CT
1 0 0 RC
N
f-1759579234
f
GR
GS
[0.75 0 0 0.75 117.38856 23.34477] CT
1 0 0 RC
N
f-1759579234
f
GR
GS
[0.75 0 0 0.75 117.38856 23.34477] CT
1 0 0 RC
N
f-1759579234
f
GR
GS
[0.75 0 0 0.75 117.54072 128.03135] CT
1 0 0 RC
N
f-1759579234
f
GR
GS
[0.75 0 0 0.75 117.54072 128.03135] CT
1 0 0 RC
N
f-1759579234
f
GR
GS
[0.75 0 0 0.75 118.04152 23.34477] CT
1 0 0 RC
N
f-1759579234
f
GR
GS
[0.75 0 0 0.75 118.04152 23.34477] CT
1 0 0 RC
N
f-1759579234
f
GR
GS
[0.75 0 0 0.75 118.04152 23.34477] CT
1 0 0 RC
N
f-1759579234
f
GR
GS
[0.75 0 0 0.75 118.04152 23.34477] CT
1 0 0 RC
N
f-1759579234
f
GR
GS
[0.75 0 0 0.75 118.08255 23.34477] CT
1 0 0 RC
N
f-1759579234
f
GR
GS
[0.75 0 0 0.75 118.21797 23.34477] CT
1 0 0 RC
N
f-1759579234
f
GR
GS
[0.75 0 0 0.75 118.26486 23.34477] CT
1 0 0 RC
N
f-1759579234
f
GR
GS
[0.75 0 0 0.75 118.26486 23.34477] CT
1 0 0 RC
N
f-1759579234
f
GR
GS
[0.75 0 0 0.75 118.26486 23.34477] CT
1 0 0 RC
N
f-1759579234
f
GR
GS
[0.75 0 0 0.75 118.37471 23.34477] CT
1 0 0 RC
N
f-1759579234
f
GR
GS
[0.75 0 0 0.75 118.89586 23.34477] CT
1 0 0 RC
N
f-1759579234
f
GR
GS
[0.75 0 0 0.75 118.89586 23.34477] CT
1 0 0 RC
N
f-1759579234
f
GR
GS
[0.75 0 0 0.75 118.89586 23.34477] CT
1 0 0 RC
N
f-1759579234
f
GR
GS
[0.75 0 0 0.75 119.00246 23.34477] CT
1 0 0 RC
N
f-1759579234
f
GR
GS
[0.75 0 0 0.75 119.00246 23.34477] CT
1 0 0 RC
N
f-1759579234
f
GR
GS
[0.75 0 0 0.75 119.4704 23.34477] CT
1 0 0 RC
N
f-1759579234
f
GR
GS
[0.75 0 0 0.75 119.4704 23.34477] CT
1 0 0 RC
N
f-1759579234
f
GR
GS
[0.75 0 0 0.75 120.34987 128.03135] CT
1 0 0 RC
N
f-1759579234
f
GR
GS
[0.75 0 0 0.75 121.36713 23.34477] CT
1 0 0 RC
N
f-1759579234
f
GR
GS
[0.75 0 0 0.75 121.49916 23.34477] CT
1 0 0 RC
N
f-1759579234
f
GR
GS
[0.75 0 0 0.75 121.49916 23.34477] CT
1 0 0 RC
N
f-1759579234
f
GR
GS
[0.75 0 0 0.75 121.67352 23.34477] CT
1 0 0 RC
N
f-1759579234
f
GR
GS
[0.75 0 0 0.75 121.67352 23.34477] CT
1 0 0 RC
N
f-1759579234
f
GR
GS
[0.75 0 0 0.75 121.67352 23.34477] CT
1 0 0 RC
N
f-1759579234
f
GR
GS
[0.75 0 0 0.75 121.8906 23.34477] CT
1 0 0 RC
N
f-1759579234
f
GR
GS
[0.75 0 0 0.75 121.8906 23.34477] CT
1 0 0 RC
N
f-1759579234
f
GR
GS
[0.75 0 0 0.75 121.8906 23.34477] CT
1 0 0 RC
N
f-1759579234
f
GR
GS
[0.75 0 0 0.75 121.8906 23.34477] CT
1 0 0 RC
N
f-1759579234
f
GR
GS
[0.75 0 0 0.75 122.12383 23.34477] CT
1 0 0 RC
N
f-1759579234
f
GR
GS
[0.75 0 0 0.75 122.12383 23.34477] CT
1 0 0 RC
N
f-1759579234
f
GR
GS
[0.75 0 0 0.75 122.12383 23.34477] CT
1 0 0 RC
N
f-1759579234
f
GR
GS
[0.75 0 0 0.75 122.14295 23.34477] CT
1 0 0 RC
N
f-1759579234
f
GR
GS
[0.75 0 0 0.75 122.40304 23.34477] CT
1 0 0 RC
N
f-1759579234
f
GR
GS
[0.75 0 0 0.75 123.30549 23.34477] CT
1 0 0 RC
N
f-1759579234
f
GR
GS
[0.75 0 0 0.75 124.1441 23.34477] CT
1 0 0 RC
N
f-1759579234
f
GR
GS
[0.75 0 0 0.75 124.1441 23.34477] CT
1 0 0 RC
N
f-1759579234
f
GR
GS
[0.75 0 0 0.75 124.1441 23.34477] CT
1 0 0 RC
N
f-1759579234
f
GR
GS
[0.75 0 0 0.75 124.1441 23.34477] CT
1 0 0 RC
N
f-1759579234
f
GR
GS
[0.75 0 0 0.75 124.1441 23.34477] CT
1 0 0 RC
N
f-1759579234
f
GR
GS
[0.75 0 0 0.75 124.14848 128.03135] CT
1 0 0 RC
N
f-1759579234
f
GR
GS
[0.75 0 0 0.75 124.2979 23.34477] CT
1 0 0 RC
N
f-1759579234
f
GR
GS
[0.75 0 0 0.75 124.2979 23.34477] CT
1 0 0 RC
N
f-1759579234
f
GR
GS
[0.75 0 0 0.75 124.81796 23.34477] CT
1 0 0 RC
N
f-1759579234
f
GR
GS
[0.75 0 0 0.75 124.81796 23.34477] CT
1 0 0 RC
N
f-1759579234
f
GR
GS
[0.75 0 0 0.75 124.81796 23.34477] CT
1 0 0 RC
N
f-1759579234
f
GR
GS
[0.75 0 0 0.75 124.94519 23.34477] CT
1 0 0 RC
N
f-1759579234
f
GR
GS
[0.75 0 0 0.75 125.34229 23.34477] CT
1 0 0 RC
N
f-1759579234
f
GR
GS
[0.75 0 0 0.75 125.34229 23.34477] CT
1 0 0 RC
N
f-1759579234
f
GR
GS
[0.75 0 0 0.75 125.34229 23.34477] CT
1 0 0 RC
N
f-1759579234
f
GR
GS
[0.75 0 0 0.75 125.73704 23.34477] CT
1 0 0 RC
N
f-1759579234
f
GR
GS
[0.75 0 0 0.75 125.78008 23.34477] CT
1 0 0 RC
N
f-1759579234
f
GR
GS
[0.75 0 0 0.75 125.78008 23.34477] CT
1 0 0 RC
N
f-1759579234
f
GR
GS
[0.75 0 0 0.75 125.78008 23.34477] CT
1 0 0 RC
N
f-1759579234
f
GR
GS
[0.75 0 0 0.75 126.10003 128.03135] CT
1 0 0 RC
N
f-1759579234
f
GR
GS
[0.75 0 0 0.75 126.81356 23.34477] CT
1 0 0 RC
N
f-1759579234
f
GR
GS
[0.75 0 0 0.75 126.81356 23.34477] CT
1 0 0 RC
N
f-1759579234
f
GR
GS
[0.75 0 0 0.75 127.06121 128.03135] CT
1 0 0 RC
N
f-1759579234
f
GR
GS
[0.75 0 0 0.75 127.06121 128.03135] CT
1 0 0 RC
N
f-1759579234
f
GR
GS
[0.75 0 0 0.75 127.06121 128.03135] CT
1 0 0 RC
N
f-1759579234
f
GR
GS
[0.75 0 0 0.75 127.06121 128.03135] CT
1 0 0 RC
N
f-1759579234
f
GR
GS
[0.75 0 0 0.75 127.70582 23.34477] CT
1 0 0 RC
N
f-1759579234
f
GR
GS
[0.75 0 0 0.75 127.70582 23.34477] CT
1 0 0 RC
N
f-1759579234
f
GR
GS
[0.75 0 0 0.75 127.70582 23.34477] CT
1 0 0 RC
N
f-1759579234
f
GR
GS
[0.75 0 0 0.75 127.97734 23.34477] CT
1 0 0 RC
N
f-1759579234
f
GR
GS
[0.75 0 0 0.75 128.27896 128.03135] CT
1 0 0 RC
N
f-1759579234
f
GR
GS
[0.75 0 0 0.75 128.27896 128.03135] CT
1 0 0 RC
N
f-1759579234
f
GR
GS
[0.75 0 0 0.75 128.27896 128.03135] CT
1 0 0 RC
N
f-1759579234
f
GR
GS
[0.75 0 0 0.75 128.27896 128.03135] CT
1 0 0 RC
N
f-1759579234
f
GR
GS
[0.75 0 0 0.75 128.27896 128.03135] CT
1 0 0 RC
N
f-1759579234
f
GR
GS
[0.75 0 0 0.75 128.287 128.03135] CT
1 0 0 RC
N
f-1759579234
f
GR
GS
[0.75 0 0 0.75 128.287 128.03135] CT
1 0 0 RC
N
f-1759579234
f
GR
GS
[0.75 0 0 0.75 128.287 128.03135] CT
1 0 0 RC
N
f-1759579234
f
GR
GS
[0.75 0 0 0.75 128.287 128.03135] CT
1 0 0 RC
N
f-1759579234
f
GR
GS
[0.75 0 0 0.75 128.46859 128.03135] CT
1 0 0 RC
N
f-1759579234
f
GR
GS
[0.75 0 0 0.75 128.46859 128.03135] CT
1 0 0 RC
N
f-1759579234
f
GR
GS
[0.75 0 0 0.75 128.46859 128.03135] CT
1 0 0 RC
N
f-1759579234
f
GR
GS
[0.75 0 0 0.75 129.38228 128.03135] CT
1 0 0 RC
N
f-1759579234
f
GR
GS
[0.75 0 0 0.75 129.38228 128.03135] CT
1 0 0 RC
N
f-1759579234
f
GR
GS
[0.75 0 0 0.75 129.38228 128.03135] CT
1 0 0 RC
N
f-1759579234
f
GR
GS
[0.75 0 0 0.75 129.53855 128.03135] CT
1 0 0 RC
N
f-1759579234
f
GR
GS
[0.75 0 0 0.75 129.53855 128.03135] CT
1 0 0 RC
N
f-1759579234
f
GR
GS
[0.75 0 0 0.75 129.57661 128.03135] CT
1 0 0 RC
N
f-1759579234
f
GR
GS
[0.75 0 0 0.75 129.57661 128.03135] CT
1 0 0 RC
N
f-1759579234
f
GR
GS
[0.75 0 0 0.75 130.95766 23.34477] CT
1 0 0 RC
N
f-1759579234
f
GR
GS
[0.75 0 0 0.75 130.95766 23.34477] CT
1 0 0 RC
N
f-1759579234
f
GR
GS
[0.75 0 0 0.75 131.88286 23.34477] CT
1 0 0 RC
N
f-1759579234
f
GR
GS
[0.75 0 0 0.75 131.88286 23.34477] CT
1 0 0 RC
N
f-1759579234
f
GR
GS
[0.75 0 0 0.75 131.95169 23.34477] CT
1 0 0 RC
N
f-1759579234
f
GR
GS
[0.75 0 0 0.75 132.40197 128.03135] CT
1 0 0 RC
N
f-1759579234
f
GR
GS
[0.75 0 0 0.75 132.40197 128.03135] CT
1 0 0 RC
N
f-1759579234
f
GR
GS
[0.75 0 0 0.75 132.59228 23.34477] CT
1 0 0 RC
N
f-1759579234
f
GR
GS
[0.75 0 0 0.75 132.59228 23.34477] CT
1 0 0 RC
N
f-1759579234
f
GR
GS
[0.75 0 0 0.75 132.59228 23.34477] CT
1 0 0 RC
N
f-1759579234
f
GR
GS
[0.75 0 0 0.75 132.95327 23.34477] CT
1 0 0 RC
N
f-1759579234
f
GR
GS
[0.75 0 0 0.75 133.24218 128.03135] CT
1 0 0 RC
N
f-1759579234
f
GR
GS
[0.75 0 0 0.75 133.24218 128.03135] CT
1 0 0 RC
N
f-1759579234
f
GR
GS
[0.75 0 0 0.75 133.24218 128.03135] CT
1 0 0 RC
N
f-1759579234
f
GR
GS
[0.75 0 0 0.75 133.73474 23.34477] CT
1 0 0 RC
N
f-1759579234
f
GR
GS
[0.75 0 0 0.75 133.73474 23.34477] CT
1 0 0 RC
N
f-1759579234
f
GR
GS
[0.75 0 0 0.75 133.73474 23.34477] CT
1 0 0 RC
N
f-1759579234
f
GR
GS
[0.75 0 0 0.75 134.66032 128.03135] CT
1 0 0 RC
N
f-1759579234
f
GR
GS
[0.75 0 0 0.75 134.66032 128.03135] CT
1 0 0 RC
N
f-1759579234
f
GR
GS
[0.75 0 0 0.75 134.70192 23.34477] CT
1 0 0 RC
N
f-1759579234
f
GR
GS
[0.75 0 0 0.75 135.12975 128.03135] CT
1 0 0 RC
N
f-1759579234
f
GR
GS
[0.75 0 0 0.75 135.12975 128.03135] CT
1 0 0 RC
N
f-1759579234
f
GR
GS
[0.75 0 0 0.75 135.34069 128.03135] CT
1 0 0 RC
N
f-1759579234
f
GR
GS
[0.75 0 0 0.75 135.34069 128.03135] CT
1 0 0 RC
N
f-1759579234
f
GR
GS
[0.75 0 0 0.75 135.56449 23.34477] CT
1 0 0 RC
N
f-1759579234
f
GR
GS
[0.75 0 0 0.75 135.56449 23.34477] CT
1 0 0 RC
N
f-1759579234
f
GR
GS
[0.75 0 0 0.75 136.24258 128.03135] CT
1 0 0 RC
N
f-1759579234
f
GR
GS
[0.75 0 0 0.75 136.24258 128.03135] CT
1 0 0 RC
N
f-1759579234
f
GR
GS
[0.75 0 0 0.75 136.89711 23.34477] CT
1 0 0 RC
N
f-1759579234
f
GR
GS
[0.75 0 0 0.75 137.0781 128.03135] CT
1 0 0 RC
N
f-1759579234
f
GR
GS
[0.75 0 0 0.75 137.0781 128.03135] CT
1 0 0 RC
N
f-1759579234
f
GR
GS
[0.75 0 0 0.75 137.0781 128.03135] CT
1 0 0 RC
N
f-1759579234
f
GR
GS
[0.75 0 0 0.75 137.49794 128.03135] CT
1 0 0 RC
N
f-1759579234
f
GR
GS
[0.75 0 0 0.75 137.77572 128.03135] CT
1 0 0 RC
N
f-1759579234
f
GR
GS
[0.75 0 0 0.75 137.77572 128.03135] CT
1 0 0 RC
N
f-1759579234
f
GR
GS
[0.75 0 0 0.75 138.27469 128.03135] CT
1 0 0 RC
N
f-1759579234
f
GR
GS
[0.75 0 0 0.75 139.40965 23.34477] CT
1 0 0 RC
N
f-1759579234
f
GR
GS
[0.75 0 0 0.75 139.40965 23.34477] CT
1 0 0 RC
N
f-1759579234
f
GR
GS
[0.75 0 0 0.75 139.62806 23.34477] CT
1 0 0 RC
N
f-1759579234
f
GR
GS
[0.75 0 0 0.75 139.62806 23.34477] CT
1 0 0 RC
N
f-1759579234
f
GR
GS
[0.75 0 0 0.75 140.99138 23.34477] CT
1 0 0 RC
N
f-1759579234
f
GR
GS
[0.75 0 0 0.75 142.15954 128.03135] CT
1 0 0 RC
N
f-1759579234
f
GR
GS
[0.75 0 0 0.75 142.27413 128.03135] CT
1 0 0 RC
N
f-1759579234
f
GR
GS
[0.75 0 0 0.75 142.75991 128.03135] CT
1 0 0 RC
N
f-1759579234
f
GR
GS
[0.75 0 0 0.75 142.88658 23.34477] CT
1 0 0 RC
N
f-1759579234
f
GR
GS
[0.75 0 0 0.75 142.88658 23.34477] CT
1 0 0 RC
N
f-1759579234
f
GR
GS
[0.75 0 0 0.75 142.88658 23.34477] CT
1 0 0 RC
N
f-1759579234
f
GR
GS
[0.75 0 0 0.75 143.20608 128.03135] CT
1 0 0 RC
N
f-1759579234
f
GR
GS
[0.75 0 0 0.75 143.42298 23.34477] CT
1 0 0 RC
N
f-1759579234
f
GR
GS
[0.75 0 0 0.75 144.62703 23.34477] CT
1 0 0 RC
N
f-1759579234
f
GR
GS
[0.75 0 0 0.75 144.62703 23.34477] CT
1 0 0 RC
N
f-1759579234
f
GR
GS
[0.75 0 0 0.75 146.64566 128.03135] CT
1 0 0 RC
N
f-1759579234
f
GR
GS
[0.75 0 0 0.75 146.64566 128.03135] CT
1 0 0 RC
N
f-1759579234
f
GR
GS
[0.75 0 0 0.75 147.84504 23.34477] CT
1 0 0 RC
N
f-1759579234
f
GR
GS
[0.75 0 0 0.75 148.02007 128.03135] CT
1 0 0 RC
N
f-1759579234
f
GR
GS
[0.75 0 0 0.75 148.02007 128.03135] CT
1 0 0 RC
N
f-1759579234
f
GR
GS
[0.75 0 0 0.75 148.02007 128.03135] CT
1 0 0 RC
N
f-1759579234
f
GR
GS
[0.75 0 0 0.75 148.282 128.03135] CT
1 0 0 RC
N
f-1759579234
f
GR
GS
[0.75 0 0 0.75 149.85212 128.03135] CT
1 0 0 RC
N
f-1759579234
f
GR
GS
[0.75 0 0 0.75 150.59748 128.03135] CT
1 0 0 RC
N
f-1759579234
f
GR
GS
[0.75 0 0 0.75 150.59748 128.03135] CT
1 0 0 RC
N
f-1759579234
f
GR
GS
[0.75 0 0 0.75 151.09141 128.03135] CT
1 0 0 RC
N
f-1759579234
f
GR
GS
[0.75 0 0 0.75 151.09141 128.03135] CT
1 0 0 RC
N
f-1759579234
f
GR
GS
[0.75 0 0 0.75 151.09141 128.03135] CT
1 0 0 RC
N
f-1759579234
f
GR
GS
[0.75 0 0 0.75 151.31465 128.03135] CT
1 0 0 RC
N
f-1759579234
f
GR
GS
[0.75 0 0 0.75 151.31465 128.03135] CT
1 0 0 RC
N
f-1759579234
f
GR
GS
[0.75 0 0 0.75 151.31465 128.03135] CT
1 0 0 RC
N
f-1759579234
f
GR
GS
[0.75 0 0 0.75 158.06117 128.03135] CT
1 0 0 RC
N
f-1759579234
f
GR
GS
[0.75 0 0 0.75 158.16777 128.03135] CT
1 0 0 RC
N
f-1759579234
f
GR
GS
[0.75 0 0 0.75 158.16777 128.03135] CT
1 0 0 RC
N
f-1759579234
f
GR
GS
[0.75 0 0 0.75 158.16777 128.03135] CT
1 0 0 RC
N
f-1759579234
f
GR
GS
[0.75 0 0 0.75 158.34945 128.03135] CT
1 0 0 RC
N
f-1759579234
f
GR
GS
[0.75 0 0 0.75 158.34945 128.03135] CT
1 0 0 RC
N
f-1759579234
f
GR
GS
[0.75 0 0 0.75 158.42911 128.03135] CT
1 0 0 RC
N
f-1759579234
f
GR
GS
[0.75 0 0 0.75 159.23023 128.03135] CT
1 0 0 RC
N
f-1759579234
f
GR
GS
[0.75 0 0 0.75 159.47807 128.03135] CT
1 0 0 RC
N
f-1759579234
f
GR
GS
[0.75 0 0 0.75 159.47807 128.03135] CT
1 0 0 RC
N
f-1759579234
f
GR
GS
[0.75 0 0 0.75 160.31472 128.03135] CT
1 0 0 RC
N
f-1759579234
f
GR
GS
[0.75 0 0 0.75 160.31472 128.03135] CT
1 0 0 RC
N
f-1759579234
f
GR
GS
[0.75 0 0 0.75 160.72189 128.03135] CT
1 0 0 RC
N
f-1759579234
f
GR
GS
[0.75 0 0 0.75 160.72189 128.03135] CT
1 0 0 RC
N
f-1759579234
f
GR
GS
[0.75 0 0 0.75 160.72189 128.03135] CT
1 0 0 RC
N
f-1759579234
f
GR
GS
[0.75 0 0 0.75 162.94035 128.03135] CT
1 0 0 RC
N
f-1759579234
f
GR
GS
[0.75 0 0 0.75 163.51168 128.03135] CT
1 0 0 RC
N
f-1759579234
f
GR
GS
[0.75 0 0 0.75 166.42407 128.03135] CT
1 0 0 RC
N
f-1759579234
f
GR
GS
[0.75 0 0 0.75 166.42407 128.03135] CT
1 0 0 RC
N
f-1759579234
f
GR
GS
[0.75 0 0 0.75 166.87083 128.03135] CT
1 0 0 RC
N
f-1759579234
f
GR
GS
[0.75 0 0 0.75 169.99785 128.03135] CT
1 0 0 RC
N
f-1759579234
f
GR
GS
[0.75 0 0 0.75 169.99785 128.03135] CT
1 0 0 RC
N
f-1759579234
f
GR
GS
[0.75 0 0 0.75 170.39981 128.03135] CT
1 0 0 RC
N
f-1759579234
f
GR
GS
[0.75 0 0 0.75 170.39981 128.03135] CT
1 0 0 RC
N
f-1759579234
f
GR
GS
[0.75 0 0 0.75 170.68861 128.03135] CT
1 0 0 RC
N
f-1759579234
f
GR
GS
[0.75 0 0 0.75 171.60139 128.03135] CT
1 0 0 RC
N
f-1759579234
f
GR
GS
[0.75 0 0 0.75 171.60139 128.03135] CT
1 0 0 RC
N
f-1759579234
f
GR
GS
[0.75 0 0 0.75 172.3316 128.03135] CT
1 0 0 RC
N
f-1759579234
f
GR
GS
[0.75 0 0 0.75 172.82681 128.03135] CT
1 0 0 RC
N
f-1759579234
f
GR
GS
[0.75 0 0 0.75 172.82681 128.03135] CT
1 0 0 RC
N
f-1759579234
f
GR
GS
[0.75 0 0 0.75 172.82681 128.03135] CT
1 0 0 RC
N
f-1759579234
f
GR
GS
[0.75 0 0 0.75 175.4645 128.03135] CT
1 0 0 RC
N
f-1759579234
f
GR
GS
[0.75 0 0 0.75 175.4645 128.03135] CT
1 0 0 RC
N
f-1759579234
f
GR
GS
[0.75 0 0 0.75 177.00889 128.03135] CT
1 0 0 RC
N
f-1759579234
f
GR
GS
[0.75 0 0 0.75 177.07076 128.03135] CT
1 0 0 RC
N
f-1759579234
f
GR
GS
[0.75 0 0 0.75 178.93743 128.03135] CT
1 0 0 RC
N
f-1759579234
f
GR
GS
[0.75 0 0 0.75 178.93743 128.03135] CT
1 0 0 RC
N
f-1759579234
f
GR
GS
[0.75 0 0 0.75 178.93743 128.03135] CT
1 0 0 RC
N
f-1759579234
f
GR
GS
[0.75 0 0 0.75 178.93743 128.03135] CT
1 0 0 RC
N
f-1759579234
f
GR
GS
[0.75 0 0 0.75 179.50257 128.03135] CT
1 0 0 RC
N
f-1759579234
f
GR
GS
[0.75 0 0 0.75 180.61806 128.03135] CT
1 0 0 RC
N
f-1759579234
f
GR
GS
[0.75 0 0 0.75 0 0.5] CT
0 0.447 0.741 RC
1 LJ
2.667 LW
N
126.535 16.98 M
234.861 184.02 L
S
GR
GS
[0.75 0 0 0.75 0 0.5] CT
1 GC
N
323 184 M
507 184 L
507 17 L
323 17 L
cp
f
GR
GS
[0.75 0 0 0.75 0 0.5] CT
0.149 GC
2 setlinecap
1 LJ
0.667 LW
N
323 184 M
507 184 L
S
GR
GS
[0.75 0 0 0.75 0 0.5] CT
0.149 GC
2 setlinecap
1 LJ
0.667 LW
N
367.565 184 M
367.565 182.16 L
S
GR
GS
[0.75 0 0 0.75 0 0.5] CT
0.149 GC
2 setlinecap
1 LJ
0.667 LW
N
425.053 184 M
425.053 182.16 L
S
GR
GS
[0.75 0 0 0.75 0 0.5] CT
0.149 GC
2 setlinecap
1 LJ
0.667 LW
N
482.541 184 M
482.541 182.16 L
S
GR
GS
[0.75 0 0 0.75 275.6738 142.5] CT
0.149 GC
/Helvetica 13.333 F
GS
[1 0 0 1 0 0] CT
-6.5 13 moveto 
1 -1 scale
(-8) t 
GR
GR
GS
[0.75 0 0 0.75 318.78973 142.5] CT
0.149 GC
/Helvetica 13.333 F
GS
[1 0 0 1 0 0] CT
-13 13 moveto 
1 -1 scale
(-7.5) t 
GR
GR
GS
[0.75 0 0 0.75 361.90567 142.5] CT
0.149 GC
/Helvetica 13.333 F
GS
[1 0 0 1 0 0] CT
-6.5 13 moveto 
1 -1 scale
(-7) t 
GR
GR
GS
[0.75 0 0 0.75 264.75 167] CT
0.149 GC
/Helvetica 14.667 F
GS
[1 0 0 1 0 0] CT
0 0 moveto 
1 -1 scale
(x cos ) t 
GR
GR
GS
[0.75 0 0 0.75 297.75 167] CT
0.149 GC
N
/f1162361650{2.422 0.172 M
1.734 0.172 1.328 -0.328 QT
0.922 -0.828 0.758 -1.531 QT
0.594 -2.234 0.594 -2.922 QT
0.594 -2.938 L
0.594 -3.688 0.742 -4.492 QT
0.891 -5.297 1.156 -6.102 QT
1.422 -6.906 1.75 -7.531 QT
1.969 -7.969 2.313 -8.508 QT
2.656 -9.047 3.086 -9.523 QT
3.516 -10 4.008 -10.289 QT
4.5 -10.578 5.016 -10.578 QT
5.031 -10.578 L
5.563 -10.578 5.93 -10.273 QT
6.297 -9.969 6.492 -9.5 QT
6.688 -9.031 6.773 -8.5 QT
6.859 -7.969 6.859 -7.484 QT
6.859 -6.344 6.547 -5.164 QT
6.234 -3.984 5.703 -2.875 QT
5.5 -2.469 5.133 -1.898 QT
4.766 -1.328 4.359 -0.883 QT
3.953 -0.438 3.445 -0.133 QT
2.938 0.172 2.438 0.172 QT
2.422 0.172 L
cp
2.453 -0.234 M
2.938 -0.234 3.398 -0.766 QT
3.859 -1.297 4.203 -2.055 QT
4.547 -2.813 4.805 -3.602 QT
5.063 -4.391 5.188 -4.953 QT
2.125 -4.953 L
1.891 -4 1.766 -3.32 QT
1.641 -2.641 1.641 -1.984 QT
1.641 -0.234 2.453 -0.234 QT
cp
2.25 -5.484 M
5.328 -5.484 L
5.484 -6.141 5.578 -6.586 QT
5.672 -7.031 5.742 -7.516 QT
5.813 -8 5.813 -8.438 QT
5.813 -10.188 5.016 -10.188 QT
4.063 -10.188 3.367 -8.656 QT
2.672 -7.125 2.25 -5.484 QT
cp}def
f1162361650
f
GR
GS
[0.75 0 0 0.75 303.75 167] CT
0.149 GC
/Helvetica 14.667 F
GS
[1 0 0 1 0 0] CT
0 0 moveto 
1 -1 scale
( + y sin ) t 
GR
GR
GS
[0.75 0 0 0.75 351 167] CT
0.149 GC
N
f1162361650
f
GR
GS
[0.75 0 0 0.75 0 0.5] CT
0.149 GC
2 setlinecap
1 LJ
0.667 LW
N
323 184 M
323 17 L
S
GR
GS
[0.75 0 0 0.75 0 0.5] CT
0.149 GC
2 setlinecap
1 LJ
0.667 LW
N
323 169.787 M
324.84 169.787 L
S
GR
GS
[0.75 0 0 0.75 0 0.5] CT
0.149 GC
2 setlinecap
1 LJ
0.667 LW
N
323 134.256 M
324.84 134.256 L
S
GR
GS
[0.75 0 0 0.75 0 0.5] CT
0.149 GC
2 setlinecap
1 LJ
0.667 LW
N
323 98.724 M
324.84 98.724 L
S
GR
GS
[0.75 0 0 0.75 0 0.5] CT
0.149 GC
2 setlinecap
1 LJ
0.667 LW
N
323 63.193 M
324.84 63.193 L
S
GR
GS
[0.75 0 0 0.75 0 0.5] CT
0.149 GC
2 setlinecap
1 LJ
0.667 LW
N
323 27.661 M
324.84 27.661 L
S
GR
GS
[0.75 0 0 0.75 238.24997 127.84053] CT
0.149 GC
/Helvetica 13.333 F
GS
[1 0 0 1 0 0] CT
-13 4.5 moveto 
1 -1 scale
(-1) t 
GR
GR
GS
[0.75 0 0 0.75 238.24997 101.19185] CT
0.149 GC
/Helvetica 13.333 F
GS
[1 0 0 1 0 0] CT
-26 4.5 moveto 
1 -1 scale
(-0.5) t 
GR
GR
GS
[0.75 0 0 0.75 238.24997 74.54317] CT
0.149 GC
/Helvetica 13.333 F
GS
[1 0 0 1 0 0] CT
-9 4.5 moveto 
1 -1 scale
(0) t 
GR
GR
GS
[0.75 0 0 0.75 238.24997 47.89449] CT
0.149 GC
/Helvetica 13.333 F
GS
[1 0 0 1 0 0] CT
-21 4.5 moveto 
1 -1 scale
(0.5) t 
GR
GR
GS
[0.75 0 0 0.75 238.24997 21.24582] CT
0.149 GC
/Helvetica 13.333 F
GS
[1 0 0 1 0 0] CT
-9 4.5 moveto 
1 -1 scale
(1) t 
GR
GR
GS
[0 -0.75 0.75 0 215.74997 75.87494] CT
0.149 GC
/Helvetica 14.667 F
GS
[1 0 0 1 0 0] CT
-36.5 -4 moveto 
1 -1 scale
(Optimal v) t 
GR
GR
GS
[0.75 0 0 0.75 283.89114 21.24582] CT
1 0 0 RC
N
f-1759579234
f
GR
GS
[0.75 0 0 0.75 287.02764 21.24582] CT
1 0 0 RC
N
f-1759579234
f
GR
GS
[0.75 0 0 0.75 293.86501 21.24582] CT
1 0 0 RC
N
f-1759579234
f
GR
GS
[0.75 0 0 0.75 329.51708 21.24582] CT
1 0 0 RC
N
f-1759579234
f
GR
GS
[0.75 0 0 0.75 257.89938 127.84053] CT
1 0 0 RC
N
f-1759579234
f
GR
GS
[0.75 0 0 0.75 320.20367 21.24582] CT
1 0 0 RC
N
f-1759579234
f
GR
GS
[0.75 0 0 0.75 317.79577 21.24582] CT
1 0 0 RC
N
f-1759579234
f
GR
GS
[0.75 0 0 0.75 332.97716 21.24582] CT
1 0 0 RC
N
f-1759579234
f
GR
GS
[0.75 0 0 0.75 329.51708 21.24582] CT
1 0 0 RC
N
f-1759579234
f
GR
GS
[0.75 0 0 0.75 289.79427 21.24582] CT
1 0 0 RC
N
f-1759579234
f
GR
GS
[0.75 0 0 0.75 291.53931 21.24582] CT
1 0 0 RC
N
f-1759579234
f
GR
GS
[0.75 0 0 0.75 290.69978 21.24582] CT
1 0 0 RC
N
f-1759579234
f
GR
GS
[0.75 0 0 0.75 293.28207 21.24582] CT
1 0 0 RC
N
f-1759579234
f
GR
GS
[0.75 0 0 0.75 303.59251 21.24582] CT
1 0 0 RC
N
f-1759579234
f
GR
GS
[0.75 0 0 0.75 290.66425 21.24582] CT
1 0 0 RC
N
f-1759579234
f
GR
GS
[0.75 0 0 0.75 348.36271 21.24582] CT
1 0 0 RC
N
f-1759579234
f
GR
GS
[0.75 0 0 0.75 302.79005 21.24582] CT
1 0 0 RC
N
f-1759579234
f
GR
GS
[0.75 0 0 0.75 306.29068 21.24582] CT
1 0 0 RC
N
f-1759579234
f
GR
GS
[0.75 0 0 0.75 284.20947 127.84053] CT
1 0 0 RC
N
f-1759579234
f
GR
GS
[0.75 0 0 0.75 281.67126 21.24582] CT
1 0 0 RC
N
f-1759579234
f
GR
GS
[0.75 0 0 0.75 293.8697 21.24582] CT
1 0 0 RC
N
f-1759579234
f
GR
GS
[0.75 0 0 0.75 275.39154 21.24582] CT
1 0 0 RC
N
f-1759579234
f
GR
GS
[0.75 0 0 0.75 312.15829 21.24582] CT
1 0 0 RC
N
f-1759579234
f
GR
GS
[0.75 0 0 0.75 322.099 21.24582] CT
1 0 0 RC
N
f-1759579234
f
GR
GS
[0.75 0 0 0.75 296.02251 21.24582] CT
1 0 0 RC
N
f-1759579234
f
GR
GS
[0.75 0 0 0.75 295.28259 21.24582] CT
1 0 0 RC
N
f-1759579234
f
GR
GS
[0.75 0 0 0.75 289.92121 21.24582] CT
1 0 0 RC
N
f-1759579234
f
GR
GS
[0.75 0 0 0.75 310.87486 21.24582] CT
1 0 0 RC
N
f-1759579234
f
GR
GS
[0.75 0 0 0.75 285.1255 21.24582] CT
1 0 0 RC
N
f-1759579234
f
GR
GS
[0.75 0 0 0.75 301.62467 21.24582] CT
1 0 0 RC
N
f-1759579234
f
GR
GS
[0.75 0 0 0.75 278.53839 21.24582] CT
1 0 0 RC
N
f-1759579234
f
GR
GS
[0.75 0 0 0.75 305.61859 21.24582] CT
1 0 0 RC
N
f-1759579234
f
GR
GS
[0.75 0 0 0.75 308.54105 21.24582] CT
1 0 0 RC
N
f-1759579234
f
GR
GS
[0.75 0 0 0.75 296.02251 21.24582] CT
1 0 0 RC
N
f-1759579234
f
GR
GS
[0.75 0 0 0.75 298.40849 21.24582] CT
1 0 0 RC
N
f-1759579234
f
GR
GS
[0.75 0 0 0.75 283.79327 127.84053] CT
1 0 0 RC
N
f-1759579234
f
GR
GS
[0.75 0 0 0.75 321.53192 21.24582] CT
1 0 0 RC
N
f-1759579234
f
GR
GS
[0.75 0 0 0.75 319.1209 21.24582] CT
1 0 0 RC
N
f-1759579234
f
GR
GS
[0.75 0 0 0.75 354.18262 21.24582] CT
1 0 0 RC
N
f-1759579234
f
GR
GS
[0.75 0 0 0.75 293.86501 21.24582] CT
1 0 0 RC
N
f-1759579234
f
GR
GS
[0.75 0 0 0.75 295.28259 21.24582] CT
1 0 0 RC
N
f-1759579234
f
GR
GS
[0.75 0 0 0.75 276.96936 21.24582] CT
1 0 0 RC
N
f-1759579234
f
GR
GS
[0.75 0 0 0.75 276.96936 21.24582] CT
1 0 0 RC
N
f-1759579234
f
GR
GS
[0.75 0 0 0.75 337.20074 21.24582] CT
1 0 0 RC
N
f-1759579234
f
GR
GS
[0.75 0 0 0.75 306.29068 21.24582] CT
1 0 0 RC
N
f-1759579234
f
GR
GS
[0.75 0 0 0.75 324.2176 21.24582] CT
1 0 0 RC
N
f-1759579234
f
GR
GS
[0.75 0 0 0.75 295.58949 21.24582] CT
1 0 0 RC
N
f-1759579234
f
GR
GS
[0.75 0 0 0.75 305.45815 21.24582] CT
1 0 0 RC
N
f-1759579234
f
GR
GS
[0.75 0 0 0.75 317.79577 21.24582] CT
1 0 0 RC
N
f-1759579234
f
GR
GS
[0.75 0 0 0.75 356.1075 21.24582] CT
1 0 0 RC
N
f-1759579234
f
GR
GS
[0.75 0 0 0.75 295.49194 21.24582] CT
1 0 0 RC
N
f-1759579234
f
GR
GS
[0.75 0 0 0.75 290.66425 21.24582] CT
1 0 0 RC
N
f-1759579234
f
GR
GS
[0.75 0 0 0.75 322.12193 21.24582] CT
1 0 0 RC
N
f-1759579234
f
GR
GS
[0.75 0 0 0.75 284.78558 21.24582] CT
1 0 0 RC
N
f-1759579234
f
GR
GS
[0.75 0 0 0.75 292.57755 127.84053] CT
1 0 0 RC
N
f-1759579234
f
GR
GS
[0.75 0 0 0.75 309.2929 21.24582] CT
1 0 0 RC
N
f-1759579234
f
GR
GS
[0.75 0 0 0.75 301.94884 21.24582] CT
1 0 0 RC
N
f-1759579234
f
GR
GS
[0.75 0 0 0.75 361.37828 21.24582] CT
1 0 0 RC
N
f-1759579234
f
GR
GS
[0.75 0 0 0.75 337.57027 21.24582] CT
1 0 0 RC
N
f-1759579234
f
GR
GS
[0.75 0 0 0.75 302.53173 21.24582] CT
1 0 0 RC
N
f-1759579234
f
GR
GS
[0.75 0 0 0.75 295.72218 21.24582] CT
1 0 0 RC
N
f-1759579234
f
GR
GS
[0.75 0 0 0.75 325.03354 21.24582] CT
1 0 0 RC
N
f-1759579234
f
GR
GS
[0.75 0 0 0.75 294.73569 21.24582] CT
1 0 0 RC
N
f-1759579234
f
GR
GS
[0.75 0 0 0.75 295.66772 21.24582] CT
1 0 0 RC
N
f-1759579234
f
GR
GS
[0.75 0 0 0.75 320.20367 21.24582] CT
1 0 0 RC
N
f-1759579234
f
GR
GS
[0.75 0 0 0.75 322.12193 21.24582] CT
1 0 0 RC
N
f-1759579234
f
GR
GS
[0.75 0 0 0.75 311.10665 21.24582] CT
1 0 0 RC
N
f-1759579234
f
GR
GS
[0.75 0 0 0.75 280.74342 21.24582] CT
1 0 0 RC
N
f-1759579234
f
GR
GS
[0.75 0 0 0.75 283.8327 21.24582] CT
1 0 0 RC
N
f-1759579234
f
GR
GS
[0.75 0 0 0.75 317.90067 21.24582] CT
1 0 0 RC
N
f-1759579234
f
GR
GS
[0.75 0 0 0.75 298.40849 21.24582] CT
1 0 0 RC
N
f-1759579234
f
GR
GS
[0.75 0 0 0.75 292.37636 21.24582] CT
1 0 0 RC
N
f-1759579234
f
GR
GS
[0.75 0 0 0.75 302.79005 21.24582] CT
1 0 0 RC
N
f-1759579234
f
GR
GS
[0.75 0 0 0.75 310.47901 21.24582] CT
1 0 0 RC
N
f-1759579234
f
GR
GS
[0.75 0 0 0.75 291.53931 21.24582] CT
1 0 0 RC
N
f-1759579234
f
GR
GS
[0.75 0 0 0.75 278.13325 21.24582] CT
1 0 0 RC
N
f-1759579234
f
GR
GS
[0.75 0 0 0.75 312.74107 21.24582] CT
1 0 0 RC
N
f-1759579234
f
GR
GS
[0.75 0 0 0.75 285.37033 21.24582] CT
1 0 0 RC
N
f-1759579234
f
GR
GS
[0.75 0 0 0.75 280.74342 21.24582] CT
1 0 0 RC
N
f-1759579234
f
GR
GS
[0.75 0 0 0.75 276.96936 21.24582] CT
1 0 0 RC
N
f-1759579234
f
GR
GS
[0.75 0 0 0.75 276.96936 21.24582] CT
1 0 0 RC
N
f-1759579234
f
GR
GS
[0.75 0 0 0.75 347.64716 21.24582] CT
1 0 0 RC
N
f-1759579234
f
GR
GS
[0.75 0 0 0.75 278.47002 21.24582] CT
1 0 0 RC
N
f-1759579234
f
GR
GS
[0.75 0 0 0.75 278.85981 21.24582] CT
1 0 0 RC
N
f-1759579234
f
GR
GS
[0.75 0 0 0.75 277.47503 21.24582] CT
1 0 0 RC
N
f-1759579234
f
GR
GS
[0.75 0 0 0.75 286.92297 21.24582] CT
1 0 0 RC
N
f-1759579234
f
GR
GS
[0.75 0 0 0.75 278.85981 21.24582] CT
1 0 0 RC
N
f-1759579234
f
GR
GS
[0.75 0 0 0.75 324.2176 21.24582] CT
1 0 0 RC
N
f-1759579234
f
GR
GS
[0.75 0 0 0.75 298.79908 21.24582] CT
1 0 0 RC
N
f-1759579234
f
GR
GS
[0.75 0 0 0.75 302.12576 21.24582] CT
1 0 0 RC
N
f-1759579234
f
GR
GS
[0.75 0 0 0.75 284.78558 21.24582] CT
1 0 0 RC
N
f-1759579234
f
GR
GS
[0.75 0 0 0.75 281.86102 21.24582] CT
1 0 0 RC
N
f-1759579234
f
GR
GS
[0.75 0 0 0.75 278.47002 21.24582] CT
1 0 0 RC
N
f-1759579234
f
GR
GS
[0.75 0 0 0.75 339.58706 21.24582] CT
1 0 0 RC
N
f-1759579234
f
GR
GS
[0.75 0 0 0.75 310.12802 21.24582] CT
1 0 0 RC
N
f-1759579234
f
GR
GS
[0.75 0 0 0.75 351.6562 21.24582] CT
1 0 0 RC
N
f-1759579234
f
GR
GS
[0.75 0 0 0.75 344.8656 21.24582] CT
1 0 0 RC
N
f-1759579234
f
GR
GS
[0.75 0 0 0.75 318.52796 21.24582] CT
1 0 0 RC
N
f-1759579234
f
GR
GS
[0.75 0 0 0.75 281.67126 21.24582] CT
1 0 0 RC
N
f-1759579234
f
GR
GS
[0.75 0 0 0.75 298.79908 21.24582] CT
1 0 0 RC
N
f-1759579234
f
GR
GS
[0.75 0 0 0.75 286.92297 21.24582] CT
1 0 0 RC
N
f-1759579234
f
GR
GS
[0.75 0 0 0.75 293.28207 21.24582] CT
1 0 0 RC
N
f-1759579234
f
GR
GS
[0.75 0 0 0.75 286.20344 21.24582] CT
1 0 0 RC
N
f-1759579234
f
GR
GS
[0.75 0 0 0.75 306.1384 21.24582] CT
1 0 0 RC
N
f-1759579234
f
GR
GS
[0.75 0 0 0.75 289.96726 21.24582] CT
1 0 0 RC
N
f-1759579234
f
GR
GS
[0.75 0 0 0.75 293.77625 21.24582] CT
1 0 0 RC
N
f-1759579234
f
GR
GS
[0.75 0 0 0.75 312.61961 21.24582] CT
1 0 0 RC
N
f-1759579234
f
GR
GS
[0.75 0 0 0.75 299.67593 21.24582] CT
1 0 0 RC
N
f-1759579234
f
GR
GS
[0.75 0 0 0.75 317.06909 21.24582] CT
1 0 0 RC
N
f-1759579234
f
GR
GS
[0.75 0 0 0.75 295.28259 21.24582] CT
1 0 0 RC
N
f-1759579234
f
GR
GS
[0.75 0 0 0.75 286.17231 21.24582] CT
1 0 0 RC
N
f-1759579234
f
GR
GS
[0.75 0 0 0.75 349.83055 21.24582] CT
1 0 0 RC
N
f-1759579234
f
GR
GS
[0.75 0 0 0.75 289.92121 21.24582] CT
1 0 0 RC
N
f-1759579234
f
GR
GS
[0.75 0 0 0.75 350.52026 21.24582] CT
1 0 0 RC
N
f-1759579234
f
GR
GS
[0.75 0 0 0.75 295.28259 21.24582] CT
1 0 0 RC
N
f-1759579234
f
GR
GS
[0.75 0 0 0.75 308.54105 21.24582] CT
1 0 0 RC
N
f-1759579234
f
GR
GS
[0.75 0 0 0.75 290.69978 21.24582] CT
1 0 0 RC
N
f-1759579234
f
GR
GS
[0.75 0 0 0.75 356.1075 21.24582] CT
1 0 0 RC
N
f-1759579234
f
GR
GS
[0.75 0 0 0.75 286.17231 21.24582] CT
1 0 0 RC
N
f-1759579234
f
GR
GS
[0.75 0 0 0.75 299.56716 21.24582] CT
1 0 0 RC
N
f-1759579234
f
GR
GS
[0.75 0 0 0.75 311.55347 21.24582] CT
1 0 0 RC
N
f-1759579234
f
GR
GS
[0.75 0 0 0.75 278.13325 21.24582] CT
1 0 0 RC
N
f-1759579234
f
GR
GS
[0.75 0 0 0.75 305.45815 21.24582] CT
1 0 0 RC
N
f-1759579234
f
GR
GS
[0.75 0 0 0.75 310.41458 21.24582] CT
1 0 0 RC
N
f-1759579234
f
GR
GS
[0.75 0 0 0.75 332.97716 21.24582] CT
1 0 0 RC
N
f-1759579234
f
GR
GS
[0.75 0 0 0.75 328.00182 21.24582] CT
1 0 0 RC
N
f-1759579234
f
GR
GS
[0.75 0 0 0.75 290.47783 21.24582] CT
1 0 0 RC
N
f-1759579234
f
GR
GS
[0.75 0 0 0.75 321.16658 21.24582] CT
1 0 0 RC
N
f-1759579234
f
GR
GS
[0.75 0 0 0.75 278.85981 21.24582] CT
1 0 0 RC
N
f-1759579234
f
GR
GS
[0.75 0 0 0.75 301.15578 21.24582] CT
1 0 0 RC
N
f-1759579234
f
GR
GS
[0.75 0 0 0.75 346.88786 21.24582] CT
1 0 0 RC
N
f-1759579234
f
GR
GS
[0.75 0 0 0.75 306.29068 21.24582] CT
1 0 0 RC
N
f-1759579234
f
GR
GS
[0.75 0 0 0.75 300.03431 21.24582] CT
1 0 0 RC
N
f-1759579234
f
GR
GS
[0.75 0 0 0.75 310.87486 21.24582] CT
1 0 0 RC
N
f-1759579234
f
GR
GS
[0.75 0 0 0.75 283.8327 21.24582] CT
1 0 0 RC
N
f-1759579234
f
GR
GS
[0.75 0 0 0.75 347.64716 21.24582] CT
1 0 0 RC
N
f-1759579234
f
GR
GS
[0.75 0 0 0.75 343.30206 21.24582] CT
1 0 0 RC
N
f-1759579234
f
GR
GS
[0.75 0 0 0.75 351.19979 21.24582] CT
1 0 0 RC
N
f-1759579234
f
GR
GS
[0.75 0 0 0.75 293.27797 21.24582] CT
1 0 0 RC
N
f-1759579234
f
GR
GS
[0.75 0 0 0.75 306.64204 21.24582] CT
1 0 0 RC
N
f-1759579234
f
GR
GS
[0.75 0 0 0.75 293.22356 21.24582] CT
1 0 0 RC
N
f-1759579234
f
GR
GS
[0.75 0 0 0.75 286.17231 21.24582] CT
1 0 0 RC
N
f-1759579234
f
GR
GS
[0.75 0 0 0.75 289.79427 21.24582] CT
1 0 0 RC
N
f-1759579234
f
GR
GS
[0.75 0 0 0.75 321.70583 21.24582] CT
1 0 0 RC
N
f-1759579234
f
GR
GS
[0.75 0 0 0.75 285.29212 21.24582] CT
1 0 0 RC
N
f-1759579234
f
GR
GS
[0.75 0 0 0.75 283.89114 21.24582] CT
1 0 0 RC
N
f-1759579234
f
GR
GS
[0.75 0 0 0.75 312.61961 21.24582] CT
1 0 0 RC
N
f-1759579234
f
GR
GS
[0.75 0 0 0.75 301.62467 21.24582] CT
1 0 0 RC
N
f-1759579234
f
GR
GS
[0.75 0 0 0.75 286.23534 21.24582] CT
1 0 0 RC
N
f-1759579234
f
GR
GS
[0.75 0 0 0.75 302.53173 21.24582] CT
1 0 0 RC
N
f-1759579234
f
GR
GS
[0.75 0 0 0.75 305.45815 21.24582] CT
1 0 0 RC
N
f-1759579234
f
GR
GS
[0.75 0 0 0.75 321.16658 21.24582] CT
1 0 0 RC
N
f-1759579234
f
GR
GS
[0.75 0 0 0.75 301.94884 21.24582] CT
1 0 0 RC
N
f-1759579234
f
GR
GS
[0.75 0 0 0.75 306.64204 21.24582] CT
1 0 0 RC
N
f-1759579234
f
GR
GS
[0.75 0 0 0.75 317.06909 21.24582] CT
1 0 0 RC
N
f-1759579234
f
GR
GS
[0.75 0 0 0.75 309.6283 21.24582] CT
1 0 0 RC
N
f-1759579234
f
GR
GS
[0.75 0 0 0.75 333.90656 21.24582] CT
1 0 0 RC
N
f-1759579234
f
GR
GS
[0.75 0 0 0.75 282.94519 21.24582] CT
1 0 0 RC
N
f-1759579234
f
GR
GS
[0.75 0 0 0.75 290.76611 21.24582] CT
1 0 0 RC
N
f-1759579234
f
GR
GS
[0.75 0 0 0.75 293.22356 21.24582] CT
1 0 0 RC
N
f-1759579234
f
GR
GS
[0.75 0 0 0.75 309.2929 21.24582] CT
1 0 0 RC
N
f-1759579234
f
GR
GS
[0.75 0 0 0.75 301.15578 21.24582] CT
1 0 0 RC
N
f-1759579234
f
GR
GS
[0.75 0 0 0.75 287.02764 21.24582] CT
1 0 0 RC
N
f-1759579234
f
GR
GS
[0.75 0 0 0.75 322.12193 21.24582] CT
1 0 0 RC
N
f-1759579234
f
GR
GS
[0.75 0 0 0.75 283.56493 21.24582] CT
1 0 0 RC
N
f-1759579234
f
GR
GS
[0.75 0 0 0.75 310.47901 21.24582] CT
1 0 0 RC
N
f-1759579234
f
GR
GS
[0.75 0 0 0.75 309.88229 21.24582] CT
1 0 0 RC
N
f-1759579234
f
GR
GS
[0.75 0 0 0.75 334.87466 21.24582] CT
1 0 0 RC
N
f-1759579234
f
GR
GS
[0.75 0 0 0.75 300.99522 21.24582] CT
1 0 0 RC
N
f-1759579234
f
GR
GS
[0.75 0 0 0.75 283.8327 21.24582] CT
1 0 0 RC
N
f-1759579234
f
GR
GS
[0.75 0 0 0.75 276.96936 21.24582] CT
1 0 0 RC
N
f-1759579234
f
GR
GS
[0.75 0 0 0.75 287.03693 21.24582] CT
1 0 0 RC
N
f-1759579234
f
GR
GS
[0.75 0 0 0.75 298.40849 21.24582] CT
1 0 0 RC
N
f-1759579234
f
GR
GS
[0.75 0 0 0.75 293.8697 21.24582] CT
1 0 0 RC
N
f-1759579234
f
GR
GS
[0.75 0 0 0.75 312.61961 21.24582] CT
1 0 0 RC
N
f-1759579234
f
GR
GS
[0.75 0 0 0.75 285.37033 21.24582] CT
1 0 0 RC
N
f-1759579234
f
GR
GS
[0.75 0 0 0.75 278.85981 21.24582] CT
1 0 0 RC
N
f-1759579234
f
GR
GS
[0.75 0 0 0.75 293.22356 21.24582] CT
1 0 0 RC
N
f-1759579234
f
GR
GS
[0.75 0 0 0.75 303.56715 21.24582] CT
1 0 0 RC
N
f-1759579234
f
GR
GS
[0.75 0 0 0.75 361.37828 21.24582] CT
1 0 0 RC
N
f-1759579234
f
GR
GS
[0.75 0 0 0.75 293.77625 21.24582] CT
1 0 0 RC
N
f-1759579234
f
GR
GS
[0.75 0 0 0.75 331.4366 21.24582] CT
1 0 0 RC
N
f-1759579234
f
GR
GS
[0.75 0 0 0.75 296.02251 21.24582] CT
1 0 0 RC
N
f-1759579234
f
GR
GS
[0.75 0 0 0.75 285.37033 21.24582] CT
1 0 0 RC
N
f-1759579234
f
GR
GS
[0.75 0 0 0.75 284.78558 21.24582] CT
1 0 0 RC
N
f-1759579234
f
GR
GS
[0.75 0 0 0.75 303.46179 21.24582] CT
1 0 0 RC
N
f-1759579234
f
GR
GS
[0.75 0 0 0.75 293.86501 21.24582] CT
1 0 0 RC
N
f-1759579234
f
GR
GS
[0.75 0 0 0.75 285.29212 21.24582] CT
1 0 0 RC
N
f-1759579234
f
GR
GS
[0.75 0 0 0.75 283.56493 21.24582] CT
1 0 0 RC
N
f-1759579234
f
GR
GS
[0.75 0 0 0.75 295.28259 21.24582] CT
1 0 0 RC
N
f-1759579234
f
GR
GS
[0.75 0 0 0.75 299.56716 21.24582] CT
1 0 0 RC
N
f-1759579234
f
GR
GS
[0.75 0 0 0.75 331.4366 21.24582] CT
1 0 0 RC
N
f-1759579234
f
GR
GS
[0.75 0 0 0.75 284.78558 21.24582] CT
1 0 0 RC
N
f-1759579234
f
GR
GS
[0.75 0 0 0.75 324.2176 21.24582] CT
1 0 0 RC
N
f-1759579234
f
GR
GS
[0.75 0 0 0.75 319.34747 21.24582] CT
1 0 0 RC
N
f-1759579234
f
GR
GS
[0.75 0 0 0.75 302.12576 21.24582] CT
1 0 0 RC
N
f-1759579234
f
GR
GS
[0.75 0 0 0.75 312.02442 21.24582] CT
1 0 0 RC
N
f-1759579234
f
GR
GS
[0.75 0 0 0.75 291.05582 21.24582] CT
1 0 0 RC
N
f-1759579234
f
GR
GS
[0.75 0 0 0.75 295.49194 21.24582] CT
1 0 0 RC
N
f-1759579234
f
GR
GS
[0.75 0 0 0.75 321.16658 21.24582] CT
1 0 0 RC
N
f-1759579234
f
GR
GS
[0.75 0 0 0.75 255.77996 127.84053] CT
1 0 0 RC
N
f-1759579234
f
GR
GS
[0.75 0 0 0.75 310.87486 21.24582] CT
1 0 0 RC
N
f-1759579234
f
GR
GS
[0.75 0 0 0.75 290.69978 21.24582] CT
1 0 0 RC
N
f-1759579234
f
GR
GS
[0.75 0 0 0.75 287.02764 21.24582] CT
1 0 0 RC
N
f-1759579234
f
GR
GS
[0.75 0 0 0.75 296.02251 21.24582] CT
1 0 0 RC
N
f-1759579234
f
GR
GS
[0.75 0 0 0.75 298.40849 21.24582] CT
1 0 0 RC
N
f-1759579234
f
GR
GS
[0.75 0 0 0.75 284.57899 21.24582] CT
1 0 0 RC
N
f-1759579234
f
GR
GS
[0.75 0 0 0.75 301.94884 21.24582] CT
1 0 0 RC
N
f-1759579234
f
GR
GS
[0.75 0 0 0.75 312.74107 21.24582] CT
1 0 0 RC
N
f-1759579234
f
GR
GS
[0.75 0 0 0.75 294.13705 21.24582] CT
1 0 0 RC
N
f-1759579234
f
GR
GS
[0.75 0 0 0.75 303.59251 21.24582] CT
1 0 0 RC
N
f-1759579234
f
GR
GS
[0.75 0 0 0.75 291.53931 21.24582] CT
1 0 0 RC
N
f-1759579234
f
GR
GS
[0.75 0 0 0.75 337.20074 21.24582] CT
1 0 0 RC
N
f-1759579234
f
GR
GS
[0.75 0 0 0.75 363.7695 21.24582] CT
1 0 0 RC
N
f-1759579234
f
GR
GS
[0.75 0 0 0.75 319.1209 21.24582] CT
1 0 0 RC
N
f-1759579234
f
GR
GS
[0.75 0 0 0.75 274.58677 21.24582] CT
1 0 0 RC
N
f-1759579234
f
GR
GS
[0.75 0 0 0.75 319.34747 21.24582] CT
1 0 0 RC
N
f-1759579234
f
GR
GS
[0.75 0 0 0.75 349.83055 21.24582] CT
1 0 0 RC
N
f-1759579234
f
GR
GS
[0.75 0 0 0.75 278.19907 21.24582] CT
1 0 0 RC
N
f-1759579234
f
GR
GS
[0.75 0 0 0.75 349.83055 21.24582] CT
1 0 0 RC
N
f-1759579234
f
GR
GS
[0.75 0 0 0.75 361.37828 21.24582] CT
1 0 0 RC
N
f-1759579234
f
GR
GS
[0.75 0 0 0.75 314.9461 21.24582] CT
1 0 0 RC
N
f-1759579234
f
GR
GS
[0.75 0 0 0.75 302.12576 21.24582] CT
1 0 0 RC
N
f-1759579234
f
GR
GS
[0.75 0 0 0.75 285.1255 21.24582] CT
1 0 0 RC
N
f-1759579234
f
GR
GS
[0.75 0 0 0.75 337.55974 21.24582] CT
1 0 0 RC
N
f-1759579234
f
GR
GS
[0.75 0 0 0.75 298.79908 21.24582] CT
1 0 0 RC
N
f-1759579234
f
GR
GS
[0.75 0 0 0.75 285.29212 21.24582] CT
1 0 0 RC
N
f-1759579234
f
GR
GS
[0.75 0 0 0.75 291.05582 21.24582] CT
1 0 0 RC
N
f-1759579234
f
GR
GS
[0.75 0 0 0.75 303.56715 21.24582] CT
1 0 0 RC
N
f-1759579234
f
GR
GS
[0.75 0 0 0.75 294.13705 21.24582] CT
1 0 0 RC
N
f-1759579234
f
GR
GS
[0.75 0 0 0.75 346.88786 21.24582] CT
1 0 0 RC
N
f-1759579234
f
GR
GS
[0.75 0 0 0.75 314.40292 21.24582] CT
1 0 0 RC
N
f-1759579234
f
GR
GS
[0.75 0 0 0.75 286.92297 21.24582] CT
1 0 0 RC
N
f-1759579234
f
GR
GS
[0.75 0 0 0.75 361.37828 21.24582] CT
1 0 0 RC
N
f-1759579234
f
GR
GS
[0.75 0 0 0.75 270.42295 21.24582] CT
1 0 0 RC
N
f-1759579234
f
GR
GS
[0.75 0 0 0.75 313.97749 21.24582] CT
1 0 0 RC
N
f-1759579234
f
GR
GS
[0.75 0 0 0.75 289.96726 21.24582] CT
1 0 0 RC
N
f-1759579234
f
GR
GS
[0.75 0 0 0.75 337.20074 21.24582] CT
1 0 0 RC
N
f-1759579234
f
GR
GS
[0.75 0 0 0.75 299.67593 21.24582] CT
1 0 0 RC
N
f-1759579234
f
GR
GS
[0.75 0 0 0.75 288.52261 21.24582] CT
1 0 0 RC
N
f-1759579234
f
GR
GS
[0.75 0 0 0.75 290.66425 21.24582] CT
1 0 0 RC
N
f-1759579234
f
GR
GS
[0.75 0 0 0.75 337.55974 21.24582] CT
1 0 0 RC
N
f-1759579234
f
GR
GS
[0.75 0 0 0.75 295.49194 21.24582] CT
1 0 0 RC
N
f-1759579234
f
GR
GS
[0.75 0 0 0.75 290.01343 21.24582] CT
1 0 0 RC
N
f-1759579234
f
GR
GS
[0.75 0 0 0.75 290.77478 21.24582] CT
1 0 0 RC
N
f-1759579234
f
GR
GS
[0.75 0 0 0.75 255.77996 127.84053] CT
1 0 0 RC
N
f-1759579234
f
GR
GS
[0.75 0 0 0.75 275.39154 21.24582] CT
1 0 0 RC
N
f-1759579234
f
GR
GS
[0.75 0 0 0.75 286.20344 21.24582] CT
1 0 0 RC
N
f-1759579234
f
GR
GS
[0.75 0 0 0.75 296.02251 21.24582] CT
1 0 0 RC
N
f-1759579234
f
GR
GS
[0.75 0 0 0.75 278.13325 21.24582] CT
1 0 0 RC
N
f-1759579234
f
GR
GS
[0.75 0 0 0.75 289.79427 21.24582] CT
1 0 0 RC
N
f-1759579234
f
GR
GS
[0.75 0 0 0.75 287.02764 21.24582] CT
1 0 0 RC
N
f-1759579234
f
GR
GS
[0.75 0 0 0.75 331.77727 21.24582] CT
1 0 0 RC
N
f-1759579234
f
GR
GS
[0.75 0 0 0.75 283.89114 21.24582] CT
1 0 0 RC
N
f-1759579234
f
GR
GS
[0.75 0 0 0.75 301.15578 21.24582] CT
1 0 0 RC
N
f-1759579234
f
GR
GS
[0.75 0 0 0.75 292.57755 127.84053] CT
1 0 0 RC
N
f-1759579234
f
GR
GS
[0.75 0 0 0.75 287.03693 21.24582] CT
1 0 0 RC
N
f-1759579234
f
GR
GS
[0.75 0 0 0.75 286.84277 21.24582] CT
1 0 0 RC
N
f-1759579234
f
GR
GS
[0.75 0 0 0.75 348.36271 21.24582] CT
1 0 0 RC
N
f-1759579234
f
GR
GS
[0.75 0 0 0.75 280.74342 21.24582] CT
1 0 0 RC
N
f-1759579234
f
GR
GS
[0.75 0 0 0.75 284.57899 21.24582] CT
1 0 0 RC
N
f-1759579234
f
GR
GS
[0.75 0 0 0.75 301.15578 21.24582] CT
1 0 0 RC
N
f-1759579234
f
GR
GS
[0.75 0 0 0.75 278.47002 21.24582] CT
1 0 0 RC
N
f-1759579234
f
GR
GS
[0.75 0 0 0.75 319.1209 21.24582] CT
1 0 0 RC
N
f-1759579234
f
GR
GS
[0.75 0 0 0.75 289.38732 21.24582] CT
1 0 0 RC
N
f-1759579234
f
GR
GS
[0.75 0 0 0.75 283.79327 127.84053] CT
1 0 0 RC
N
f-1759579234
f
GR
GS
[0.75 0 0 0.75 279.62331 21.24582] CT
1 0 0 RC
N
f-1759579234
f
GR
GS
[0.75 0 0 0.75 293.86501 21.24582] CT
1 0 0 RC
N
f-1759579234
f
GR
GS
[0.75 0 0 0.75 357.37988 21.24582] CT
1 0 0 RC
N
f-1759579234
f
GR
GS
[0.75 0 0 0.75 290.01343 21.24582] CT
1 0 0 RC
N
f-1759579234
f
GR
GS
[0.75 0 0 0.75 300.5178 21.24582] CT
1 0 0 RC
N
f-1759579234
f
GR
GS
[0.75 0 0 0.75 309.6283 21.24582] CT
1 0 0 RC
N
f-1759579234
f
GR
GS
[0.75 0 0 0.75 302.53173 21.24582] CT
1 0 0 RC
N
f-1759579234
f
GR
GS
[0.75 0 0 0.75 289.96726 21.24582] CT
1 0 0 RC
N
f-1759579234
f
GR
GS
[0.75 0 0 0.75 331.4366 21.24582] CT
1 0 0 RC
N
f-1759579234
f
GR
GS
[0.75 0 0 0.75 281.86102 21.24582] CT
1 0 0 RC
N
f-1759579234
f
GR
GS
[0.75 0 0 0.75 287.02764 21.24582] CT
1 0 0 RC
N
f-1759579234
f
GR
GS
[0.75 0 0 0.75 299.67593 21.24582] CT
1 0 0 RC
N
f-1759579234
f
GR
GS
[0.75 0 0 0.75 290.69978 21.24582] CT
1 0 0 RC
N
f-1759579234
f
GR
GS
[0.75 0 0 0.75 293.8697 21.24582] CT
1 0 0 RC
N
f-1759579234
f
GR
GS
[0.75 0 0 0.75 286.92297 21.24582] CT
1 0 0 RC
N
f-1759579234
f
GR
GS
[0.75 0 0 0.75 281.67126 21.24582] CT
1 0 0 RC
N
f-1759579234
f
GR
GS
[0.75 0 0 0.75 255.77996 127.84053] CT
1 0 0 RC
N
f-1759579234
f
GR
GS
[0.75 0 0 0.75 255.77996 127.84053] CT
1 0 0 RC
N
f-1759579234
f
GR
GS
[0.75 0 0 0.75 291.53931 21.24582] CT
1 0 0 RC
N
f-1759579234
f
GR
GS
[0.75 0 0 0.75 295.66772 21.24582] CT
1 0 0 RC
N
f-1759579234
f
GR
GS
[0.75 0 0 0.75 270.42295 21.24582] CT
1 0 0 RC
N
f-1759579234
f
GR
GS
[0.75 0 0 0.75 272.00059 21.24582] CT
1 0 0 RC
N
f-1759579234
f
GR
GS
[0.75 0 0 0.75 285.29212 21.24582] CT
1 0 0 RC
N
f-1759579234
f
GR
GS
[0.75 0 0 0.75 278.47002 21.24582] CT
1 0 0 RC
N
f-1759579234
f
GR
GS
[0.75 0 0 0.75 297.18246 21.24582] CT
1 0 0 RC
N
f-1759579234
f
GR
GS
[0.75 0 0 0.75 327.58836 21.24582] CT
1 0 0 RC
N
f-1759579234
f
GR
GS
[0.75 0 0 0.75 311.55347 21.24582] CT
1 0 0 RC
N
f-1759579234
f
GR
GS
[0.75 0 0 0.75 283.56493 21.24582] CT
1 0 0 RC
N
f-1759579234
f
GR
GS
[0.75 0 0 0.75 312.15829 21.24582] CT
1 0 0 RC
N
f-1759579234
f
GR
GS
[0.75 0 0 0.75 300.99522 21.24582] CT
1 0 0 RC
N
f-1759579234
f
GR
GS
[0.75 0 0 0.75 284.20947 127.84053] CT
1 0 0 RC
N
f-1759579234
f
GR
GS
[0.75 0 0 0.75 311.55347 21.24582] CT
1 0 0 RC
N
f-1759579234
f
GR
GS
[0.75 0 0 0.75 314.40292 21.24582] CT
1 0 0 RC
N
f-1759579234
f
GR
GS
[0.75 0 0 0.75 343.30206 21.24582] CT
1 0 0 RC
N
f-1759579234
f
GR
GS
[0.75 0 0 0.75 0 0.5] CT
0 0.447 0.741 RC
1 LJ
2.667 LW
N
322.978 52.4 M
468.6 16.98 L
S
GR
%%Trailer
%%Pages: 1
%%EOF
