%!PS-Adobe-3.0 EPSF-3.0
%%Creator: (MATLAB, The Mathworks, Inc. Version 9.1.0.441655 \(R2016b\). Operating System: Linux)
%%Title: /home/lci/sgpp_segbot_ws/src/segbot_sgpp/segbot_navigation/matlabScripts/visualizationTools/final_plots/b_classification.eps
%%CreationDate: 2017-12-21T17:34:38
%%Pages: (atend)
%%BoundingBox: 0 0 420 170
%%LanguageLevel: 3
%%EndComments
%%BeginProlog
%%BeginResource: procset (Apache XML Graphics Std ProcSet) 1.2 0
%%Version: 1.2 0
%%Copyright: (Copyright 2001-2003,2010 The Apache Software Foundation. License terms: http://www.apache.org/licenses/LICENSE-2.0)
/bd{bind def}bind def
/ld{load def}bd
/GR/grestore ld
/M/moveto ld
/LJ/setlinejoin ld
/C/curveto ld
/f/fill ld
/LW/setlinewidth ld
/GC/setgray ld
/t/show ld
/N/newpath ld
/CT/concat ld
/cp/closepath ld
/S/stroke ld
/L/lineto ld
/CC/setcmykcolor ld
/A/ashow ld
/GS/gsave ld
/RC/setrgbcolor ld
/RM/rmoveto ld
/ML/setmiterlimit ld
/re {4 2 roll M
1 index 0 rlineto
0 exch rlineto
neg 0 rlineto
cp } bd
/_ctm matrix def
/_tm matrix def
/BT { _ctm currentmatrix pop matrix _tm copy pop 0 0 moveto } bd
/ET { _ctm setmatrix } bd
/iTm { _ctm setmatrix _tm concat } bd
/Tm { _tm astore pop iTm 0 0 moveto } bd
/ux 0.0 def
/uy 0.0 def
/F {
  /Tp exch def
  /Tf exch def
  Tf findfont Tp scalefont setfont
  /cf Tf def  /cs Tp def
} bd
/ULS {currentpoint /uy exch def /ux exch def} bd
/ULE {
  /Tcx currentpoint pop def
  gsave
  newpath
  cf findfont cs scalefont dup
  /FontMatrix get 0 get /Ts exch def /FontInfo get dup
  /UnderlinePosition get Ts mul /To exch def
  /UnderlineThickness get Ts mul /Tt exch def
  ux uy To add moveto  Tcx uy To add lineto
  Tt setlinewidth stroke
  grestore
} bd
/OLE {
  /Tcx currentpoint pop def
  gsave
  newpath
  cf findfont cs scalefont dup
  /FontMatrix get 0 get /Ts exch def /FontInfo get dup
  /UnderlinePosition get Ts mul /To exch def
  /UnderlineThickness get Ts mul /Tt exch def
  ux uy To add cs add moveto Tcx uy To add cs add lineto
  Tt setlinewidth stroke
  grestore
} bd
/SOE {
  /Tcx currentpoint pop def
  gsave
  newpath
  cf findfont cs scalefont dup
  /FontMatrix get 0 get /Ts exch def /FontInfo get dup
  /UnderlinePosition get Ts mul /To exch def
  /UnderlineThickness get Ts mul /Tt exch def
  ux uy To add cs 10 mul 26 idiv add moveto Tcx uy To add cs 10 mul 26 idiv add lineto
  Tt setlinewidth stroke
  grestore
} bd
/QT {
/Y22 exch store
/X22 exch store
/Y21 exch store
/X21 exch store
currentpoint
/Y21 load 2 mul add 3 div exch
/X21 load 2 mul add 3 div exch
/X21 load 2 mul /X22 load add 3 div
/Y21 load 2 mul /Y22 load add 3 div
/X22 load /Y22 load curveto
} bd
/SSPD {
dup length /d exch dict def
{
/v exch def
/k exch def
currentpagedevice k known {
/cpdv currentpagedevice k get def
v cpdv ne {
/upd false def
/nullv v type /nulltype eq def
/nullcpdv cpdv type /nulltype eq def
nullv nullcpdv or
{
/upd true def
} {
/sametype v type cpdv type eq def
sametype {
v type /arraytype eq {
/vlen v length def
/cpdvlen cpdv length def
vlen cpdvlen eq {
0 1 vlen 1 sub {
/i exch def
/obj v i get def
/cpdobj cpdv i get def
obj cpdobj ne {
/upd true def
exit
} if
} for
} {
/upd true def
} ifelse
} {
v type /dicttype eq {
v {
/dv exch def
/dk exch def
/cpddv cpdv dk get def
dv cpddv ne {
/upd true def
exit
} if
} forall
} {
/upd true def
} ifelse
} ifelse
} if
} ifelse
upd true eq {
d k v put
} if
} if
} if
} forall
d length 0 gt {
d setpagedevice
} if
} bd
/RE { % /NewFontName [NewEncodingArray] /FontName RE -
  findfont dup length dict begin
  {
    1 index /FID ne
    {def} {pop pop} ifelse
  } forall
  /Encoding exch def
  /FontName 1 index def
  currentdict definefont pop
  end
} bind def
%%EndResource
%%BeginResource: procset (Apache XML Graphics EPS ProcSet) 1.0 0
%%Version: 1.0 0
%%Copyright: (Copyright 2002-2003 The Apache Software Foundation. License terms: http://www.apache.org/licenses/LICENSE-2.0)
/BeginEPSF { %def
/b4_Inc_state save def         % Save state for cleanup
/dict_count countdictstack def % Count objects on dict stack
/op_count count 1 sub def      % Count objects on operand stack
userdict begin                 % Push userdict on dict stack
/showpage { } def              % Redefine showpage, { } = null proc
0 setgray 0 setlinecap         % Prepare graphics state
1 setlinewidth 0 setlinejoin
10 setmiterlimit [ ] 0 setdash newpath
/languagelevel where           % If level not equal to 1 then
{pop languagelevel             % set strokeadjust and
1 ne                           % overprint to their defaults.
{false setstrokeadjust false setoverprint
} if
} if
} bd
/EndEPSF { %def
count op_count sub {pop} repeat            % Clean up stacks
countdictstack dict_count sub {end} repeat
b4_Inc_state restore
} bd
%%EndResource
%FOPBeginFontDict
%%IncludeResource: font Courier-Bold
%%IncludeResource: font Helvetica
%%IncludeResource: font Courier-BoldOblique
%%IncludeResource: font Courier-Oblique
%%IncludeResource: font Times-Roman
%%IncludeResource: font Helvetica-BoldOblique
%%IncludeResource: font Helvetica-Bold
%%IncludeResource: font Helvetica-Oblique
%%IncludeResource: font Times-BoldItalic
%%IncludeResource: font Courier
%%IncludeResource: font Times-Italic
%%IncludeResource: font Times-Bold
%%IncludeResource: font Symbol
%%IncludeResource: font ZapfDingbats
%FOPEndFontDict
%%BeginResource: encoding WinAnsiEncoding
/WinAnsiEncoding [
/.notdef /.notdef /.notdef /.notdef /.notdef
/.notdef /.notdef /.notdef /.notdef /.notdef
/.notdef /.notdef /.notdef /.notdef /.notdef
/.notdef /.notdef /.notdef /.notdef /.notdef
/.notdef /.notdef /.notdef /.notdef /.notdef
/.notdef /.notdef /.notdef /.notdef /.notdef
/.notdef /.notdef /space /exclam /quotedbl
/numbersign /dollar /percent /ampersand /quotesingle
/parenleft /parenright /asterisk /plus /comma
/hyphen /period /slash /zero /one
/two /three /four /five /six
/seven /eight /nine /colon /semicolon
/less /equal /greater /question /at
/A /B /C /D /E
/F /G /H /I /J
/K /L /M /N /O
/P /Q /R /S /T
/U /V /W /X /Y
/Z /bracketleft /backslash /bracketright /asciicircum
/underscore /quoteleft /a /b /c
/d /e /f /g /h
/i /j /k /l /m
/n /o /p /q /r
/s /t /u /v /w
/x /y /z /braceleft /bar
/braceright /asciitilde /bullet /Euro /bullet
/quotesinglbase /florin /quotedblbase /ellipsis /dagger
/daggerdbl /circumflex /perthousand /Scaron /guilsinglleft
/OE /bullet /Zcaron /bullet /bullet
/quoteleft /quoteright /quotedblleft /quotedblright /bullet
/endash /emdash /asciitilde /trademark /scaron
/guilsinglright /oe /bullet /zcaron /Ydieresis
/space /exclamdown /cent /sterling /currency
/yen /brokenbar /section /dieresis /copyright
/ordfeminine /guillemotleft /logicalnot /sfthyphen /registered
/macron /degree /plusminus /twosuperior /threesuperior
/acute /mu /paragraph /middot /cedilla
/onesuperior /ordmasculine /guillemotright /onequarter /onehalf
/threequarters /questiondown /Agrave /Aacute /Acircumflex
/Atilde /Adieresis /Aring /AE /Ccedilla
/Egrave /Eacute /Ecircumflex /Edieresis /Igrave
/Iacute /Icircumflex /Idieresis /Eth /Ntilde
/Ograve /Oacute /Ocircumflex /Otilde /Odieresis
/multiply /Oslash /Ugrave /Uacute /Ucircumflex
/Udieresis /Yacute /Thorn /germandbls /agrave
/aacute /acircumflex /atilde /adieresis /aring
/ae /ccedilla /egrave /eacute /ecircumflex
/edieresis /igrave /iacute /icircumflex /idieresis
/eth /ntilde /ograve /oacute /ocircumflex
/otilde /odieresis /divide /oslash /ugrave
/uacute /ucircumflex /udieresis /yacute /thorn
/ydieresis
] def
%%EndResource
%FOPBeginFontReencode
/Courier-Bold findfont
dup length dict begin
  {1 index /FID ne {def} {pop pop} ifelse} forall
  /Encoding WinAnsiEncoding def
  currentdict
end
/Courier-Bold exch definefont pop
/Helvetica findfont
dup length dict begin
  {1 index /FID ne {def} {pop pop} ifelse} forall
  /Encoding WinAnsiEncoding def
  currentdict
end
/Helvetica exch definefont pop
/Courier-BoldOblique findfont
dup length dict begin
  {1 index /FID ne {def} {pop pop} ifelse} forall
  /Encoding WinAnsiEncoding def
  currentdict
end
/Courier-BoldOblique exch definefont pop
/Courier-Oblique findfont
dup length dict begin
  {1 index /FID ne {def} {pop pop} ifelse} forall
  /Encoding WinAnsiEncoding def
  currentdict
end
/Courier-Oblique exch definefont pop
/Times-Roman findfont
dup length dict begin
  {1 index /FID ne {def} {pop pop} ifelse} forall
  /Encoding WinAnsiEncoding def
  currentdict
end
/Times-Roman exch definefont pop
/Helvetica-BoldOblique findfont
dup length dict begin
  {1 index /FID ne {def} {pop pop} ifelse} forall
  /Encoding WinAnsiEncoding def
  currentdict
end
/Helvetica-BoldOblique exch definefont pop
/Helvetica-Bold findfont
dup length dict begin
  {1 index /FID ne {def} {pop pop} ifelse} forall
  /Encoding WinAnsiEncoding def
  currentdict
end
/Helvetica-Bold exch definefont pop
/Helvetica-Oblique findfont
dup length dict begin
  {1 index /FID ne {def} {pop pop} ifelse} forall
  /Encoding WinAnsiEncoding def
  currentdict
end
/Helvetica-Oblique exch definefont pop
/Times-BoldItalic findfont
dup length dict begin
  {1 index /FID ne {def} {pop pop} ifelse} forall
  /Encoding WinAnsiEncoding def
  currentdict
end
/Times-BoldItalic exch definefont pop
/Courier findfont
dup length dict begin
  {1 index /FID ne {def} {pop pop} ifelse} forall
  /Encoding WinAnsiEncoding def
  currentdict
end
/Courier exch definefont pop
/Times-Italic findfont
dup length dict begin
  {1 index /FID ne {def} {pop pop} ifelse} forall
  /Encoding WinAnsiEncoding def
  currentdict
end
/Times-Italic exch definefont pop
/Times-Bold findfont
dup length dict begin
  {1 index /FID ne {def} {pop pop} ifelse} forall
  /Encoding WinAnsiEncoding def
  currentdict
end
/Times-Bold exch definefont pop
%FOPEndFontReencode
%%EndProlog
%%Page: 1 1
%%PageBoundingBox: 0 0 420 170
%%BeginPageSetup
[1 0 0 -1 0 170] CT
%%EndPageSetup
GS
[0.75 0 0 0.75 0 0.5] CT
1 GC
N
0 0 560 226 re
f
GR
GS
[0.75 0 0 0.75 0 0.5] CT
1 GC
N
0 0 560 226 re
f
GR
GS
[0.75 0 0 0.75 0 0.5] CT
1 GC
N
77 184 M
260 184 L
260 17 L
77 17 L
cp
f
GR
GS
[0.75 0 0 0.75 0 0.5] CT
0.149 GC
2 setlinecap
1 LJ
0.667 LW
N
77 184 M
260 184 L
S
GR
GS
[0.75 0 0 0.75 0 0.5] CT
0.149 GC
2 setlinecap
1 LJ
0.667 LW
N
126.785 184 M
126.785 182.17 L
S
GR
GS
[0.75 0 0 0.75 0 0.5] CT
0.149 GC
2 setlinecap
1 LJ
0.667 LW
N
187.715 184 M
187.715 182.17 L
S
GR
GS
[0.75 0 0 0.75 0 0.5] CT
0.149 GC
2 setlinecap
1 LJ
0.667 LW
N
248.646 184 M
248.646 182.17 L
S
GR
GS
[0.75 0 0 0.75 95.08873 142.5] CT
0.149 GC
/Helvetica 13.333 F
GS
[1 0 0 1 0 0] CT
-10.5 13 moveto 
1 -1 scale
(1.8) t 
GR
GR
GS
[0.75 0 0 0.75 140.78646 142.5] CT
0.149 GC
/Helvetica 13.333 F
GS
[1 0 0 1 0 0] CT
-4.5 13 moveto 
1 -1 scale
(2) t 
GR
GR
GS
[0.75 0 0 0.75 186.48419 142.5] CT
0.149 GC
/Helvetica 13.333 F
GS
[1 0 0 1 0 0] CT
-10.5 13 moveto 
1 -1 scale
(2.2) t 
GR
GR
GS
[0.75 0 0 0.75 123.75 167] CT
0.149 GC
N
2.422 0.172 M
1.734 0.172 1.328 -0.328 QT
0.922 -0.828 0.758 -1.531 QT
0.594 -2.234 0.594 -2.922 QT
0.594 -2.938 L
0.594 -3.688 0.742 -4.492 QT
0.891 -5.297 1.156 -6.102 QT
1.422 -6.906 1.75 -7.531 QT
1.969 -7.969 2.313 -8.508 QT
2.656 -9.047 3.086 -9.523 QT
3.516 -10 4.008 -10.289 QT
4.5 -10.578 5.016 -10.578 QT
5.031 -10.578 L
5.563 -10.578 5.93 -10.273 QT
6.297 -9.969 6.492 -9.5 QT
6.688 -9.031 6.773 -8.5 QT
6.859 -7.969 6.859 -7.484 QT
6.859 -6.344 6.547 -5.164 QT
6.234 -3.984 5.703 -2.875 QT
5.5 -2.469 5.133 -1.898 QT
4.766 -1.328 4.359 -0.883 QT
3.953 -0.438 3.445 -0.133 QT
2.938 0.172 2.438 0.172 QT
2.422 0.172 L
cp
2.453 -0.234 M
2.938 -0.234 3.398 -0.766 QT
3.859 -1.297 4.203 -2.055 QT
4.547 -2.813 4.805 -3.602 QT
5.063 -4.391 5.188 -4.953 QT
2.125 -4.953 L
1.891 -4 1.766 -3.32 QT
1.641 -2.641 1.641 -1.984 QT
1.641 -0.234 2.453 -0.234 QT
cp
2.25 -5.484 M
5.328 -5.484 L
5.484 -6.141 5.578 -6.586 QT
5.672 -7.031 5.742 -7.516 QT
5.813 -8 5.813 -8.438 QT
5.813 -10.188 5.016 -10.188 QT
4.063 -10.188 3.367 -8.656 QT
2.672 -7.125 2.25 -5.484 QT
cp
f
GR
GS
[0.75 0 0 0.75 0 0.5] CT
0.149 GC
2 setlinecap
1 LJ
0.667 LW
N
77 184 M
77 17 L
S
GR
GS
[0.75 0 0 0.75 0 0.5] CT
0.149 GC
2 setlinecap
1 LJ
0.667 LW
N
77 169.744 M
78.83 169.744 L
S
GR
GS
[0.75 0 0 0.75 0 0.5] CT
0.149 GC
2 setlinecap
1 LJ
0.667 LW
N
77 134.103 M
78.83 134.103 L
S
GR
GS
[0.75 0 0 0.75 0 0.5] CT
0.149 GC
2 setlinecap
1 LJ
0.667 LW
N
77 98.463 M
78.83 98.463 L
S
GR
GS
[0.75 0 0 0.75 0 0.5] CT
0.149 GC
2 setlinecap
1 LJ
0.667 LW
N
77 62.822 M
78.83 62.822 L
S
GR
GS
[0.75 0 0 0.75 0 0.5] CT
0.149 GC
2 setlinecap
1 LJ
0.667 LW
N
77 27.182 M
78.83 27.182 L
S
GR
GS
[0.75 0 0 0.75 53.75 127.80784] CT
0.149 GC
/Helvetica 13.333 F
GS
[1 0 0 1 0 0] CT
-13 4.5 moveto 
1 -1 scale
(-1) t 
GR
GR
GS
[0.75 0 0 0.75 53.75 101.07743] CT
0.149 GC
/Helvetica 13.333 F
GS
[1 0 0 1 0 0] CT
-26 4.5 moveto 
1 -1 scale
(-0.5) t 
GR
GR
GS
[0.75 0 0 0.75 53.75 74.34703] CT
0.149 GC
/Helvetica 13.333 F
GS
[1 0 0 1 0 0] CT
-9 4.5 moveto 
1 -1 scale
(0) t 
GR
GR
GS
[0.75 0 0 0.75 53.75 47.61662] CT
0.149 GC
/Helvetica 13.333 F
GS
[1 0 0 1 0 0] CT
-21 4.5 moveto 
1 -1 scale
(0.5) t 
GR
GR
GS
[0.75 0 0 0.75 53.75 20.88622] CT
0.149 GC
/Helvetica 13.333 F
GS
[1 0 0 1 0 0] CT
-9 4.5 moveto 
1 -1 scale
(1) t 
GR
GR
GS
[0 -0.75 0.75 0 28.5 104] CT
0.149 GC
/Helvetica 14.667 F
GS
[1 0 0 1 0 0] CT
0 0 moveto 
1 -1 scale
(Optimal ) t 
GR
GR
GS
[0 -0.75 0.75 0 28.5 55.25] CT
0.149 GC
N
1.813 0.172 M
0.969 0.172 0.594 -0.453 QT
0.219 -1.078 0.219 -1.984 QT
0.219 -2.578 0.32 -3.141 QT
0.422 -3.703 0.641 -4.289 QT
0.859 -4.875 1.133 -5.383 QT
1.406 -5.891 1.766 -6.375 QT
1.828 -6.469 1.938 -6.469 QT
2.031 -6.469 2.086 -6.406 QT
2.141 -6.344 2.141 -6.266 QT
2.141 -6.188 2.109 -6.125 QT
0.734 -4.234 0.734 -2.656 QT
0.734 -1.969 1.055 -1.469 QT
1.375 -0.969 2.016 -0.969 QT
2.578 -0.969 3.063 -1.305 QT
3.547 -1.641 3.891 -2.141 QT
3.891 -2.406 3.984 -2.961 QT
4.078 -3.516 4.273 -3.953 QT
4.469 -4.391 4.734 -4.391 QT
5.078 -4.391 5.078 -3.984 QT
5.078 -3.75 4.984 -3.398 QT
4.891 -3.047 4.766 -2.742 QT
4.641 -2.438 4.469 -2.047 QT
4.641 -0.969 5.531 -0.969 QT
6.063 -0.969 6.586 -1.273 QT
7.109 -1.578 7.508 -2.063 QT
7.906 -2.547 8.141 -3.109 QT
8.375 -3.672 8.375 -4.188 QT
8.375 -4.641 8.234 -4.891 QT
8.094 -5.141 7.859 -5.422 QT
7.625 -5.703 7.625 -5.859 QT
7.625 -6.156 7.867 -6.398 QT
8.109 -6.641 8.406 -6.641 QT
8.766 -6.641 8.922 -6.313 QT
9.078 -5.984 9.078 -5.547 QT
9.078 -4.859 8.805 -3.813 QT
8.531 -2.766 8.172 -2.078 QT
7.688 -1.125 6.961 -0.477 QT
6.234 0.172 5.328 0.172 QT
4.75 0.172 4.391 -0.18 QT
4.031 -0.531 3.938 -1.125 QT
3.516 -0.531 2.984 -0.18 QT
2.453 0.172 1.813 0.172 QT
cp
f
GR
GS
[0.75 0 0 0.75 121.21775 46.88422] CT
N
2.222 0 M
2.222 1.227 1.227 2.222 0 2.222 C
-1.227 2.222 -2.222 1.227 -2.222 0 C
-2.222 -1.227 -1.227 -2.222 0 -2.222 C
1.227 -2.222 2.222 -1.227 2.222 0 C
cp
f
GR
GS
[0.75 0 0 0.75 126.00532 50.5541] CT
N
/f-1759579234{2.222 0 M
2.222 1.227 1.227 2.222 0 2.222 C
-1.227 2.222 -2.222 1.227 -2.222 0 C
-2.222 -1.227 -1.227 -2.222 0 -2.222 C
1.227 -2.222 2.222 -1.227 2.222 0 C
cp}def
f-1759579234
f
GR
GS
[0.75 0 0 0.75 119.67181 33.05744] CT
N
f-1759579234
f
GR
GS
[0.75 0 0 0.75 121.3264 51.06748] CT
N
f-1759579234
f
GR
GS
[0.75 0 0 0.75 110.07835 49.52683] CT
N
f-1759579234
f
GR
GS
[0.75 0 0 0.75 127.62742 73.88124] CT
N
f-1759579234
f
GR
GS
[0.75 0 0 0.75 96.2403 23.40446] CT
N
f-1759579234
f
GR
GS
[0.75 0 0 0.75 115.34944 25.49429] CT
N
f-1759579234
f
GR
GS
[0.75 0 0 0.75 124.60575 35.37614] CT
N
f-1759579234
f
GR
GS
[0.75 0 0 0.75 113.9508 59.48473] CT
N
f-1759579234
f
GR
GS
[0.75 0 0 0.75 80.86959 62.44411] CT
N
f-1759579234
f
GR
GS
[0.75 0 0 0.75 110.54625 47.41746] CT
N
f-1759579234
f
GR
GS
[0.75 0 0 0.75 135.65714 52.46659] CT
N
f-1759579234
f
GR
GS
[0.75 0 0 0.75 123.07264 39.57626] CT
N
f-1759579234
f
GR
GS
[0.75 0 0 0.75 118.01541 52.28382] CT
N
f-1759579234
f
GR
GS
[0.75 0 0 0.75 89.55496 35.83251] CT
N
f-1759579234
f
GR
GS
[0.75 0 0 0.75 141.19862 66.51774] CT
N
f-1759579234
f
GR
GS
[0.75 0 0 0.75 109.34009 41.97563] CT
N
f-1759579234
f
GR
GS
[0.75 0 0 0.75 133.92729 71.9072] CT
N
f-1759579234
f
GR
GS
[0.75 0 0 0.75 110.07835 49.52683] CT
N
f-1759579234
f
GR
GS
[0.75 0 0 0.75 126.04699 54.70639] CT
N
f-1759579234
f
GR
GS
[0.75 0 0 0.75 133.92729 71.9072] CT
N
f-1759579234
f
GR
GS
[0.75 0 0 0.75 127.45296 58.64838] CT
N
f-1759579234
f
GR
GS
[0.75 0 0 0.75 131.20837 71.39506] CT
N
f-1759579234
f
GR
GS
[0.75 0 0 0.75 120.70699 70.31666] CT
N
f-1759579234
f
GR
GS
[0.75 0 0 0.75 136.25545 70.80282] CT
N
f-1759579234
f
GR
GS
[0.75 0 0 0.75 112.95771 20.88622] CT
N
f-1759579234
f
GR
GS
[0.75 0 0 0.75 125.56641 44.77037] CT
N
f-1759579234
f
GR
GS
[0.75 0 0 0.75 123.07264 39.57626] CT
N
f-1759579234
f
GR
GS
[0.75 0 0 0.75 120.22943 25.23864] CT
N
f-1759579234
f
GR
GS
[0.75 0 0 0.75 125.35572 40.03349] CT
N
f-1759579234
f
GR
GS
[0.75 0 0 0.75 117.48953 54.21354] CT
N
f-1759579234
f
GR
GS
[0.75 0 0 0.75 111.30569 25.9523] CT
N
f-1759579234
f
GR
GS
[0.75 0 0 0.75 118.06308 43.89165] CT
N
f-1759579234
f
GR
GS
[0.75 0 0 0.75 138.86561 72.13341] CT
N
f-1759579234
f
GR
GS
[0.75 0 0 0.75 100.58276 20.89082] CT
N
f-1759579234
f
GR
GS
[0.75 0 0 0.75 131.71997 60.88295] CT
N
f-1759579234
f
GR
GS
[0.75 0 0 0.75 132.46224 52.96853] CT
N
f-1759579234
f
GR
GS
[0.75 0 0 0.75 123.64006 25.00941] CT
N
f-1759579234
f
GR
GS
[0.75 0 0 0.75 125.01835 49.76719] CT
N
f-1759579234
f
GR
GS
[0.75 0 0 0.75 122.85868 70.76035] CT
N
f-1759579234
f
GR
GS
[0.75 0 0 0.75 105.69865 21.07445] CT
N
f-1759579234
f
GR
GS
[0.75 0 0 0.75 134.36802 66.10684] CT
N
f-1759579234
f
GR
GS
[0.75 0 0 0.75 102.20675 20.88622] CT
N
f-1759579234
f
GR
GS
[0.75 0 0 0.75 114.73025 20.88622] CT
N
f-1759579234
f
GR
GS
[0.75 0 0 0.75 117.52486 44.08736] CT
N
f-1759579234
f
GR
GS
[0.75 0 0 0.75 135.9338 62.90218] CT
N
f-1759579234
f
GR
GS
[0.75 0 0 0.75 126.10509 65.72927] CT
N
f-1759579234
f
GR
GS
[0.75 0 0 0.75 100.87239 22.26341] CT
N
f-1759579234
f
GR
GS
[0.75 0 0 0.75 118.01541 52.28382] CT
N
f-1759579234
f
GR
GS
[0.75 0 0 0.75 137.44498 39.53109] CT
N
f-1759579234
f
GR
GS
[0.75 0 0 0.75 126.0818 65.97657] CT
N
f-1759579234
f
GR
GS
[0.75 0 0 0.75 125.01835 49.76719] CT
N
f-1759579234
f
GR
GS
[0.75 0 0 0.75 108.8062 39.70767] CT
N
f-1759579234
f
GR
GS
[0.75 0 0 0.75 131.66722 48.92228] CT
N
f-1759579234
f
GR
GS
[0.75 0 0 0.75 133.92729 71.9072] CT
N
f-1759579234
f
GR
GS
[0.75 0 0 0.75 106.17025 34.01275] CT
N
f-1759579234
f
GR
GS
[0.75 0 0 0.75 130.91485 58.84873] CT
N
f-1759579234
f
GR
GS
[0.75 0 0 0.75 101.70636 25.03409] CT
N
f-1759579234
f
GR
GS
[0.75 0 0 0.75 77.42739 84.77826] CT
N
f-1759579234
f
GR
GS
[0.75 0 0 0.75 130.34111 51.03001] CT
N
f-1759579234
f
GR
GS
[0.75 0 0 0.75 99.52702 20.88874] CT
N
f-1759579234
f
GR
GS
[0.75 0 0 0.75 119.76017 20.88622] CT
N
f-1759579234
f
GR
GS
[0.75 0 0 0.75 115.4688 21.06081] CT
N
f-1759579234
f
GR
GS
[0.75 0 0 0.75 118.07087 47.59254] CT
N
f-1759579234
f
GR
GS
[0.75 0 0 0.75 83.09738 85.70045] CT
N
f-1759579234
f
GR
GS
[0.75 0 0 0.75 133.92249 54.19808] CT
N
f-1759579234
f
GR
GS
[0.75 0 0 0.75 106.60585 45.33361] CT
N
f-1759579234
f
GR
GS
[0.75 0 0 0.75 110.89002 24.89938] CT
N
f-1759579234
f
GR
GS
[0.75 0 0 0.75 136.93661 58.18515] CT
N
f-1759579234
f
GR
GS
[0.75 0 0 0.75 112.95771 20.88622] CT
N
f-1759579234
f
GR
GS
[0.75 0 0 0.75 104.57711 26.30032] CT
N
f-1759579234
f
GR
GS
[0.75 0 0 0.75 131.04644 58.06471] CT
N
f-1759579234
f
GR
GS
[0.75 0 0 0.75 121.21775 46.88422] CT
N
f-1759579234
f
GR
GS
[0.75 0 0 0.75 126.23281 67.8553] CT
N
f-1759579234
f
GR
GS
[0.75 0 0 0.75 101.87682 24.70691] CT
N
f-1759579234
f
GR
GS
[0.75 0 0 0.75 129.66182 60.29143] CT
N
f-1759579234
f
GR
GS
[0.75 0 0 0.75 123.58158 53.06449] CT
N
f-1759579234
f
GR
GS
[0.75 0 0 0.75 131.71997 60.88295] CT
N
f-1759579234
f
GR
GS
[0.75 0 0 0.75 167.13685 127.77547] CT
N
f-1759579234
f
GR
GS
[0.75 0 0 0.75 120.69326 55.20006] CT
N
f-1759579234
f
GR
GS
[0.75 0 0 0.75 124.39122 50.50291] CT
N
f-1759579234
f
GR
GS
[0.75 0 0 0.75 118.90512 22.72384] CT
N
f-1759579234
f
GR
GS
[0.75 0 0 0.75 117.57138 20.88622] CT
N
f-1759579234
f
GR
GS
[0.75 0 0 0.75 118.06308 43.89165] CT
N
f-1759579234
f
GR
GS
[0.75 0 0 0.75 109.96798 26.81388] CT
N
f-1759579234
f
GR
GS
[0.75 0 0 0.75 126.23281 67.8553] CT
N
f-1759579234
f
GR
GS
[0.75 0 0 0.75 112.03955 42.21754] CT
N
f-1759579234
f
GR
GS
[0.75 0 0 0.75 124.31161 53.36752] CT
N
f-1759579234
f
GR
GS
[0.75 0 0 0.75 111.40546 38.23221] CT
N
f-1759579234
f
GR
GS
[0.75 0 0 0.75 102.20675 20.88622] CT
N
f-1759579234
f
GR
GS
[0.75 0 0 0.75 130.94683 57.52108] CT
N
f-1759579234
f
GR
GS
[0.75 0 0 0.75 99.52702 20.88874] CT
N
f-1759579234
f
GR
GS
[0.75 0 0 0.75 119.85626 56.11454] CT
N
f-1759579234
f
GR
GS
[0.75 0 0 0.75 132.36557 55.58601] CT
N
f-1759579234
f
GR
GS
[0.75 0 0 0.75 119.85278 45.36051] CT
N
f-1759579234
f
GR
GS
[0.75 0 0 0.75 114.42921 51.88778] CT
N
f-1759579234
f
GR
GS
[0.75 0 0 0.75 125.56641 44.77037] CT
N
f-1759579234
f
GR
GS
[0.75 0 0 0.75 96.2403 23.40446] CT
N
f-1759579234
f
GR
GS
[0.75 0 0 0.75 122.80622 47.97927] CT
N
f-1759579234
f
GR
GS
[0.75 0 0 0.75 100.1746 25.08795] CT
N
f-1759579234
f
GR
GS
[0.75 0 0 0.75 123.74228 37.2704] CT
N
f-1759579234
f
GR
GS
[0.75 0 0 0.75 113.0072 26.06586] CT
N
f-1759579234
f
GR
GS
[0.75 0 0 0.75 95.9586 21.43531] CT
N
f-1759579234
f
GR
GS
[0.75 0 0 0.75 171.43707 127.80548] CT
N
f-1759579234
f
GR
GS
[0.75 0 0 0.75 123.90786 55.5281] CT
N
f-1759579234
f
GR
GS
[0.75 0 0 0.75 96.18465 20.88622] CT
N
f-1759579234
f
GR
GS
[0.75 0 0 0.75 124.12786 36.34565] CT
N
f-1759579234
f
GR
GS
[0.75 0 0 0.75 137.38054 54.09431] CT
N
f-1759579234
f
GR
GS
[0.75 0 0 0.75 124.12786 36.34565] CT
N
f-1759579234
f
GR
GS
[0.75 0 0 0.75 96.2403 23.40446] CT
N
f-1759579234
f
GR
GS
[0.75 0 0 0.75 106.64185 20.94813] CT
N
f-1759579234
f
GR
GS
[0.75 0 0 0.75 111.34753 55.89837] CT
N
f-1759579234
f
GR
GS
[0.75 0 0 0.75 117.52486 44.08736] CT
N
f-1759579234
f
GR
GS
[0.75 0 0 0.75 124.39122 50.50291] CT
N
f-1759579234
f
GR
GS
[0.75 0 0 0.75 132.28749 49.99922] CT
N
f-1759579234
f
GR
GS
[0.75 0 0 0.75 112.63515 28.41092] CT
N
f-1759579234
f
GR
GS
[0.75 0 0 0.75 127.45296 58.64838] CT
N
f-1759579234
f
GR
GS
[0.75 0 0 0.75 135.9338 62.90218] CT
N
f-1759579234
f
GR
GS
[0.75 0 0 0.75 117.52486 44.08736] CT
N
f-1759579234
f
GR
GS
[0.75 0 0 0.75 115.90731 39.38774] CT
N
f-1759579234
f
GR
GS
[0.75 0 0 0.75 124.0386 52.24605] CT
N
f-1759579234
f
GR
GS
[0.75 0 0 0.75 114.42921 51.88778] CT
N
f-1759579234
f
GR
GS
[0.75 0 0 0.75 117.76079 20.88622] CT
N
f-1759579234
f
GR
GS
[0.75 0 0 0.75 126.04699 54.70639] CT
N
f-1759579234
f
GR
GS
[0.75 0 0 0.75 132.46224 52.96853] CT
N
f-1759579234
f
GR
GS
[0.75 0 0 0.75 103.63584 20.88622] CT
N
f-1759579234
f
GR
GS
[0.75 0 0 0.75 95.9586 21.43531] CT
N
f-1759579234
f
GR
GS
[0.75 0 0 0.75 126.0818 65.97657] CT
N
f-1759579234
f
GR
GS
[0.75 0 0 0.75 71.38541 126.10757] CT
N
f-1759579234
f
GR
GS
[0.75 0 0 0.75 138.76398 57.12979] CT
N
f-1759579234
f
GR
GS
[0.75 0 0 0.75 107.97419 20.98807] CT
N
f-1759579234
f
GR
GS
[0.75 0 0 0.75 112.53653 50.10883] CT
N
f-1759579234
f
GR
GS
[0.75 0 0 0.75 93.87263 20.88622] CT
N
f-1759579234
f
GR
GS
[0.75 0 0 0.75 134.43015 69.31217] CT
N
f-1759579234
f
GR
GS
[0.75 0 0 0.75 105.69865 21.07445] CT
N
f-1759579234
f
GR
GS
[0.75 0 0 0.75 167.13685 127.77547] CT
N
f-1759579234
f
GR
GS
[0.75 0 0 0.75 125.05861 40.39459] CT
N
f-1759579234
f
GR
GS
[0.75 0 0 0.75 123.15604 52.36274] CT
N
f-1759579234
f
GR
GS
[0.75 0 0 0.75 125.51997 61.76074] CT
N
f-1759579234
f
GR
GS
[0.75 0 0 0.75 119.76017 20.88622] CT
N
f-1759579234
f
GR
GS
[0.75 0 0 0.75 115.07333 21.52948] CT
N
f-1759579234
f
GR
GS
[0.75 0 0 0.75 105.46558 27.97223] CT
N
f-1759579234
f
GR
GS
[0.75 0 0 0.75 124.39122 50.50291] CT
N
f-1759579234
f
GR
GS
[0.75 0 0 0.75 115.4688 21.06081] CT
N
f-1759579234
f
GR
GS
[0.75 0 0 0.75 116.62396 23.40448] CT
N
f-1759579234
f
GR
GS
[0.75 0 0 0.75 128.30779 41.22569] CT
N
f-1759579234
f
GR
GS
[0.75 0 0 0.75 116.62396 23.40448] CT
N
f-1759579234
f
GR
GS
[0.75 0 0 0.75 121.1995 56.2337] CT
N
f-1759579234
f
GR
GS
[0.75 0 0 0.75 137.44498 39.53109] CT
N
f-1759579234
f
GR
GS
[0.75 0 0 0.75 115.32738 34.89366] CT
N
f-1759579234
f
GR
GS
[0.75 0 0 0.75 119.48537 46.92878] CT
N
f-1759579234
f
GR
GS
[0.75 0 0 0.75 125.21544 44.32118] CT
N
f-1759579234
f
GR
GS
[0.75 0 0 0.75 138.76398 57.12979] CT
N
f-1759579234
f
GR
GS
[0.75 0 0 0.75 138.86561 72.13341] CT
N
f-1759579234
f
GR
GS
[0.75 0 0 0.75 126.01559 32.52282] CT
N
f-1759579234
f
GR
GS
[0.75 0 0 0.75 89.55496 35.83251] CT
N
f-1759579234
f
GR
GS
[0.75 0 0 0.75 134.15974 62.23422] CT
N
f-1759579234
f
GR
GS
[0.75 0 0 0.75 137.85214 63.61941] CT
N
f-1759579234
f
GR
GS
[0.75 0 0 0.75 105.82928 20.99583] CT
N
f-1759579234
f
GR
GS
[0.75 0 0 0.75 111.34753 55.89837] CT
N
f-1759579234
f
GR
GS
[0.75 0 0 0.75 100.58146 34.74739] CT
N
f-1759579234
f
GR
GS
[0.75 0 0 0.75 123.90786 55.5281] CT
N
f-1759579234
f
GR
GS
[0.75 0 0 0.75 128.1079 33.46703] CT
N
f-1759579234
f
GR
GS
[0.75 0 0 0.75 115.21519 21.19225] CT
N
f-1759579234
f
GR
GS
[0.75 0 0 0.75 114.50534 42.8762] CT
N
f-1759579234
f
GR
GS
[0.75 0 0 0.75 107.6536 20.88622] CT
N
f-1759579234
f
GR
GS
[0.75 0 0 0.75 110.54625 47.41746] CT
N
f-1759579234
f
GR
GS
[0.75 0 0 0.75 130.04729 52.98531] CT
N
f-1759579234
f
GR
GS
[0.75 0 0 0.75 95.9586 21.43531] CT
N
f-1759579234
f
GR
GS
[0.75 0 0 0.75 130.91485 58.84873] CT
N
f-1759579234
f
GR
GS
[0.75 0 0 0.75 126.0818 65.97657] CT
N
f-1759579234
f
GR
GS
[0.75 0 0 0.75 117.52486 44.08736] CT
N
f-1759579234
f
GR
GS
[0.75 0 0 0.75 119.56517 32.41576] CT
N
f-1759579234
f
GR
GS
[0.75 0 0 0.75 101.70636 25.03409] CT
N
f-1759579234
f
GR
GS
[0.75 0 0 0.75 115.77916 24.8528] CT
N
f-1759579234
f
GR
GS
[0.75 0 0 0.75 103.63584 20.88622] CT
N
f-1759579234
f
GR
GS
[0.75 0 0 0.75 132.36557 55.58601] CT
N
f-1759579234
f
GR
GS
[0.75 0 0 0.75 120.71974 20.88622] CT
N
f-1759579234
f
GR
GS
[0.75 0 0 0.75 125.33926 42.48122] CT
N
f-1759579234
f
GR
GS
[0.75 0 0 0.75 133.92249 54.19808] CT
N
f-1759579234
f
GR
GS
[0.75 0 0 0.75 125.84502 38.88081] CT
N
f-1759579234
f
GR
GS
[0.75 0 0 0.75 132.36557 55.58601] CT
N
f-1759579234
f
GR
GS
[0.75 0 0 0.75 89.78038 20.88622] CT
N
f-1759579234
f
GR
GS
[0.75 0 0 0.75 145.14552 71.94806] CT
N
f-1759579234
f
GR
GS
[0.75 0 0 0.75 134.15974 62.23422] CT
N
f-1759579234
f
GR
GS
[0.75 0 0 0.75 125.57038 43.14528] CT
N
f-1759579234
f
GR
GS
[0.75 0 0 0.75 117.52486 44.08736] CT
N
f-1759579234
f
GR
GS
[0.75 0 0 0.75 106.64185 20.94813] CT
N
f-1759579234
f
GR
GS
[0.75 0 0 0.75 100.81189 64.56138] CT
N
f-1759579234
f
GR
GS
[0.75 0 0 0.75 118.07087 47.59254] CT
N
f-1759579234
f
GR
GS
[0.75 0 0 0.75 119.63997 47.29958] CT
N
f-1759579234
f
GR
GS
[0.75 0 0 0.75 114.50534 42.8762] CT
N
f-1759579234
f
GR
GS
[0.75 0 0 0.75 136.03714 66.39243] CT
N
f-1759579234
f
GR
GS
[0.75 0 0 0.75 129.6549 57.25308] CT
N
f-1759579234
f
GR
GS
[0.75 0 0 0.75 144.46767 71.62035] CT
N
f-1759579234
f
GR
GS
[0.75 0 0 0.75 125.35572 40.03349] CT
N
f-1759579234
f
GR
GS
[0.75 0 0 0.75 137.09022 46.45715] CT
N
f-1759579234
f
GR
GS
[0.75 0 0 0.75 100.81189 64.56138] CT
N
f-1759579234
f
GR
GS
[0.75 0 0 0.75 131.49772 56.91146] CT
N
f-1759579234
f
GR
GS
[0.75 0 0 0.75 142.19276 60.36645] CT
N
f-1759579234
f
GR
GS
[0.75 0 0 0.75 114.42921 51.88778] CT
N
f-1759579234
f
GR
GS
[0.75 0 0 0.75 124.20848 25.47765] CT
N
f-1759579234
f
GR
GS
[0.75 0 0 0.75 110.48036 20.9804] CT
N
f-1759579234
f
GR
GS
[0.75 0 0 0.75 112.53653 50.10883] CT
N
f-1759579234
f
GR
GS
[0.75 0 0 0.75 95.74081 20.88622] CT
N
f-1759579234
f
GR
GS
[0.75 0 0 0.75 107.48781 38.19234] CT
N
f-1759579234
f
GR
GS
[0.75 0 0 0.75 145.86564 34.64141] CT
N
f-1759579234
f
GR
GS
[0.75 0 0 0.75 114.18083 65.63914] CT
N
f-1759579234
f
GR
GS
[0.75 0 0 0.75 137.10678 45.8698] CT
N
f-1759579234
f
GR
GS
[0.75 0 0 0.75 113.0072 26.06586] CT
N
f-1759579234
f
GR
GS
[0.75 0 0 0.75 118.90512 22.72384] CT
N
f-1759579234
f
GR
GS
[0.75 0 0 0.75 130.875 73.35443] CT
N
f-1759579234
f
GR
GS
[0.75 0 0 0.75 100.58276 20.89082] CT
N
f-1759579234
f
GR
GS
[0.75 0 0 0.75 123.90786 55.5281] CT
N
f-1759579234
f
GR
GS
[0.75 0 0 0.75 131.61628 67.75902] CT
N
f-1759579234
f
GR
GS
[0.75 0 0 0.75 134.42833 51.21116] CT
N
f-1759579234
f
GR
GS
[0.75 0 0 0.75 115.07333 21.52948] CT
N
f-1759579234
f
GR
GS
[0.75 0 0 0.75 121.3264 51.06748] CT
N
f-1759579234
f
GR
GS
[0.75 0 0 0.75 125.35572 40.03349] CT
N
f-1759579234
f
GR
GS
[0.75 0 0 0.75 141.71931 74.29191] CT
N
f-1759579234
f
GR
GS
[0.75 0 0 0.75 101.87682 24.70691] CT
N
f-1759579234
f
GR
GS
[0.75 0 0 0.75 109.41408 21.1157] CT
N
f-1759579234
f
GR
GS
[0.75 0 0 0.75 125.68457 37.51279] CT
N
f-1759579234
f
GR
GS
[0.75 0 0 0.75 138.38074 62.73971] CT
N
f-1759579234
f
GR
GS
[0.75 0 0 0.75 135.4819 58.43214] CT
N
f-1759579234
f
GR
GS
[0.75 0 0 0.75 124.34595 65.12267] CT
N
f-1759579234
f
GR
GS
[0.75 0 0 0.75 136.93661 58.18515] CT
N
f-1759579234
f
GR
GS
[0.75 0 0 0.75 101.70636 25.03409] CT
N
f-1759579234
f
GR
GS
[0.75 0 0 0.75 121.3264 51.06748] CT
N
f-1759579234
f
GR
GS
[0.75 0 0 0.75 109.88374 46.84231] CT
N
f-1759579234
f
GR
GS
[0.75 0 0 0.75 132.36557 55.58601] CT
N
f-1759579234
f
GR
GS
[0.75 0 0 0.75 125.84502 38.88081] CT
N
f-1759579234
f
GR
GS
[0.75 0 0 0.75 132.16589 64.69756] CT
N
f-1759579234
f
GR
GS
[0.75 0 0 0.75 130.34111 51.03001] CT
N
f-1759579234
f
GR
GS
[0.75 0 0 0.75 133.92249 54.19808] CT
N
f-1759579234
f
GR
GS
[0.75 0 0 0.75 105.39318 24.13087] CT
N
f-1759579234
f
GR
GS
[0.75 0 0 0.75 118.07087 47.59254] CT
N
f-1759579234
f
GR
GS
[0.75 0 0 0.75 125.33926 42.48122] CT
N
f-1759579234
f
GR
GS
[0.75 0 0 0.75 114.94761 58.22887] CT
N
f-1759579234
f
GR
GS
[0.75 0 0 0.75 111.30569 25.9523] CT
N
f-1759579234
f
GR
GS
[0.75 0 0 0.75 119.85278 45.36051] CT
N
f-1759579234
f
GR
GS
[0.75 0 0 0.75 105.82928 20.99583] CT
N
f-1759579234
f
GR
GS
[0.75 0 0 0.75 110.48036 20.9804] CT
N
f-1759579234
f
GR
GS
[0.75 0 0 0.75 140.79436 60.76496] CT
N
f-1759579234
f
GR
GS
[0.75 0 0 0.75 99.52702 20.88874] CT
N
f-1759579234
f
GR
GS
[0.75 0 0 0.75 156.44894 69.46772] CT
N
f-1759579234
f
GR
GS
[0.75 0 0 0.75 135.86605 59.3115] CT
N
f-1759579234
f
GR
GS
[0.75 0 0 0.75 144.05834 32.84673] CT
N
f-1759579234
f
GR
GS
[0.75 0 0 0.75 134.42833 51.21116] CT
N
f-1759579234
f
GR
GS
[0.75 0 0 0.75 109.96798 26.81388] CT
N
f-1759579234
f
GR
GS
[0.75 0 0 0.75 137.44498 39.53109] CT
N
f-1759579234
f
GR
GS
[0.75 0 0 0.75 108.28275 20.98662] CT
N
f-1759579234
f
GR
GS
[0.75 0 0 0.75 114.89 46.28682] CT
N
f-1759579234
f
GR
GS
[0.75 0 0 0.75 96.63689 20.88622] CT
N
f-1759579234
f
GR
GS
[0.75 0 0 0.75 101.70636 25.03409] CT
N
f-1759579234
f
GR
GS
[0.75 0 0 0.75 127.41466 36.98969] CT
N
f-1759579234
f
GR
GS
[0.75 0 0 0.75 126.10509 65.72927] CT
N
f-1759579234
f
GR
GS
[0.75 0 0 0.75 138.38074 62.73971] CT
N
f-1759579234
f
GR
GS
[0.75 0 0 0.75 128.74625 69.48743] CT
N
f-1759579234
f
GR
GS
[0.75 0 0 0.75 100.58276 20.89082] CT
N
f-1759579234
f
GR
GS
[0.75 0 0 0.75 100.58146 34.74739] CT
N
f-1759579234
f
GR
GS
[0.75 0 0 0.75 131.71997 60.88295] CT
N
f-1759579234
f
GR
GS
[0.75 0 0 0.75 111.30569 25.9523] CT
N
f-1759579234
f
GR
GS
[0.75 0 0 0.75 120.22943 25.23864] CT
N
f-1759579234
f
GR
GS
[0.75 0 0 0.75 129.39149 53.2502] CT
N
f-1759579234
f
GR
GS
[0.75 0 0 0.75 120.69326 55.20006] CT
N
f-1759579234
f
GR
GS
[0.75 0 0 0.75 118.07087 47.59254] CT
N
f-1759579234
f
GR
GS
[0.75 0 0 0.75 77.42739 84.77826] CT
N
f-1759579234
f
GR
GS
[0.75 0 0 0.75 122.80475 56.42732] CT
N
f-1759579234
f
GR
GS
[0.75 0 0 0.75 126.60322 36.6419] CT
N
f-1759579234
f
GR
GS
[0.75 0 0 0.75 137.10678 45.8698] CT
N
f-1759579234
f
GR
GS
[0.75 0 0 0.75 120.79993 31.19174] CT
N
f-1759579234
f
GR
GS
[0.75 0 0 0.75 110.54625 47.41746] CT
N
f-1759579234
f
GR
GS
[0.75 0 0 0.75 116.53923 36.52297] CT
N
f-1759579234
f
GR
GS
[0.75 0 0 0.75 91.01333 35.22109] CT
N
f-1759579234
f
GR
GS
[0.75 0 0 0.75 123.82866 44.03508] CT
N
f-1759579234
f
GR
GS
[0.75 0 0 0.75 116.53923 36.52297] CT
N
f-1759579234
f
GR
GS
[0.75 0 0 0.75 142.23656 71.48046] CT
N
f-1759579234
f
GR
GS
[0.75 0 0 0.75 124.34595 65.12267] CT
N
f-1759579234
f
GR
GS
[0.75 0 0 0.75 119.81083 40.06161] CT
N
f-1759579234
f
GR
GS
[0.75 0 0 0.75 125.33926 42.48122] CT
N
f-1759579234
f
GR
GS
[0.75 0 0 0.75 137.54566 73.20234] CT
N
f-1759579234
f
GR
GS
[0.75 0 0 0.75 111.40546 38.23221] CT
N
f-1759579234
f
GR
GS
[0.75 0 0 0.75 110.7197 22.51461] CT
N
f-1759579234
f
GR
GS
[0.75 0 0 0.75 144.90637 61.20072] CT
N
f-1759579234
f
GR
GS
[0.75 0 0 0.75 117.57138 20.88622] CT
N
f-1759579234
f
GR
GS
[0.75 0 0 0.75 114.94761 58.22887] CT
N
f-1759579234
f
GR
GS
[0.75 0 0 0.75 105.82928 20.99583] CT
N
f-1759579234
f
GR
GS
[0.75 0 0 0.75 111.33046 42.59455] CT
N
f-1759579234
f
GR
GS
[0.75 0 0 0.75 130.54714 43.34841] CT
N
f-1759579234
f
GR
GS
[0.75 0 0 0.75 125.57038 43.14528] CT
N
f-1759579234
f
GR
GS
[0.75 0 0 0.75 123.23704 27.26795] CT
N
f-1759579234
f
GR
GS
[0.75 0 0 0.75 100.58276 20.89082] CT
N
f-1759579234
f
GR
GS
[0.75 0 0 0.75 118.01541 52.28382] CT
N
f-1759579234
f
GR
GS
[0.75 0 0 0.75 124.12786 36.34565] CT
N
f-1759579234
f
GR
GS
[0.75 0 0 0.75 102.20675 20.88622] CT
N
f-1759579234
f
GR
GS
[0.75 0 0 0.75 127.45296 58.64838] CT
N
f-1759579234
f
GR
GS
[0.75 0 0 0.75 135.86605 59.3115] CT
N
f-1759579234
f
GR
GS
[0.75 0 0 0.75 140.73558 61.57102] CT
N
f-1759579234
f
GR
GS
[0.75 0 0 0.75 71.38541 127.80784] CT
1 0 0 RC
N
f-1759579234
f
GR
GS
[0.75 0 0 0.75 77.42739 127.80784] CT
1 0 0 RC
N
f-1759579234
f
GR
GS
[0.75 0 0 0.75 77.42739 127.80784] CT
1 0 0 RC
N
f-1759579234
f
GR
GS
[0.75 0 0 0.75 80.86959 20.88622] CT
1 0 0 RC
N
f-1759579234
f
GR
GS
[0.75 0 0 0.75 83.09738 127.80784] CT
1 0 0 RC
N
f-1759579234
f
GR
GS
[0.75 0 0 0.75 89.55496 20.88622] CT
1 0 0 RC
N
f-1759579234
f
GR
GS
[0.75 0 0 0.75 89.55496 20.88622] CT
1 0 0 RC
N
f-1759579234
f
GR
GS
[0.75 0 0 0.75 89.78038 20.88622] CT
1 0 0 RC
N
f-1759579234
f
GR
GS
[0.75 0 0 0.75 91.01333 20.88622] CT
1 0 0 RC
N
f-1759579234
f
GR
GS
[0.75 0 0 0.75 93.87263 20.88622] CT
1 0 0 RC
N
f-1759579234
f
GR
GS
[0.75 0 0 0.75 95.74081 20.88622] CT
1 0 0 RC
N
f-1759579234
f
GR
GS
[0.75 0 0 0.75 95.9586 20.88622] CT
1 0 0 RC
N
f-1759579234
f
GR
GS
[0.75 0 0 0.75 95.9586 20.88622] CT
1 0 0 RC
N
f-1759579234
f
GR
GS
[0.75 0 0 0.75 95.9586 20.88622] CT
1 0 0 RC
N
f-1759579234
f
GR
GS
[0.75 0 0 0.75 96.18465 20.88622] CT
1 0 0 RC
N
f-1759579234
f
GR
GS
[0.75 0 0 0.75 96.2403 20.88622] CT
1 0 0 RC
N
f-1759579234
f
GR
GS
[0.75 0 0 0.75 96.2403 20.88622] CT
1 0 0 RC
N
f-1759579234
f
GR
GS
[0.75 0 0 0.75 96.2403 20.88622] CT
1 0 0 RC
N
f-1759579234
f
GR
GS
[0.75 0 0 0.75 96.63689 20.88622] CT
1 0 0 RC
N
f-1759579234
f
GR
GS
[0.75 0 0 0.75 99.52702 20.88622] CT
1 0 0 RC
N
f-1759579234
f
GR
GS
[0.75 0 0 0.75 99.52702 20.88622] CT
1 0 0 RC
N
f-1759579234
f
GR
GS
[0.75 0 0 0.75 99.52702 20.88622] CT
1 0 0 RC
N
f-1759579234
f
GR
GS
[0.75 0 0 0.75 100.1746 20.88622] CT
1 0 0 RC
N
f-1759579234
f
GR
GS
[0.75 0 0 0.75 100.58146 20.88622] CT
1 0 0 RC
N
f-1759579234
f
GR
GS
[0.75 0 0 0.75 100.58146 20.88622] CT
1 0 0 RC
N
f-1759579234
f
GR
GS
[0.75 0 0 0.75 100.58276 20.88622] CT
1 0 0 RC
N
f-1759579234
f
GR
GS
[0.75 0 0 0.75 100.58276 20.88622] CT
1 0 0 RC
N
f-1759579234
f
GR
GS
[0.75 0 0 0.75 100.58276 20.88622] CT
1 0 0 RC
N
f-1759579234
f
GR
GS
[0.75 0 0 0.75 100.58276 20.88622] CT
1 0 0 RC
N
f-1759579234
f
GR
GS
[0.75 0 0 0.75 100.81189 20.88622] CT
1 0 0 RC
N
f-1759579234
f
GR
GS
[0.75 0 0 0.75 100.81189 20.88622] CT
1 0 0 RC
N
f-1759579234
f
GR
GS
[0.75 0 0 0.75 100.87239 20.88622] CT
1 0 0 RC
N
f-1759579234
f
GR
GS
[0.75 0 0 0.75 101.70636 20.88622] CT
1 0 0 RC
N
f-1759579234
f
GR
GS
[0.75 0 0 0.75 101.70636 20.88622] CT
1 0 0 RC
N
f-1759579234
f
GR
GS
[0.75 0 0 0.75 101.70636 20.88622] CT
1 0 0 RC
N
f-1759579234
f
GR
GS
[0.75 0 0 0.75 101.70636 20.88622] CT
1 0 0 RC
N
f-1759579234
f
GR
GS
[0.75 0 0 0.75 101.87682 20.88622] CT
1 0 0 RC
N
f-1759579234
f
GR
GS
[0.75 0 0 0.75 101.87682 20.88622] CT
1 0 0 RC
N
f-1759579234
f
GR
GS
[0.75 0 0 0.75 102.20675 20.88622] CT
1 0 0 RC
N
f-1759579234
f
GR
GS
[0.75 0 0 0.75 102.20675 20.88622] CT
1 0 0 RC
N
f-1759579234
f
GR
GS
[0.75 0 0 0.75 102.20675 20.88622] CT
1 0 0 RC
N
f-1759579234
f
GR
GS
[0.75 0 0 0.75 103.63584 20.88622] CT
1 0 0 RC
N
f-1759579234
f
GR
GS
[0.75 0 0 0.75 103.63584 20.88622] CT
1 0 0 RC
N
f-1759579234
f
GR
GS
[0.75 0 0 0.75 104.57711 20.88622] CT
1 0 0 RC
N
f-1759579234
f
GR
GS
[0.75 0 0 0.75 105.39318 20.88622] CT
1 0 0 RC
N
f-1759579234
f
GR
GS
[0.75 0 0 0.75 105.46558 20.88622] CT
1 0 0 RC
N
f-1759579234
f
GR
GS
[0.75 0 0 0.75 105.69865 20.88622] CT
1 0 0 RC
N
f-1759579234
f
GR
GS
[0.75 0 0 0.75 105.69865 20.88622] CT
1 0 0 RC
N
f-1759579234
f
GR
GS
[0.75 0 0 0.75 105.82928 20.88622] CT
1 0 0 RC
N
f-1759579234
f
GR
GS
[0.75 0 0 0.75 105.82928 20.88622] CT
1 0 0 RC
N
f-1759579234
f
GR
GS
[0.75 0 0 0.75 105.82928 20.88622] CT
1 0 0 RC
N
f-1759579234
f
GR
GS
[0.75 0 0 0.75 106.17025 20.88622] CT
1 0 0 RC
N
f-1759579234
f
GR
GS
[0.75 0 0 0.75 106.60585 20.88622] CT
1 0 0 RC
N
f-1759579234
f
GR
GS
[0.75 0 0 0.75 106.64185 20.88622] CT
1 0 0 RC
N
f-1759579234
f
GR
GS
[0.75 0 0 0.75 106.64185 20.88622] CT
1 0 0 RC
N
f-1759579234
f
GR
GS
[0.75 0 0 0.75 107.48781 20.88622] CT
1 0 0 RC
N
f-1759579234
f
GR
GS
[0.75 0 0 0.75 107.6536 20.88622] CT
1 0 0 RC
N
f-1759579234
f
GR
GS
[0.75 0 0 0.75 107.97419 20.88622] CT
1 0 0 RC
N
f-1759579234
f
GR
GS
[0.75 0 0 0.75 108.28275 20.88622] CT
1 0 0 RC
N
f-1759579234
f
GR
GS
[0.75 0 0 0.75 108.8062 20.88622] CT
1 0 0 RC
N
f-1759579234
f
GR
GS
[0.75 0 0 0.75 109.34009 20.88622] CT
1 0 0 RC
N
f-1759579234
f
GR
GS
[0.75 0 0 0.75 109.41408 20.88622] CT
1 0 0 RC
N
f-1759579234
f
GR
GS
[0.75 0 0 0.75 109.88374 20.88622] CT
1 0 0 RC
N
f-1759579234
f
GR
GS
[0.75 0 0 0.75 109.96798 20.88622] CT
1 0 0 RC
N
f-1759579234
f
GR
GS
[0.75 0 0 0.75 109.96798 20.88622] CT
1 0 0 RC
N
f-1759579234
f
GR
GS
[0.75 0 0 0.75 110.07835 20.88622] CT
1 0 0 RC
N
f-1759579234
f
GR
GS
[0.75 0 0 0.75 110.07835 20.88622] CT
1 0 0 RC
N
f-1759579234
f
GR
GS
[0.75 0 0 0.75 110.48036 20.88622] CT
1 0 0 RC
N
f-1759579234
f
GR
GS
[0.75 0 0 0.75 110.48036 20.88622] CT
1 0 0 RC
N
f-1759579234
f
GR
GS
[0.75 0 0 0.75 110.54625 20.88622] CT
1 0 0 RC
N
f-1759579234
f
GR
GS
[0.75 0 0 0.75 110.54625 20.88622] CT
1 0 0 RC
N
f-1759579234
f
GR
GS
[0.75 0 0 0.75 110.54625 20.88622] CT
1 0 0 RC
N
f-1759579234
f
GR
GS
[0.75 0 0 0.75 110.7197 20.88622] CT
1 0 0 RC
N
f-1759579234
f
GR
GS
[0.75 0 0 0.75 110.89002 20.88622] CT
1 0 0 RC
N
f-1759579234
f
GR
GS
[0.75 0 0 0.75 111.30569 20.88622] CT
1 0 0 RC
N
f-1759579234
f
GR
GS
[0.75 0 0 0.75 111.30569 20.88622] CT
1 0 0 RC
N
f-1759579234
f
GR
GS
[0.75 0 0 0.75 111.30569 20.88622] CT
1 0 0 RC
N
f-1759579234
f
GR
GS
[0.75 0 0 0.75 111.33046 20.88622] CT
1 0 0 RC
N
f-1759579234
f
GR
GS
[0.75 0 0 0.75 111.34753 20.88622] CT
1 0 0 RC
N
f-1759579234
f
GR
GS
[0.75 0 0 0.75 111.34753 20.88622] CT
1 0 0 RC
N
f-1759579234
f
GR
GS
[0.75 0 0 0.75 111.40546 20.88622] CT
1 0 0 RC
N
f-1759579234
f
GR
GS
[0.75 0 0 0.75 111.40546 20.88622] CT
1 0 0 RC
N
f-1759579234
f
GR
GS
[0.75 0 0 0.75 112.03955 20.88622] CT
1 0 0 RC
N
f-1759579234
f
GR
GS
[0.75 0 0 0.75 112.53653 20.88622] CT
1 0 0 RC
N
f-1759579234
f
GR
GS
[0.75 0 0 0.75 112.53653 20.88622] CT
1 0 0 RC
N
f-1759579234
f
GR
GS
[0.75 0 0 0.75 112.63515 20.88622] CT
1 0 0 RC
N
f-1759579234
f
GR
GS
[0.75 0 0 0.75 112.95771 20.88622] CT
1 0 0 RC
N
f-1759579234
f
GR
GS
[0.75 0 0 0.75 112.95771 20.88622] CT
1 0 0 RC
N
f-1759579234
f
GR
GS
[0.75 0 0 0.75 113.0072 20.88622] CT
1 0 0 RC
N
f-1759579234
f
GR
GS
[0.75 0 0 0.75 113.0072 20.88622] CT
1 0 0 RC
N
f-1759579234
f
GR
GS
[0.75 0 0 0.75 113.9508 20.88622] CT
1 0 0 RC
N
f-1759579234
f
GR
GS
[0.75 0 0 0.75 114.18083 20.88622] CT
1 0 0 RC
N
f-1759579234
f
GR
GS
[0.75 0 0 0.75 114.42921 20.88622] CT
1 0 0 RC
N
f-1759579234
f
GR
GS
[0.75 0 0 0.75 114.42921 20.88622] CT
1 0 0 RC
N
f-1759579234
f
GR
GS
[0.75 0 0 0.75 114.42921 20.88622] CT
1 0 0 RC
N
f-1759579234
f
GR
GS
[0.75 0 0 0.75 114.50534 20.88622] CT
1 0 0 RC
N
f-1759579234
f
GR
GS
[0.75 0 0 0.75 114.50534 20.88622] CT
1 0 0 RC
N
f-1759579234
f
GR
GS
[0.75 0 0 0.75 114.73025 20.88622] CT
1 0 0 RC
N
f-1759579234
f
GR
GS
[0.75 0 0 0.75 114.89 20.88622] CT
1 0 0 RC
N
f-1759579234
f
GR
GS
[0.75 0 0 0.75 114.94761 20.88622] CT
1 0 0 RC
N
f-1759579234
f
GR
GS
[0.75 0 0 0.75 114.94761 20.88622] CT
1 0 0 RC
N
f-1759579234
f
GR
GS
[0.75 0 0 0.75 115.07333 20.88622] CT
1 0 0 RC
N
f-1759579234
f
GR
GS
[0.75 0 0 0.75 115.07333 20.88622] CT
1 0 0 RC
N
f-1759579234
f
GR
GS
[0.75 0 0 0.75 115.21519 20.88622] CT
1 0 0 RC
N
f-1759579234
f
GR
GS
[0.75 0 0 0.75 115.32738 20.88622] CT
1 0 0 RC
N
f-1759579234
f
GR
GS
[0.75 0 0 0.75 115.34944 20.88622] CT
1 0 0 RC
N
f-1759579234
f
GR
GS
[0.75 0 0 0.75 115.4688 20.88622] CT
1 0 0 RC
N
f-1759579234
f
GR
GS
[0.75 0 0 0.75 115.4688 20.88622] CT
1 0 0 RC
N
f-1759579234
f
GR
GS
[0.75 0 0 0.75 115.77916 20.88622] CT
1 0 0 RC
N
f-1759579234
f
GR
GS
[0.75 0 0 0.75 115.90731 20.88622] CT
1 0 0 RC
N
f-1759579234
f
GR
GS
[0.75 0 0 0.75 116.53923 20.88622] CT
1 0 0 RC
N
f-1759579234
f
GR
GS
[0.75 0 0 0.75 116.53923 20.88622] CT
1 0 0 RC
N
f-1759579234
f
GR
GS
[0.75 0 0 0.75 116.62396 20.88622] CT
1 0 0 RC
N
f-1759579234
f
GR
GS
[0.75 0 0 0.75 116.62396 20.88622] CT
1 0 0 RC
N
f-1759579234
f
GR
GS
[0.75 0 0 0.75 117.48953 20.88622] CT
1 0 0 RC
N
f-1759579234
f
GR
GS
[0.75 0 0 0.75 117.52486 20.88622] CT
1 0 0 RC
N
f-1759579234
f
GR
GS
[0.75 0 0 0.75 117.52486 20.88622] CT
1 0 0 RC
N
f-1759579234
f
GR
GS
[0.75 0 0 0.75 117.52486 20.88622] CT
1 0 0 RC
N
f-1759579234
f
GR
GS
[0.75 0 0 0.75 117.52486 20.88622] CT
1 0 0 RC
N
f-1759579234
f
GR
GS
[0.75 0 0 0.75 117.52486 20.88622] CT
1 0 0 RC
N
f-1759579234
f
GR
GS
[0.75 0 0 0.75 117.57138 20.88622] CT
1 0 0 RC
N
f-1759579234
f
GR
GS
[0.75 0 0 0.75 117.57138 20.88622] CT
1 0 0 RC
N
f-1759579234
f
GR
GS
[0.75 0 0 0.75 117.76079 20.88622] CT
1 0 0 RC
N
f-1759579234
f
GR
GS
[0.75 0 0 0.75 118.01541 20.88622] CT
1 0 0 RC
N
f-1759579234
f
GR
GS
[0.75 0 0 0.75 118.01541 20.88622] CT
1 0 0 RC
N
f-1759579234
f
GR
GS
[0.75 0 0 0.75 118.01541 20.88622] CT
1 0 0 RC
N
f-1759579234
f
GR
GS
[0.75 0 0 0.75 118.06308 20.88622] CT
1 0 0 RC
N
f-1759579234
f
GR
GS
[0.75 0 0 0.75 118.06308 20.88622] CT
1 0 0 RC
N
f-1759579234
f
GR
GS
[0.75 0 0 0.75 118.07087 20.88622] CT
1 0 0 RC
N
f-1759579234
f
GR
GS
[0.75 0 0 0.75 118.07087 20.88622] CT
1 0 0 RC
N
f-1759579234
f
GR
GS
[0.75 0 0 0.75 118.07087 20.88622] CT
1 0 0 RC
N
f-1759579234
f
GR
GS
[0.75 0 0 0.75 118.07087 20.88622] CT
1 0 0 RC
N
f-1759579234
f
GR
GS
[0.75 0 0 0.75 118.90512 20.88622] CT
1 0 0 RC
N
f-1759579234
f
GR
GS
[0.75 0 0 0.75 118.90512 20.88622] CT
1 0 0 RC
N
f-1759579234
f
GR
GS
[0.75 0 0 0.75 119.48537 20.88622] CT
1 0 0 RC
N
f-1759579234
f
GR
GS
[0.75 0 0 0.75 119.56517 20.88622] CT
1 0 0 RC
N
f-1759579234
f
GR
GS
[0.75 0 0 0.75 119.63997 20.88622] CT
1 0 0 RC
N
f-1759579234
f
GR
GS
[0.75 0 0 0.75 119.67181 20.88622] CT
1 0 0 RC
N
f-1759579234
f
GR
GS
[0.75 0 0 0.75 119.76017 20.88622] CT
1 0 0 RC
N
f-1759579234
f
GR
GS
[0.75 0 0 0.75 119.76017 20.88622] CT
1 0 0 RC
N
f-1759579234
f
GR
GS
[0.75 0 0 0.75 119.81083 20.88622] CT
1 0 0 RC
N
f-1759579234
f
GR
GS
[0.75 0 0 0.75 119.85278 20.88622] CT
1 0 0 RC
N
f-1759579234
f
GR
GS
[0.75 0 0 0.75 119.85278 20.88622] CT
1 0 0 RC
N
f-1759579234
f
GR
GS
[0.75 0 0 0.75 119.85626 20.88622] CT
1 0 0 RC
N
f-1759579234
f
GR
GS
[0.75 0 0 0.75 120.22943 20.88622] CT
1 0 0 RC
N
f-1759579234
f
GR
GS
[0.75 0 0 0.75 120.22943 20.88622] CT
1 0 0 RC
N
f-1759579234
f
GR
GS
[0.75 0 0 0.75 120.69326 20.88622] CT
1 0 0 RC
N
f-1759579234
f
GR
GS
[0.75 0 0 0.75 120.69326 20.88622] CT
1 0 0 RC
N
f-1759579234
f
GR
GS
[0.75 0 0 0.75 120.70699 20.88622] CT
1 0 0 RC
N
f-1759579234
f
GR
GS
[0.75 0 0 0.75 120.71974 20.88622] CT
1 0 0 RC
N
f-1759579234
f
GR
GS
[0.75 0 0 0.75 120.79993 20.88622] CT
1 0 0 RC
N
f-1759579234
f
GR
GS
[0.75 0 0 0.75 121.1995 20.88622] CT
1 0 0 RC
N
f-1759579234
f
GR
GS
[0.75 0 0 0.75 121.21775 20.88622] CT
1 0 0 RC
N
f-1759579234
f
GR
GS
[0.75 0 0 0.75 121.21775 20.88622] CT
1 0 0 RC
N
f-1759579234
f
GR
GS
[0.75 0 0 0.75 121.3264 20.88622] CT
1 0 0 RC
N
f-1759579234
f
GR
GS
[0.75 0 0 0.75 121.3264 20.88622] CT
1 0 0 RC
N
f-1759579234
f
GR
GS
[0.75 0 0 0.75 121.3264 20.88622] CT
1 0 0 RC
N
f-1759579234
f
GR
GS
[0.75 0 0 0.75 122.80475 20.88622] CT
1 0 0 RC
N
f-1759579234
f
GR
GS
[0.75 0 0 0.75 122.80622 20.88622] CT
1 0 0 RC
N
f-1759579234
f
GR
GS
[0.75 0 0 0.75 122.85868 20.88622] CT
1 0 0 RC
N
f-1759579234
f
GR
GS
[0.75 0 0 0.75 123.07264 20.88622] CT
1 0 0 RC
N
f-1759579234
f
GR
GS
[0.75 0 0 0.75 123.07264 20.88622] CT
1 0 0 RC
N
f-1759579234
f
GR
GS
[0.75 0 0 0.75 123.15604 20.88622] CT
1 0 0 RC
N
f-1759579234
f
GR
GS
[0.75 0 0 0.75 123.23704 20.88622] CT
1 0 0 RC
N
f-1759579234
f
GR
GS
[0.75 0 0 0.75 123.58158 20.88622] CT
1 0 0 RC
N
f-1759579234
f
GR
GS
[0.75 0 0 0.75 123.64006 20.88622] CT
1 0 0 RC
N
f-1759579234
f
GR
GS
[0.75 0 0 0.75 123.74228 20.88622] CT
1 0 0 RC
N
f-1759579234
f
GR
GS
[0.75 0 0 0.75 123.82866 20.88622] CT
1 0 0 RC
N
f-1759579234
f
GR
GS
[0.75 0 0 0.75 123.90786 20.88622] CT
1 0 0 RC
N
f-1759579234
f
GR
GS
[0.75 0 0 0.75 123.90786 20.88622] CT
1 0 0 RC
N
f-1759579234
f
GR
GS
[0.75 0 0 0.75 123.90786 20.88622] CT
1 0 0 RC
N
f-1759579234
f
GR
GS
[0.75 0 0 0.75 124.0386 20.88622] CT
1 0 0 RC
N
f-1759579234
f
GR
GS
[0.75 0 0 0.75 124.12786 20.88622] CT
1 0 0 RC
N
f-1759579234
f
GR
GS
[0.75 0 0 0.75 124.12786 20.88622] CT
1 0 0 RC
N
f-1759579234
f
GR
GS
[0.75 0 0 0.75 124.12786 20.88622] CT
1 0 0 RC
N
f-1759579234
f
GR
GS
[0.75 0 0 0.75 124.20848 20.88622] CT
1 0 0 RC
N
f-1759579234
f
GR
GS
[0.75 0 0 0.75 124.31161 20.88622] CT
1 0 0 RC
N
f-1759579234
f
GR
GS
[0.75 0 0 0.75 124.34595 20.88622] CT
1 0 0 RC
N
f-1759579234
f
GR
GS
[0.75 0 0 0.75 124.34595 20.88622] CT
1 0 0 RC
N
f-1759579234
f
GR
GS
[0.75 0 0 0.75 124.39122 20.88622] CT
1 0 0 RC
N
f-1759579234
f
GR
GS
[0.75 0 0 0.75 124.39122 20.88622] CT
1 0 0 RC
N
f-1759579234
f
GR
GS
[0.75 0 0 0.75 124.39122 20.88622] CT
1 0 0 RC
N
f-1759579234
f
GR
GS
[0.75 0 0 0.75 124.60575 20.88622] CT
1 0 0 RC
N
f-1759579234
f
GR
GS
[0.75 0 0 0.75 125.01835 20.88622] CT
1 0 0 RC
N
f-1759579234
f
GR
GS
[0.75 0 0 0.75 125.01835 20.88622] CT
1 0 0 RC
N
f-1759579234
f
GR
GS
[0.75 0 0 0.75 125.05861 20.88622] CT
1 0 0 RC
N
f-1759579234
f
GR
GS
[0.75 0 0 0.75 125.21544 20.88622] CT
1 0 0 RC
N
f-1759579234
f
GR
GS
[0.75 0 0 0.75 125.33926 20.88622] CT
1 0 0 RC
N
f-1759579234
f
GR
GS
[0.75 0 0 0.75 125.33926 20.88622] CT
1 0 0 RC
N
f-1759579234
f
GR
GS
[0.75 0 0 0.75 125.33926 20.88622] CT
1 0 0 RC
N
f-1759579234
f
GR
GS
[0.75 0 0 0.75 125.35572 20.88622] CT
1 0 0 RC
N
f-1759579234
f
GR
GS
[0.75 0 0 0.75 125.35572 20.88622] CT
1 0 0 RC
N
f-1759579234
f
GR
GS
[0.75 0 0 0.75 125.35572 20.88622] CT
1 0 0 RC
N
f-1759579234
f
GR
GS
[0.75 0 0 0.75 125.51997 20.88622] CT
1 0 0 RC
N
f-1759579234
f
GR
GS
[0.75 0 0 0.75 125.56641 20.88622] CT
1 0 0 RC
N
f-1759579234
f
GR
GS
[0.75 0 0 0.75 125.56641 20.88622] CT
1 0 0 RC
N
f-1759579234
f
GR
GS
[0.75 0 0 0.75 125.57038 20.88622] CT
1 0 0 RC
N
f-1759579234
f
GR
GS
[0.75 0 0 0.75 125.57038 20.88622] CT
1 0 0 RC
N
f-1759579234
f
GR
GS
[0.75 0 0 0.75 125.68457 20.88622] CT
1 0 0 RC
N
f-1759579234
f
GR
GS
[0.75 0 0 0.75 125.84502 20.88622] CT
1 0 0 RC
N
f-1759579234
f
GR
GS
[0.75 0 0 0.75 125.84502 20.88622] CT
1 0 0 RC
N
f-1759579234
f
GR
GS
[0.75 0 0 0.75 126.00532 20.88622] CT
1 0 0 RC
N
f-1759579234
f
GR
GS
[0.75 0 0 0.75 126.01559 20.88622] CT
1 0 0 RC
N
f-1759579234
f
GR
GS
[0.75 0 0 0.75 126.04699 20.88622] CT
1 0 0 RC
N
f-1759579234
f
GR
GS
[0.75 0 0 0.75 126.04699 20.88622] CT
1 0 0 RC
N
f-1759579234
f
GR
GS
[0.75 0 0 0.75 126.0818 20.88622] CT
1 0 0 RC
N
f-1759579234
f
GR
GS
[0.75 0 0 0.75 126.0818 20.88622] CT
1 0 0 RC
N
f-1759579234
f
GR
GS
[0.75 0 0 0.75 126.0818 20.88622] CT
1 0 0 RC
N
f-1759579234
f
GR
GS
[0.75 0 0 0.75 126.10509 20.88622] CT
1 0 0 RC
N
f-1759579234
f
GR
GS
[0.75 0 0 0.75 126.10509 20.88622] CT
1 0 0 RC
N
f-1759579234
f
GR
GS
[0.75 0 0 0.75 126.23281 20.88622] CT
1 0 0 RC
N
f-1759579234
f
GR
GS
[0.75 0 0 0.75 126.23281 20.88622] CT
1 0 0 RC
N
f-1759579234
f
GR
GS
[0.75 0 0 0.75 126.60322 20.88622] CT
1 0 0 RC
N
f-1759579234
f
GR
GS
[0.75 0 0 0.75 127.41466 20.88622] CT
1 0 0 RC
N
f-1759579234
f
GR
GS
[0.75 0 0 0.75 127.45296 20.88622] CT
1 0 0 RC
N
f-1759579234
f
GR
GS
[0.75 0 0 0.75 127.45296 20.88622] CT
1 0 0 RC
N
f-1759579234
f
GR
GS
[0.75 0 0 0.75 127.45296 20.88622] CT
1 0 0 RC
N
f-1759579234
f
GR
GS
[0.75 0 0 0.75 127.62742 20.88622] CT
1 0 0 RC
N
f-1759579234
f
GR
GS
[0.75 0 0 0.75 128.1079 20.88622] CT
1 0 0 RC
N
f-1759579234
f
GR
GS
[0.75 0 0 0.75 128.30779 20.88622] CT
1 0 0 RC
N
f-1759579234
f
GR
GS
[0.75 0 0 0.75 128.74625 20.88622] CT
1 0 0 RC
N
f-1759579234
f
GR
GS
[0.75 0 0 0.75 129.39149 20.88622] CT
1 0 0 RC
N
f-1759579234
f
GR
GS
[0.75 0 0 0.75 129.6549 20.88622] CT
1 0 0 RC
N
f-1759579234
f
GR
GS
[0.75 0 0 0.75 129.66182 20.88622] CT
1 0 0 RC
N
f-1759579234
f
GR
GS
[0.75 0 0 0.75 130.04729 20.88622] CT
1 0 0 RC
N
f-1759579234
f
GR
GS
[0.75 0 0 0.75 130.34111 20.88622] CT
1 0 0 RC
N
f-1759579234
f
GR
GS
[0.75 0 0 0.75 130.34111 20.88622] CT
1 0 0 RC
N
f-1759579234
f
GR
GS
[0.75 0 0 0.75 130.54714 20.88622] CT
1 0 0 RC
N
f-1759579234
f
GR
GS
[0.75 0 0 0.75 130.875 20.88622] CT
1 0 0 RC
N
f-1759579234
f
GR
GS
[0.75 0 0 0.75 130.91485 20.88622] CT
1 0 0 RC
N
f-1759579234
f
GR
GS
[0.75 0 0 0.75 130.91485 20.88622] CT
1 0 0 RC
N
f-1759579234
f
GR
GS
[0.75 0 0 0.75 130.94683 20.88622] CT
1 0 0 RC
N
f-1759579234
f
GR
GS
[0.75 0 0 0.75 131.04644 20.88622] CT
1 0 0 RC
N
f-1759579234
f
GR
GS
[0.75 0 0 0.75 131.20837 20.88622] CT
1 0 0 RC
N
f-1759579234
f
GR
GS
[0.75 0 0 0.75 131.49772 20.88622] CT
1 0 0 RC
N
f-1759579234
f
GR
GS
[0.75 0 0 0.75 131.61628 20.88622] CT
1 0 0 RC
N
f-1759579234
f
GR
GS
[0.75 0 0 0.75 131.66722 20.88622] CT
1 0 0 RC
N
f-1759579234
f
GR
GS
[0.75 0 0 0.75 131.71997 20.88622] CT
1 0 0 RC
N
f-1759579234
f
GR
GS
[0.75 0 0 0.75 131.71997 20.88622] CT
1 0 0 RC
N
f-1759579234
f
GR
GS
[0.75 0 0 0.75 131.71997 20.88622] CT
1 0 0 RC
N
f-1759579234
f
GR
GS
[0.75 0 0 0.75 132.16589 20.88622] CT
1 0 0 RC
N
f-1759579234
f
GR
GS
[0.75 0 0 0.75 132.28749 20.88622] CT
1 0 0 RC
N
f-1759579234
f
GR
GS
[0.75 0 0 0.75 132.36557 20.88622] CT
1 0 0 RC
N
f-1759579234
f
GR
GS
[0.75 0 0 0.75 132.36557 20.88622] CT
1 0 0 RC
N
f-1759579234
f
GR
GS
[0.75 0 0 0.75 132.36557 20.88622] CT
1 0 0 RC
N
f-1759579234
f
GR
GS
[0.75 0 0 0.75 132.36557 20.88622] CT
1 0 0 RC
N
f-1759579234
f
GR
GS
[0.75 0 0 0.75 132.46224 20.88622] CT
1 0 0 RC
N
f-1759579234
f
GR
GS
[0.75 0 0 0.75 132.46224 20.88622] CT
1 0 0 RC
N
f-1759579234
f
GR
GS
[0.75 0 0 0.75 133.92249 20.88622] CT
1 0 0 RC
N
f-1759579234
f
GR
GS
[0.75 0 0 0.75 133.92249 20.88622] CT
1 0 0 RC
N
f-1759579234
f
GR
GS
[0.75 0 0 0.75 133.92249 20.88622] CT
1 0 0 RC
N
f-1759579234
f
GR
GS
[0.75 0 0 0.75 133.92729 20.88622] CT
1 0 0 RC
N
f-1759579234
f
GR
GS
[0.75 0 0 0.75 133.92729 20.88622] CT
1 0 0 RC
N
f-1759579234
f
GR
GS
[0.75 0 0 0.75 133.92729 20.88622] CT
1 0 0 RC
N
f-1759579234
f
GR
GS
[0.75 0 0 0.75 134.15974 20.88622] CT
1 0 0 RC
N
f-1759579234
f
GR
GS
[0.75 0 0 0.75 134.15974 20.88622] CT
1 0 0 RC
N
f-1759579234
f
GR
GS
[0.75 0 0 0.75 134.36802 20.88622] CT
1 0 0 RC
N
f-1759579234
f
GR
GS
[0.75 0 0 0.75 134.42833 20.88622] CT
1 0 0 RC
N
f-1759579234
f
GR
GS
[0.75 0 0 0.75 134.42833 20.88622] CT
1 0 0 RC
N
f-1759579234
f
GR
GS
[0.75 0 0 0.75 134.43015 20.88622] CT
1 0 0 RC
N
f-1759579234
f
GR
GS
[0.75 0 0 0.75 135.4819 20.88622] CT
1 0 0 RC
N
f-1759579234
f
GR
GS
[0.75 0 0 0.75 135.65714 20.88622] CT
1 0 0 RC
N
f-1759579234
f
GR
GS
[0.75 0 0 0.75 135.86605 20.88622] CT
1 0 0 RC
N
f-1759579234
f
GR
GS
[0.75 0 0 0.75 135.86605 20.88622] CT
1 0 0 RC
N
f-1759579234
f
GR
GS
[0.75 0 0 0.75 135.9338 20.88622] CT
1 0 0 RC
N
f-1759579234
f
GR
GS
[0.75 0 0 0.75 135.9338 20.88622] CT
1 0 0 RC
N
f-1759579234
f
GR
GS
[0.75 0 0 0.75 136.03714 20.88622] CT
1 0 0 RC
N
f-1759579234
f
GR
GS
[0.75 0 0 0.75 136.25545 20.88622] CT
1 0 0 RC
N
f-1759579234
f
GR
GS
[0.75 0 0 0.75 136.93661 20.88622] CT
1 0 0 RC
N
f-1759579234
f
GR
GS
[0.75 0 0 0.75 136.93661 20.88622] CT
1 0 0 RC
N
f-1759579234
f
GR
GS
[0.75 0 0 0.75 137.09022 20.88622] CT
1 0 0 RC
N
f-1759579234
f
GR
GS
[0.75 0 0 0.75 137.10678 20.88622] CT
1 0 0 RC
N
f-1759579234
f
GR
GS
[0.75 0 0 0.75 137.10678 20.88622] CT
1 0 0 RC
N
f-1759579234
f
GR
GS
[0.75 0 0 0.75 137.38054 20.88622] CT
1 0 0 RC
N
f-1759579234
f
GR
GS
[0.75 0 0 0.75 137.44498 20.88622] CT
1 0 0 RC
N
f-1759579234
f
GR
GS
[0.75 0 0 0.75 137.44498 20.88622] CT
1 0 0 RC
N
f-1759579234
f
GR
GS
[0.75 0 0 0.75 137.44498 20.88622] CT
1 0 0 RC
N
f-1759579234
f
GR
GS
[0.75 0 0 0.75 137.54566 20.88622] CT
1 0 0 RC
N
f-1759579234
f
GR
GS
[0.75 0 0 0.75 137.85214 20.88622] CT
1 0 0 RC
N
f-1759579234
f
GR
GS
[0.75 0 0 0.75 138.38074 20.88622] CT
1 0 0 RC
N
f-1759579234
f
GR
GS
[0.75 0 0 0.75 138.38074 20.88622] CT
1 0 0 RC
N
f-1759579234
f
GR
GS
[0.75 0 0 0.75 138.76398 20.88622] CT
1 0 0 RC
N
f-1759579234
f
GR
GS
[0.75 0 0 0.75 138.76398 20.88622] CT
1 0 0 RC
N
f-1759579234
f
GR
GS
[0.75 0 0 0.75 138.86561 20.88622] CT
1 0 0 RC
N
f-1759579234
f
GR
GS
[0.75 0 0 0.75 138.86561 20.88622] CT
1 0 0 RC
N
f-1759579234
f
GR
GS
[0.75 0 0 0.75 140.73558 20.88622] CT
1 0 0 RC
N
f-1759579234
f
GR
GS
[0.75 0 0 0.75 140.79436 20.88622] CT
1 0 0 RC
N
f-1759579234
f
GR
GS
[0.75 0 0 0.75 141.19862 20.88622] CT
1 0 0 RC
N
f-1759579234
f
GR
GS
[0.75 0 0 0.75 141.71931 20.88622] CT
1 0 0 RC
N
f-1759579234
f
GR
GS
[0.75 0 0 0.75 142.19276 20.88622] CT
1 0 0 RC
N
f-1759579234
f
GR
GS
[0.75 0 0 0.75 142.23656 20.88622] CT
1 0 0 RC
N
f-1759579234
f
GR
GS
[0.75 0 0 0.75 144.05834 20.88622] CT
1 0 0 RC
N
f-1759579234
f
GR
GS
[0.75 0 0 0.75 144.46767 20.88622] CT
1 0 0 RC
N
f-1759579234
f
GR
GS
[0.75 0 0 0.75 144.90637 20.88622] CT
1 0 0 RC
N
f-1759579234
f
GR
GS
[0.75 0 0 0.75 145.14552 20.88622] CT
1 0 0 RC
N
f-1759579234
f
GR
GS
[0.75 0 0 0.75 145.86564 20.88622] CT
1 0 0 RC
N
f-1759579234
f
GR
GS
[0.75 0 0 0.75 156.44894 20.88622] CT
1 0 0 RC
N
f-1759579234
f
GR
GS
[0.75 0 0 0.75 167.13685 127.80784] CT
1 0 0 RC
N
f-1759579234
f
GR
GS
[0.75 0 0 0.75 167.13685 127.80784] CT
1 0 0 RC
N
f-1759579234
f
GR
GS
[0.75 0 0 0.75 171.43707 127.80784] CT
1 0 0 RC
N
f-1759579234
f
GR
GS
[0.75 0 0 0.75 0 0.5] CT
0 0.447 0.741 RC
1 LJ
2.667 LW
N
76.978 34.089 M
260.022 26.198 L
S
GR
GS
[0.75 0 0 0.75 0 0.5] CT
1 GC
N
323 184 M
507 184 L
507 17 L
323 17 L
cp
f
GR
GS
[0.75 0 0 0.75 0 0.5] CT
0.149 GC
2 setlinecap
1 LJ
0.667 LW
N
323 184 M
507 184 L
S
GR
GS
[0.75 0 0 0.75 0 0.5] CT
0.149 GC
2 setlinecap
1 LJ
0.667 LW
N
338.512 184 M
338.512 182.16 L
S
GR
GS
[0.75 0 0 0.75 0 0.5] CT
0.149 GC
2 setlinecap
1 LJ
0.667 LW
N
369.663 184 M
369.663 182.16 L
S
GR
GS
[0.75 0 0 0.75 0 0.5] CT
0.149 GC
2 setlinecap
1 LJ
0.667 LW
N
400.814 184 M
400.814 182.16 L
S
GR
GS
[0.75 0 0 0.75 0 0.5] CT
0.149 GC
2 setlinecap
1 LJ
0.667 LW
N
431.965 184 M
431.965 182.16 L
S
GR
GS
[0.75 0 0 0.75 0 0.5] CT
0.149 GC
2 setlinecap
1 LJ
0.667 LW
N
463.116 184 M
463.116 182.16 L
S
GR
GS
[0.75 0 0 0.75 0 0.5] CT
0.149 GC
2 setlinecap
1 LJ
0.667 LW
N
494.267 184 M
494.267 182.16 L
S
GR
GS
[0.75 0 0 0.75 253.88429 142.5] CT
0.149 GC
/Helvetica 13.333 F
GS
[1 0 0 1 0 0] CT
-13 13 moveto 
1 -1 scale
(-7.4) t 
GR
GR
GS
[0.75 0 0 0.75 277.24754 142.5] CT
0.149 GC
/Helvetica 13.333 F
GS
[1 0 0 1 0 0] CT
-13 13 moveto 
1 -1 scale
(-7.2) t 
GR
GR
GS
[0.75 0 0 0.75 300.61075 142.5] CT
0.149 GC
/Helvetica 13.333 F
GS
[1 0 0 1 0 0] CT
-6.5 13 moveto 
1 -1 scale
(-7) t 
GR
GR
GS
[0.75 0 0 0.75 323.97395 142.5] CT
0.149 GC
/Helvetica 13.333 F
GS
[1 0 0 1 0 0] CT
-13 13 moveto 
1 -1 scale
(-6.8) t 
GR
GR
GS
[0.75 0 0 0.75 347.3372 142.5] CT
0.149 GC
/Helvetica 13.333 F
GS
[1 0 0 1 0 0] CT
-13 13 moveto 
1 -1 scale
(-6.6) t 
GR
GR
GS
[0.75 0 0 0.75 370.70039 142.5] CT
0.149 GC
/Helvetica 13.333 F
GS
[1 0 0 1 0 0] CT
-13 13 moveto 
1 -1 scale
(-6.4) t 
GR
GR
GS
[0.75 0 0 0.75 264.75 167] CT
0.149 GC
/Helvetica 14.667 F
GS
[1 0 0 1 0 0] CT
0 0 moveto 
1 -1 scale
(x cos ) t 
GR
GR
GS
[0.75 0 0 0.75 297.75 167] CT
0.149 GC
N
/f1162361650{2.422 0.172 M
1.734 0.172 1.328 -0.328 QT
0.922 -0.828 0.758 -1.531 QT
0.594 -2.234 0.594 -2.922 QT
0.594 -2.938 L
0.594 -3.688 0.742 -4.492 QT
0.891 -5.297 1.156 -6.102 QT
1.422 -6.906 1.75 -7.531 QT
1.969 -7.969 2.313 -8.508 QT
2.656 -9.047 3.086 -9.523 QT
3.516 -10 4.008 -10.289 QT
4.5 -10.578 5.016 -10.578 QT
5.031 -10.578 L
5.563 -10.578 5.93 -10.273 QT
6.297 -9.969 6.492 -9.5 QT
6.688 -9.031 6.773 -8.5 QT
6.859 -7.969 6.859 -7.484 QT
6.859 -6.344 6.547 -5.164 QT
6.234 -3.984 5.703 -2.875 QT
5.5 -2.469 5.133 -1.898 QT
4.766 -1.328 4.359 -0.883 QT
3.953 -0.438 3.445 -0.133 QT
2.938 0.172 2.438 0.172 QT
2.422 0.172 L
cp
2.453 -0.234 M
2.938 -0.234 3.398 -0.766 QT
3.859 -1.297 4.203 -2.055 QT
4.547 -2.813 4.805 -3.602 QT
5.063 -4.391 5.188 -4.953 QT
2.125 -4.953 L
1.891 -4 1.766 -3.32 QT
1.641 -2.641 1.641 -1.984 QT
1.641 -0.234 2.453 -0.234 QT
cp
2.25 -5.484 M
5.328 -5.484 L
5.484 -6.141 5.578 -6.586 QT
5.672 -7.031 5.742 -7.516 QT
5.813 -8 5.813 -8.438 QT
5.813 -10.188 5.016 -10.188 QT
4.063 -10.188 3.367 -8.656 QT
2.672 -7.125 2.25 -5.484 QT
cp}def
f1162361650
f
GR
GS
[0.75 0 0 0.75 303.75 167] CT
0.149 GC
/Helvetica 14.667 F
GS
[1 0 0 1 0 0] CT
0 0 moveto 
1 -1 scale
( + y sin ) t 
GR
GR
GS
[0.75 0 0 0.75 351 167] CT
0.149 GC
N
f1162361650
f
GR
GS
[0.75 0 0 0.75 0 0.5] CT
0.149 GC
2 setlinecap
1 LJ
0.667 LW
N
323 184 M
323 17 L
S
GR
GS
[0.75 0 0 0.75 0 0.5] CT
0.149 GC
2 setlinecap
1 LJ
0.667 LW
N
323 170.083 M
324.84 170.083 L
S
GR
GS
[0.75 0 0 0.75 0 0.5] CT
0.149 GC
2 setlinecap
1 LJ
0.667 LW
N
323 135.292 M
324.84 135.292 L
S
GR
GS
[0.75 0 0 0.75 0 0.5] CT
0.149 GC
2 setlinecap
1 LJ
0.667 LW
N
323 100.5 M
324.84 100.5 L
S
GR
GS
[0.75 0 0 0.75 0 0.5] CT
0.149 GC
2 setlinecap
1 LJ
0.667 LW
N
323 65.708 M
324.84 65.708 L
S
GR
GS
[0.75 0 0 0.75 0 0.5] CT
0.149 GC
2 setlinecap
1 LJ
0.667 LW
N
323 30.917 M
324.84 30.917 L
S
GR
GS
[0.75 0 0 0.75 238.25002 128.0625] CT
0.149 GC
/Helvetica 13.333 F
GS
[1 0 0 1 0 0] CT
-13 4.5 moveto 
1 -1 scale
(-1) t 
GR
GR
GS
[0.75 0 0 0.75 238.25002 101.96875] CT
0.149 GC
/Helvetica 13.333 F
GS
[1 0 0 1 0 0] CT
-26 4.5 moveto 
1 -1 scale
(-0.5) t 
GR
GR
GS
[0.75 0 0 0.75 238.25002 75.875] CT
0.149 GC
/Helvetica 13.333 F
GS
[1 0 0 1 0 0] CT
-9 4.5 moveto 
1 -1 scale
(0) t 
GR
GR
GS
[0.75 0 0 0.75 238.25002 49.78125] CT
0.149 GC
/Helvetica 13.333 F
GS
[1 0 0 1 0 0] CT
-21 4.5 moveto 
1 -1 scale
(0.5) t 
GR
GR
GS
[0.75 0 0 0.75 238.25002 23.6875] CT
0.149 GC
/Helvetica 13.333 F
GS
[1 0 0 1 0 0] CT
-9 4.5 moveto 
1 -1 scale
(1) t 
GR
GR
GS
[0 -0.75 0.75 0 215.74997 75.87494] CT
0.149 GC
/Helvetica 14.667 F
GS
[1 0 0 1 0 0] CT
-36.5 -4 moveto 
1 -1 scale
(Optimal v) t 
GR
GR
GS
[0.75 0 0 0.75 303.15255 23.6875] CT
1 0 0 RC
N
f-1759579234
f
GR
GS
[0.75 0 0 0.75 294.79031 23.6875] CT
1 0 0 RC
N
f-1759579234
f
GR
GS
[0.75 0 0 0.75 303.77719 128.0625] CT
1 0 0 RC
N
f-1759579234
f
GR
GS
[0.75 0 0 0.75 291.60352 23.6875] CT
1 0 0 RC
N
f-1759579234
f
GR
GS
[0.75 0 0 0.75 275.21976 23.6875] CT
1 0 0 RC
N
f-1759579234
f
GR
GS
[0.75 0 0 0.75 296.88421 23.6875] CT
1 0 0 RC
N
f-1759579234
f
GR
GS
[0.75 0 0 0.75 259.88548 128.0625] CT
1 0 0 RC
N
f-1759579234
f
GR
GS
[0.75 0 0 0.75 295.46526 128.0625] CT
1 0 0 RC
N
f-1759579234
f
GR
GS
[0.75 0 0 0.75 301.65884 128.0625] CT
1 0 0 RC
N
f-1759579234
f
GR
GS
[0.75 0 0 0.75 285.05656 23.6875] CT
1 0 0 RC
N
f-1759579234
f
GR
GS
[0.75 0 0 0.75 245.28648 128.0625] CT
1 0 0 RC
N
f-1759579234
f
GR
GS
[0.75 0 0 0.75 281.13272 23.6875] CT
1 0 0 RC
N
f-1759579234
f
GR
GS
[0.75 0 0 0.75 304.95882 23.6875] CT
1 0 0 RC
N
f-1759579234
f
GR
GS
[0.75 0 0 0.75 297.32165 23.6875] CT
1 0 0 RC
N
f-1759579234
f
GR
GS
[0.75 0 0 0.75 284.30914 23.6875] CT
1 0 0 RC
N
f-1759579234
f
GR
GS
[0.75 0 0 0.75 262.46407 23.6875] CT
1 0 0 RC
N
f-1759579234
f
GR
GS
[0.75 0 0 0.75 321.47887 23.6875] CT
1 0 0 RC
N
f-1759579234
f
GR
GS
[0.75 0 0 0.75 274.67404 23.6875] CT
1 0 0 RC
N
f-1759579234
f
GR
GS
[0.75 0 0 0.75 313.43724 23.6875] CT
1 0 0 RC
N
f-1759579234
f
GR
GS
[0.75 0 0 0.75 275.21976 23.6875] CT
1 0 0 RC
N
f-1759579234
f
GR
GS
[0.75 0 0 0.75 292.48368 23.6875] CT
1 0 0 RC
N
f-1759579234
f
GR
GS
[0.75 0 0 0.75 313.43724 23.6875] CT
1 0 0 RC
N
f-1759579234
f
GR
GS
[0.75 0 0 0.75 294.54176 23.6875] CT
1 0 0 RC
N
f-1759579234
f
GR
GS
[0.75 0 0 0.75 301.76177 23.6875] CT
1 0 0 RC
N
f-1759579234
f
GR
GS
[0.75 0 0 0.75 284.08912 23.6875] CT
1 0 0 RC
N
f-1759579234
f
GR
GS
[0.75 0 0 0.75 310.15148 23.6875] CT
1 0 0 RC
N
f-1759579234
f
GR
GS
[0.75 0 0 0.75 287.46446 128.0625] CT
1 0 0 RC
N
f-1759579234
f
GR
GS
[0.75 0 0 0.75 297.55465 23.6875] CT
1 0 0 RC
N
f-1759579234
f
GR
GS
[0.75 0 0 0.75 297.32165 23.6875] CT
1 0 0 RC
N
f-1759579234
f
GR
GS
[0.75 0 0 0.75 290.66354 128.0625] CT
1 0 0 RC
N
f-1759579234
f
GR
GS
[0.75 0 0 0.75 315.89278 23.6875] CT
1 0 0 RC
N
f-1759579234
f
GR
GS
[0.75 0 0 0.75 288.743 23.6875] CT
1 0 0 RC
N
f-1759579234
f
GR
GS
[0.75 0 0 0.75 286.28618 128.0625] CT
1 0 0 RC
N
f-1759579234
f
GR
GS
[0.75 0 0 0.75 285.18924 23.6875] CT
1 0 0 RC
N
f-1759579234
f
GR
GS
[0.75 0 0 0.75 322.34065 23.6875] CT
1 0 0 RC
N
f-1759579234
f
GR
GS
[0.75 0 0 0.75 272.92946 128.0625] CT
1 0 0 RC
N
f-1759579234
f
GR
GS
[0.75 0 0 0.75 310.36203 23.6875] CT
1 0 0 RC
N
f-1759579234
f
GR
GS
[0.75 0 0 0.75 316.66871 23.6875] CT
1 0 0 RC
N
f-1759579234
f
GR
GS
[0.75 0 0 0.75 295.99237 128.0625] CT
1 0 0 RC
N
f-1759579234
f
GR
GS
[0.75 0 0 0.75 307.32182 23.6875] CT
1 0 0 RC
N
f-1759579234
f
GR
GS
[0.75 0 0 0.75 296.81019 23.6875] CT
1 0 0 RC
N
f-1759579234
f
GR
GS
[0.75 0 0 0.75 279.28922 128.0625] CT
1 0 0 RC
N
f-1759579234
f
GR
GS
[0.75 0 0 0.75 310.63019 23.6875] CT
1 0 0 RC
N
f-1759579234
f
GR
GS
[0.75 0 0 0.75 278.3489 128.0625] CT
1 0 0 RC
N
f-1759579234
f
GR
GS
[0.75 0 0 0.75 288.99049 128.0625] CT
1 0 0 RC
N
f-1759579234
f
GR
GS
[0.75 0 0 0.75 282.43856 23.6875] CT
1 0 0 RC
N
f-1759579234
f
GR
GS
[0.75 0 0 0.75 315.5048 23.6875] CT
1 0 0 RC
N
f-1759579234
f
GR
GS
[0.75 0 0 0.75 300.23575 23.6875] CT
1 0 0 RC
N
f-1759579234
f
GR
GS
[0.75 0 0 0.75 276.94057 128.0625] CT
1 0 0 RC
N
f-1759579234
f
GR
GS
[0.75 0 0 0.75 284.30914 23.6875] CT
1 0 0 RC
N
f-1759579234
f
GR
GS
[0.75 0 0 0.75 316.76953 128.0625] CT
1 0 0 RC
N
f-1759579234
f
GR
GS
[0.75 0 0 0.75 298.3567 23.6875] CT
1 0 0 RC
N
f-1759579234
f
GR
GS
[0.75 0 0 0.75 307.32182 23.6875] CT
1 0 0 RC
N
f-1759579234
f
GR
GS
[0.75 0 0 0.75 273.44939 23.6875] CT
1 0 0 RC
N
f-1759579234
f
GR
GS
[0.75 0 0 0.75 303.7655 23.6875] CT
1 0 0 RC
N
f-1759579234
f
GR
GS
[0.75 0 0 0.75 313.43724 23.6875] CT
1 0 0 RC
N
f-1759579234
f
GR
GS
[0.75 0 0 0.75 271.3215 128.0625] CT
1 0 0 RC
N
f-1759579234
f
GR
GS
[0.75 0 0 0.75 304.83515 23.6875] CT
1 0 0 RC
N
f-1759579234
f
GR
GS
[0.75 0 0 0.75 281.26964 128.0625] CT
1 0 0 RC
N
f-1759579234
f
GR
GS
[0.75 0 0 0.75 245.82191 128.0625] CT
1 0 0 RC
N
f-1759579234
f
GR
GS
[0.75 0 0 0.75 300.86375 23.6875] CT
1 0 0 RC
N
f-1759579234
f
GR
GS
[0.75 0 0 0.75 271.8739 128.0625] CT
1 0 0 RC
N
f-1759579234
f
GR
GS
[0.75 0 0 0.75 293.97956 128.0625] CT
1 0 0 RC
N
f-1759579234
f
GR
GS
[0.75 0 0 0.75 290.50841 128.0625] CT
1 0 0 RC
N
f-1759579234
f
GR
GS
[0.75 0 0 0.75 283.99388 23.6875] CT
1 0 0 RC
N
f-1759579234
f
GR
GS
[0.75 0 0 0.75 251.07992 128.0625] CT
1 0 0 RC
N
f-1759579234
f
GR
GS
[0.75 0 0 0.75 307.69434 23.6875] CT
1 0 0 RC
N
f-1759579234
f
GR
GS
[0.75 0 0 0.75 281.9247 128.0625] CT
1 0 0 RC
N
f-1759579234
f
GR
GS
[0.75 0 0 0.75 287.79215 128.0625] CT
1 0 0 RC
N
f-1759579234
f
GR
GS
[0.75 0 0 0.75 314.72866 23.6875] CT
1 0 0 RC
N
f-1759579234
f
GR
GS
[0.75 0 0 0.75 287.46446 128.0625] CT
1 0 0 RC
N
f-1759579234
f
GR
GS
[0.75 0 0 0.75 286.55605 128.0625] CT
1 0 0 RC
N
f-1759579234
f
GR
GS
[0.75 0 0 0.75 313.11852 23.6875] CT
1 0 0 RC
N
f-1759579234
f
GR
GS
[0.75 0 0 0.75 303.15255 23.6875] CT
1 0 0 RC
N
f-1759579234
f
GR
GS
[0.75 0 0 0.75 313.93233 23.6875] CT
1 0 0 RC
N
f-1759579234
f
GR
GS
[0.75 0 0 0.75 282.22176 128.0625] CT
1 0 0 RC
N
f-1759579234
f
GR
GS
[0.75 0 0 0.75 310.23859 23.6875] CT
1 0 0 RC
N
f-1759579234
f
GR
GS
[0.75 0 0 0.75 299.46918 23.6875] CT
1 0 0 RC
N
f-1759579234
f
GR
GS
[0.75 0 0 0.75 310.36203 23.6875] CT
1 0 0 RC
N
f-1759579234
f
GR
GS
[0.75 0 0 0.75 365.92843 23.6875] CT
1 0 0 RC
N
f-1759579234
f
GR
GS
[0.75 0 0 0.75 285.68671 23.6875] CT
1 0 0 RC
N
f-1759579234
f
GR
GS
[0.75 0 0 0.75 308.33036 23.6875] CT
1 0 0 RC
N
f-1759579234
f
GR
GS
[0.75 0 0 0.75 289.54717 128.0625] CT
1 0 0 RC
N
f-1759579234
f
GR
GS
[0.75 0 0 0.75 302.12318 128.0625] CT
1 0 0 RC
N
f-1759579234
f
GR
GS
[0.75 0 0 0.75 285.18924 23.6875] CT
1 0 0 RC
N
f-1759579234
f
GR
GS
[0.75 0 0 0.75 291.4831 128.0625] CT
1 0 0 RC
N
f-1759579234
f
GR
GS
[0.75 0 0 0.75 313.93233 23.6875] CT
1 0 0 RC
N
f-1759579234
f
GR
GS
[0.75 0 0 0.75 273.88648 23.6875] CT
1 0 0 RC
N
f-1759579234
f
GR
GS
[0.75 0 0 0.75 291.11195 23.6875] CT
1 0 0 RC
N
f-1759579234
f
GR
GS
[0.75 0 0 0.75 287.89002 23.6875] CT
1 0 0 RC
N
f-1759579234
f
GR
GS
[0.75 0 0 0.75 278.3489 128.0625] CT
1 0 0 RC
N
f-1759579234
f
GR
GS
[0.75 0 0 0.75 324.1141 23.6875] CT
1 0 0 RC
N
f-1759579234
f
GR
GS
[0.75 0 0 0.75 271.8739 128.0625] CT
1 0 0 RC
N
f-1759579234
f
GR
GS
[0.75 0 0 0.75 291.0743 23.6875] CT
1 0 0 RC
N
f-1759579234
f
GR
GS
[0.75 0 0 0.75 300.92212 23.6875] CT
1 0 0 RC
N
f-1759579234
f
GR
GS
[0.75 0 0 0.75 277.5718 23.6875] CT
1 0 0 RC
N
f-1759579234
f
GR
GS
[0.75 0 0 0.75 277.76999 23.6875] CT
1 0 0 RC
N
f-1759579234
f
GR
GS
[0.75 0 0 0.75 297.55465 23.6875] CT
1 0 0 RC
N
f-1759579234
f
GR
GS
[0.75 0 0 0.75 259.88548 128.0625] CT
1 0 0 RC
N
f-1759579234
f
GR
GS
[0.75 0 0 0.75 305.67091 23.6875] CT
1 0 0 RC
N
f-1759579234
f
GR
GS
[0.75 0 0 0.75 282.34454 128.0625] CT
1 0 0 RC
N
f-1759579234
f
GR
GS
[0.75 0 0 0.75 299.96844 128.0625] CT
1 0 0 RC
N
f-1759579234
f
GR
GS
[0.75 0 0 0.75 286.6385 128.0625] CT
1 0 0 RC
N
f-1759579234
f
GR
GS
[0.75 0 0 0.75 273.72544 128.0625] CT
1 0 0 RC
N
f-1759579234
f
GR
GS
[0.75 0 0 0.75 375.63451 23.6875] CT
1 0 0 RC
N
f-1759579234
f
GR
GS
[0.75 0 0 0.75 290.88535 23.6875] CT
1 0 0 RC
N
f-1759579234
f
GR
GS
[0.75 0 0 0.75 265.25434 128.0625] CT
1 0 0 RC
N
f-1759579234
f
GR
GS
[0.75 0 0 0.75 300.49148 128.0625] CT
1 0 0 RC
N
f-1759579234
f
GR
GS
[0.75 0 0 0.75 309.9641 23.6875] CT
1 0 0 RC
N
f-1759579234
f
GR
GS
[0.75 0 0 0.75 300.49148 128.0625] CT
1 0 0 RC
N
f-1759579234
f
GR
GS
[0.75 0 0 0.75 259.88548 128.0625] CT
1 0 0 RC
N
f-1759579234
f
GR
GS
[0.75 0 0 0.75 275.43031 128.0625] CT
1 0 0 RC
N
f-1759579234
f
GR
GS
[0.75 0 0 0.75 278.5957 23.6875] CT
1 0 0 RC
N
f-1759579234
f
GR
GS
[0.75 0 0 0.75 282.43856 23.6875] CT
1 0 0 RC
N
f-1759579234
f
GR
GS
[0.75 0 0 0.75 308.33036 23.6875] CT
1 0 0 RC
N
f-1759579234
f
GR
GS
[0.75 0 0 0.75 308.80426 23.6875] CT
1 0 0 RC
N
f-1759579234
f
GR
GS
[0.75 0 0 0.75 293.82264 128.0625] CT
1 0 0 RC
N
f-1759579234
f
GR
GS
[0.75 0 0 0.75 294.54176 23.6875] CT
1 0 0 RC
N
f-1759579234
f
GR
GS
[0.75 0 0 0.75 315.5048 23.6875] CT
1 0 0 RC
N
f-1759579234
f
GR
GS
[0.75 0 0 0.75 282.43856 23.6875] CT
1 0 0 RC
N
f-1759579234
f
GR
GS
[0.75 0 0 0.75 283.16954 128.0625] CT
1 0 0 RC
N
f-1759579234
f
GR
GS
[0.75 0 0 0.75 309.19581 23.6875] CT
1 0 0 RC
N
f-1759579234
f
GR
GS
[0.75 0 0 0.75 277.76999 23.6875] CT
1 0 0 RC
N
f-1759579234
f
GR
GS
[0.75 0 0 0.75 292.10522 128.0625] CT
1 0 0 RC
N
f-1759579234
f
GR
GS
[0.75 0 0 0.75 292.48368 23.6875] CT
1 0 0 RC
N
f-1759579234
f
GR
GS
[0.75 0 0 0.75 316.66871 23.6875] CT
1 0 0 RC
N
f-1759579234
f
GR
GS
[0.75 0 0 0.75 278.1717 128.0625] CT
1 0 0 RC
N
f-1759579234
f
GR
GS
[0.75 0 0 0.75 273.72544 128.0625] CT
1 0 0 RC
N
f-1759579234
f
GR
GS
[0.75 0 0 0.75 298.3567 23.6875] CT
1 0 0 RC
N
f-1759579234
f
GR
GS
[0.75 0 0 0.75 251.41985 128.0625] CT
1 0 0 RC
N
f-1759579234
f
GR
GS
[0.75 0 0 0.75 314.86116 23.6875] CT
1 0 0 RC
N
f-1759579234
f
GR
GS
[0.75 0 0 0.75 276.2623 128.0625] CT
1 0 0 RC
N
f-1759579234
f
GR
GS
[0.75 0 0 0.75 278.583 23.6875] CT
1 0 0 RC
N
f-1759579234
f
GR
GS
[0.75 0 0 0.75 264.22604 128.0625] CT
1 0 0 RC
N
f-1759579234
f
GR
GS
[0.75 0 0 0.75 325.81206 23.6875] CT
1 0 0 RC
N
f-1759579234
f
GR
GS
[0.75 0 0 0.75 279.28922 128.0625] CT
1 0 0 RC
N
f-1759579234
f
GR
GS
[0.75 0 0 0.75 365.92843 23.6875] CT
1 0 0 RC
N
f-1759579234
f
GR
GS
[0.75 0 0 0.75 315.92876 23.6875] CT
1 0 0 RC
N
f-1759579234
f
GR
GS
[0.75 0 0 0.75 296.5573 23.6875] CT
1 0 0 RC
N
f-1759579234
f
GR
GS
[0.75 0 0 0.75 296.45737 23.6875] CT
1 0 0 RC
N
f-1759579234
f
GR
GS
[0.75 0 0 0.75 293.97956 128.0625] CT
1 0 0 RC
N
f-1759579234
f
GR
GS
[0.75 0 0 0.75 283.18073 128.0625] CT
1 0 0 RC
N
f-1759579234
f
GR
GS
[0.75 0 0 0.75 289.39588 128.0625] CT
1 0 0 RC
N
f-1759579234
f
GR
GS
[0.75 0 0 0.75 308.33036 23.6875] CT
1 0 0 RC
N
f-1759579234
f
GR
GS
[0.75 0 0 0.75 290.50841 128.0625] CT
1 0 0 RC
N
f-1759579234
f
GR
GS
[0.75 0 0 0.75 284.69712 128.0625] CT
1 0 0 RC
N
f-1759579234
f
GR
GS
[0.75 0 0 0.75 317.72232 23.6875] CT
1 0 0 RC
N
f-1759579234
f
GR
GS
[0.75 0 0 0.75 284.69712 128.0625] CT
1 0 0 RC
N
f-1759579234
f
GR
GS
[0.75 0 0 0.75 291.97327 23.6875] CT
1 0 0 RC
N
f-1759579234
f
GR
GS
[0.75 0 0 0.75 316.76953 128.0625] CT
1 0 0 RC
N
f-1759579234
f
GR
GS
[0.75 0 0 0.75 281.77631 128.0625] CT
1 0 0 RC
N
f-1759579234
f
GR
GS
[0.75 0 0 0.75 288.95478 23.6875] CT
1 0 0 RC
N
f-1759579234
f
GR
GS
[0.75 0 0 0.75 297.03461 23.6875] CT
1 0 0 RC
N
f-1759579234
f
GR
GS
[0.75 0 0 0.75 314.86116 23.6875] CT
1 0 0 RC
N
f-1759579234
f
GR
GS
[0.75 0 0 0.75 322.34065 23.6875] CT
1 0 0 RC
N
f-1759579234
f
GR
GS
[0.75 0 0 0.75 300.76442 128.0625] CT
1 0 0 RC
N
f-1759579234
f
GR
GS
[0.75 0 0 0.75 262.46407 23.6875] CT
1 0 0 RC
N
f-1759579234
f
GR
GS
[0.75 0 0 0.75 326.65789 23.6875] CT
1 0 0 RC
N
f-1759579234
f
GR
GS
[0.75 0 0 0.75 334.24905 23.6875] CT
1 0 0 RC
N
f-1759579234
f
GR
GS
[0.75 0 0 0.75 276.62569 128.0625] CT
1 0 0 RC
N
f-1759579234
f
GR
GS
[0.75 0 0 0.75 278.5957 23.6875] CT
1 0 0 RC
N
f-1759579234
f
GR
GS
[0.75 0 0 0.75 280.23676 128.0625] CT
1 0 0 RC
N
f-1759579234
f
GR
GS
[0.75 0 0 0.75 290.88535 23.6875] CT
1 0 0 RC
N
f-1759579234
f
GR
GS
[0.75 0 0 0.75 311.19413 128.0625] CT
1 0 0 RC
N
f-1759579234
f
GR
GS
[0.75 0 0 0.75 284.31683 128.0625] CT
1 0 0 RC
N
f-1759579234
f
GR
GS
[0.75 0 0 0.75 279.46445 23.6875] CT
1 0 0 RC
N
f-1759579234
f
GR
GS
[0.75 0 0 0.75 281.05591 128.0625] CT
1 0 0 RC
N
f-1759579234
f
GR
GS
[0.75 0 0 0.75 281.13272 23.6875] CT
1 0 0 RC
N
f-1759579234
f
GR
GS
[0.75 0 0 0.75 308.92632 23.6875] CT
1 0 0 RC
N
f-1759579234
f
GR
GS
[0.75 0 0 0.75 273.72544 128.0625] CT
1 0 0 RC
N
f-1759579234
f
GR
GS
[0.75 0 0 0.75 304.83515 23.6875] CT
1 0 0 RC
N
f-1759579234
f
GR
GS
[0.75 0 0 0.75 298.3567 23.6875] CT
1 0 0 RC
N
f-1759579234
f
GR
GS
[0.75 0 0 0.75 282.43856 23.6875] CT
1 0 0 RC
N
f-1759579234
f
GR
GS
[0.75 0 0 0.75 301.08428 128.0625] CT
1 0 0 RC
N
f-1759579234
f
GR
GS
[0.75 0 0 0.75 281.26964 128.0625] CT
1 0 0 RC
N
f-1759579234
f
GR
GS
[0.75 0 0 0.75 294.5636 128.0625] CT
1 0 0 RC
N
f-1759579234
f
GR
GS
[0.75 0 0 0.75 278.1717 128.0625] CT
1 0 0 RC
N
f-1759579234
f
GR
GS
[0.75 0 0 0.75 300.92212 23.6875] CT
1 0 0 RC
N
f-1759579234
f
GR
GS
[0.75 0 0 0.75 302.13192 128.0625] CT
1 0 0 RC
N
f-1759579234
f
GR
GS
[0.75 0 0 0.75 291.84922 128.0625] CT
1 0 0 RC
N
f-1759579234
f
GR
GS
[0.75 0 0 0.75 307.69434 23.6875] CT
1 0 0 RC
N
f-1759579234
f
GR
GS
[0.75 0 0 0.75 314.64153 23.6875] CT
1 0 0 RC
N
f-1759579234
f
GR
GS
[0.75 0 0 0.75 300.92212 23.6875] CT
1 0 0 RC
N
f-1759579234
f
GR
GS
[0.75 0 0 0.75 261.29816 128.0625] CT
1 0 0 RC
N
f-1759579234
f
GR
GS
[0.75 0 0 0.75 326.28609 23.6875] CT
1 0 0 RC
N
f-1759579234
f
GR
GS
[0.75 0 0 0.75 326.65789 23.6875] CT
1 0 0 RC
N
f-1759579234
f
GR
GS
[0.75 0 0 0.75 292.59364 23.6875] CT
1 0 0 RC
N
f-1759579234
f
GR
GS
[0.75 0 0 0.75 282.43856 23.6875] CT
1 0 0 RC
N
f-1759579234
f
GR
GS
[0.75 0 0 0.75 275.43031 128.0625] CT
1 0 0 RC
N
f-1759579234
f
GR
GS
[0.75 0 0 0.75 277.14228 128.0625] CT
1 0 0 RC
N
f-1759579234
f
GR
GS
[0.75 0 0 0.75 283.99388 23.6875] CT
1 0 0 RC
N
f-1759579234
f
GR
GS
[0.75 0 0 0.75 298.58691 23.6875] CT
1 0 0 RC
N
f-1759579234
f
GR
GS
[0.75 0 0 0.75 279.46445 23.6875] CT
1 0 0 RC
N
f-1759579234
f
GR
GS
[0.75 0 0 0.75 310.77356 23.6875] CT
1 0 0 RC
N
f-1759579234
f
GR
GS
[0.75 0 0 0.75 311.60081 23.6875] CT
1 0 0 RC
N
f-1759579234
f
GR
GS
[0.75 0 0 0.75 328.31989 23.6875] CT
1 0 0 RC
N
f-1759579234
f
GR
GS
[0.75 0 0 0.75 315.89278 23.6875] CT
1 0 0 RC
N
f-1759579234
f
GR
GS
[0.75 0 0 0.75 313.80315 23.6875] CT
1 0 0 RC
N
f-1759579234
f
GR
GS
[0.75 0 0 0.75 277.14228 128.0625] CT
1 0 0 RC
N
f-1759579234
f
GR
GS
[0.75 0 0 0.75 310.82414 23.6875] CT
1 0 0 RC
N
f-1759579234
f
GR
GS
[0.75 0 0 0.75 324.80006 23.6875] CT
1 0 0 RC
N
f-1759579234
f
GR
GS
[0.75 0 0 0.75 277.76999 23.6875] CT
1 0 0 RC
N
f-1759579234
f
GR
GS
[0.75 0 0 0.75 300.41606 128.0625] CT
1 0 0 RC
N
f-1759579234
f
GR
GS
[0.75 0 0 0.75 278.55984 128.0625] CT
1 0 0 RC
N
f-1759579234
f
GR
GS
[0.75 0 0 0.75 278.583 23.6875] CT
1 0 0 RC
N
f-1759579234
f
GR
GS
[0.75 0 0 0.75 271.44539 128.0625] CT
1 0 0 RC
N
f-1759579234
f
GR
GS
[0.75 0 0 0.75 271.87434 128.0625] CT
1 0 0 RC
N
f-1759579234
f
GR
GS
[0.75 0 0 0.75 335.25877 128.0625] CT
1 0 0 RC
N
f-1759579234
f
GR
GS
[0.75 0 0 0.75 285.07599 23.6875] CT
1 0 0 RC
N
f-1759579234
f
GR
GS
[0.75 0 0 0.75 312.3614 23.6875] CT
1 0 0 RC
N
f-1759579234
f
GR
GS
[0.75 0 0 0.75 286.6385 128.0625] CT
1 0 0 RC
N
f-1759579234
f
GR
GS
[0.75 0 0 0.75 289.54717 128.0625] CT
1 0 0 RC
N
f-1759579234
f
GR
GS
[0.75 0 0 0.75 311.24135 23.6875] CT
1 0 0 RC
N
f-1759579234
f
GR
GS
[0.75 0 0 0.75 272.92946 128.0625] CT
1 0 0 RC
N
f-1759579234
f
GR
GS
[0.75 0 0 0.75 290.88535 23.6875] CT
1 0 0 RC
N
f-1759579234
f
GR
GS
[0.75 0 0 0.75 319.99741 23.6875] CT
1 0 0 RC
N
f-1759579234
f
GR
GS
[0.75 0 0 0.75 305.83813 23.6875] CT
1 0 0 RC
N
f-1759579234
f
GR
GS
[0.75 0 0 0.75 283.18073 128.0625] CT
1 0 0 RC
N
f-1759579234
f
GR
GS
[0.75 0 0 0.75 291.60352 23.6875] CT
1 0 0 RC
N
f-1759579234
f
GR
GS
[0.75 0 0 0.75 315.89278 23.6875] CT
1 0 0 RC
N
f-1759579234
f
GR
GS
[0.75 0 0 0.75 331.03883 23.6875] CT
1 0 0 RC
N
f-1759579234
f
GR
GS
[0.75 0 0 0.75 282.22176 128.0625] CT
1 0 0 RC
N
f-1759579234
f
GR
GS
[0.75 0 0 0.75 280.33033 128.0625] CT
1 0 0 RC
N
f-1759579234
f
GR
GS
[0.75 0 0 0.75 313.35342 23.6875] CT
1 0 0 RC
N
f-1759579234
f
GR
GS
[0.75 0 0 0.75 313.42298 23.6875] CT
1 0 0 RC
N
f-1759579234
f
GR
GS
[0.75 0 0 0.75 316.76305 23.6875] CT
1 0 0 RC
N
f-1759579234
f
GR
GS
[0.75 0 0 0.75 297.48168 23.6875] CT
1 0 0 RC
N
f-1759579234
f
GR
GS
[0.75 0 0 0.75 314.72866 23.6875] CT
1 0 0 RC
N
f-1759579234
f
GR
GS
[0.75 0 0 0.75 281.26964 128.0625] CT
1 0 0 RC
N
f-1759579234
f
GR
GS
[0.75 0 0 0.75 291.60352 23.6875] CT
1 0 0 RC
N
f-1759579234
f
GR
GS
[0.75 0 0 0.75 275.7979 23.6875] CT
1 0 0 RC
N
f-1759579234
f
GR
GS
[0.75 0 0 0.75 300.92212 23.6875] CT
1 0 0 RC
N
f-1759579234
f
GR
GS
[0.75 0 0 0.75 314.64153 23.6875] CT
1 0 0 RC
N
f-1759579234
f
GR
GS
[0.75 0 0 0.75 306.01154 23.6875] CT
1 0 0 RC
N
f-1759579234
f
GR
GS
[0.75 0 0 0.75 300.86375 23.6875] CT
1 0 0 RC
N
f-1759579234
f
GR
GS
[0.75 0 0 0.75 307.69434 23.6875] CT
1 0 0 RC
N
f-1759579234
f
GR
GS
[0.75 0 0 0.75 274.08923 128.0625] CT
1 0 0 RC
N
f-1759579234
f
GR
GS
[0.75 0 0 0.75 283.99388 23.6875] CT
1 0 0 RC
N
f-1759579234
f
GR
GS
[0.75 0 0 0.75 291.84922 128.0625] CT
1 0 0 RC
N
f-1759579234
f
GR
GS
[0.75 0 0 0.75 284.40056 23.6875] CT
1 0 0 RC
N
f-1759579234
f
GR
GS
[0.75 0 0 0.75 286.28618 128.0625] CT
1 0 0 RC
N
f-1759579234
f
GR
GS
[0.75 0 0 0.75 277.5718 23.6875] CT
1 0 0 RC
N
f-1759579234
f
GR
GS
[0.75 0 0 0.75 276.62569 128.0625] CT
1 0 0 RC
N
f-1759579234
f
GR
GS
[0.75 0 0 0.75 278.55984 128.0625] CT
1 0 0 RC
N
f-1759579234
f
GR
GS
[0.75 0 0 0.75 324.84657 23.6875] CT
1 0 0 RC
N
f-1759579234
f
GR
GS
[0.75 0 0 0.75 271.8739 128.0625] CT
1 0 0 RC
N
f-1759579234
f
GR
GS
[0.75 0 0 0.75 348.62425 23.6875] CT
1 0 0 RC
N
f-1759579234
f
GR
GS
[0.75 0 0 0.75 307.22449 23.6875] CT
1 0 0 RC
N
f-1759579234
f
GR
GS
[0.75 0 0 0.75 332.87176 128.0625] CT
1 0 0 RC
N
f-1759579234
f
GR
GS
[0.75 0 0 0.75 305.83813 23.6875] CT
1 0 0 RC
N
f-1759579234
f
GR
GS
[0.75 0 0 0.75 291.4831 128.0625] CT
1 0 0 RC
N
f-1759579234
f
GR
GS
[0.75 0 0 0.75 316.76953 128.0625] CT
1 0 0 RC
N
f-1759579234
f
GR
GS
[0.75 0 0 0.75 276.5931 128.0625] CT
1 0 0 RC
N
f-1759579234
f
GR
GS
[0.75 0 0 0.75 282.77126 23.6875] CT
1 0 0 RC
N
f-1759579234
f
GR
GS
[0.75 0 0 0.75 270.99676 128.0625] CT
1 0 0 RC
N
f-1759579234
f
GR
GS
[0.75 0 0 0.75 281.26964 128.0625] CT
1 0 0 RC
N
f-1759579234
f
GR
GS
[0.75 0 0 0.75 314.31411 23.6875] CT
1 0 0 RC
N
f-1759579234
f
GR
GS
[0.75 0 0 0.75 300.23575 23.6875] CT
1 0 0 RC
N
f-1759579234
f
GR
GS
[0.75 0 0 0.75 313.42298 23.6875] CT
1 0 0 RC
N
f-1759579234
f
GR
GS
[0.75 0 0 0.75 307.82318 23.6875] CT
1 0 0 RC
N
f-1759579234
f
GR
GS
[0.75 0 0 0.75 272.92946 128.0625] CT
1 0 0 RC
N
f-1759579234
f
GR
GS
[0.75 0 0 0.75 280.23676 128.0625] CT
1 0 0 RC
N
f-1759579234
f
GR
GS
[0.75 0 0 0.75 310.36203 23.6875] CT
1 0 0 RC
N
f-1759579234
f
GR
GS
[0.75 0 0 0.75 286.28618 128.0625] CT
1 0 0 RC
N
f-1759579234
f
GR
GS
[0.75 0 0 0.75 290.66354 128.0625] CT
1 0 0 RC
N
f-1759579234
f
GR
GS
[0.75 0 0 0.75 302.63024 23.6875] CT
1 0 0 RC
N
f-1759579234
f
GR
GS
[0.75 0 0 0.75 285.68671 23.6875] CT
1 0 0 RC
N
f-1759579234
f
GR
GS
[0.75 0 0 0.75 283.99388 23.6875] CT
1 0 0 RC
N
f-1759579234
f
GR
GS
[0.75 0 0 0.75 245.82191 128.0625] CT
1 0 0 RC
N
f-1759579234
f
GR
GS
[0.75 0 0 0.75 287.76585 23.6875] CT
1 0 0 RC
N
f-1759579234
f
GR
GS
[0.75 0 0 0.75 303.14809 128.0625] CT
1 0 0 RC
N
f-1759579234
f
GR
GS
[0.75 0 0 0.75 312.3614 23.6875] CT
1 0 0 RC
N
f-1759579234
f
GR
GS
[0.75 0 0 0.75 293.65855 128.0625] CT
1 0 0 RC
N
f-1759579234
f
GR
GS
[0.75 0 0 0.75 281.13272 23.6875] CT
1 0 0 RC
N
f-1759579234
f
GR
GS
[0.75 0 0 0.75 285.12284 128.0625] CT
1 0 0 RC
N
f-1759579234
f
GR
GS
[0.75 0 0 0.75 253.25803 128.0625] CT
1 0 0 RC
N
f-1759579234
f
GR
GS
[0.75 0 0 0.75 291.17143 23.6875] CT
1 0 0 RC
N
f-1759579234
f
GR
GS
[0.75 0 0 0.75 285.12284 128.0625] CT
1 0 0 RC
N
f-1759579234
f
GR
GS
[0.75 0 0 0.75 338.53667 23.6875] CT
1 0 0 RC
N
f-1759579234
f
GR
GS
[0.75 0 0 0.75 297.48168 23.6875] CT
1 0 0 RC
N
f-1759579234
f
GR
GS
[0.75 0 0 0.75 282.10707 128.0625] CT
1 0 0 RC
N
f-1759579234
f
GR
GS
[0.75 0 0 0.75 291.84922 128.0625] CT
1 0 0 RC
N
f-1759579234
f
GR
GS
[0.75 0 0 0.75 322.53136 23.6875] CT
1 0 0 RC
N
f-1759579234
f
GR
GS
[0.75 0 0 0.75 287.89002 23.6875] CT
1 0 0 RC
N
f-1759579234
f
GR
GS
[0.75 0 0 0.75 285.99202 128.0625] CT
1 0 0 RC
N
f-1759579234
f
GR
GS
[0.75 0 0 0.75 330.37669 23.6875] CT
1 0 0 RC
N
f-1759579234
f
GR
GS
[0.75 0 0 0.75 302.12318 128.0625] CT
1 0 0 RC
N
f-1759579234
f
GR
GS
[0.75 0 0 0.75 284.40056 23.6875] CT
1 0 0 RC
N
f-1759579234
f
GR
GS
[0.75 0 0 0.75 276.62569 128.0625] CT
1 0 0 RC
N
f-1759579234
f
GR
GS
[0.75 0 0 0.75 291.33666 23.6875] CT
1 0 0 RC
N
f-1759579234
f
GR
GS
[0.75 0 0 0.75 313.94598 23.6875] CT
1 0 0 RC
N
f-1759579234
f
GR
GS
[0.75 0 0 0.75 292.59364 23.6875] CT
1 0 0 RC
N
f-1759579234
f
GR
GS
[0.75 0 0 0.75 294.34859 128.0625] CT
1 0 0 RC
N
f-1759579234
f
GR
GS
[0.75 0 0 0.75 272.92946 128.0625] CT
1 0 0 RC
N
f-1759579234
f
GR
GS
[0.75 0 0 0.75 284.30914 23.6875] CT
1 0 0 RC
N
f-1759579234
f
GR
GS
[0.75 0 0 0.75 300.49148 128.0625] CT
1 0 0 RC
N
f-1759579234
f
GR
GS
[0.75 0 0 0.75 278.3489 128.0625] CT
1 0 0 RC
N
f-1759579234
f
GR
GS
[0.75 0 0 0.75 294.54176 23.6875] CT
1 0 0 RC
N
f-1759579234
f
GR
GS
[0.75 0 0 0.75 307.22449 23.6875] CT
1 0 0 RC
N
f-1759579234
f
GR
GS
[0.75 0 0 0.75 326.03558 23.6875] CT
1 0 0 RC
N
f-1759579234
f
GR
GS
[0.75 0 0 0.75 0 0.5] CT
0 0.447 0.741 RC
1 LJ
2.667 LW
N
322.978 172.242 M
449.168 16.98 L
S
GR
%%Trailer
%%Pages: 1
%%EOF
